//Maya ASCII 2016 scene
//Name: SleepingGiant_Female.ma
//Last modified: Wed, Sep 14, 2016 01:58:41 PM
//Codeset: 1252
requires maya "2016";
requires "stereoCamera" "10.0";
requires "stereoCamera" "10.0";
currentUnit -l meter -a degree -t ntsc;
fileInfo "application" "maya";
fileInfo "product" "Maya 2016";
fileInfo "version" "2016";
fileInfo "cutIdentifier" "201603180400-990260";
fileInfo "osv" "Microsoft Windows 8 , 64-bit  (Build 9200)\n";
fileInfo "license" "education";
createNode transform -n "SleepingGiant_Female";
	rename -uid "09ED0517-459C-975F-CB0A-13A73F01BBD6";
createNode mesh -n "SleepingGiant_FemaleShape" -p "SleepingGiant_Female";
	rename -uid "2211EC46-4401-EE00-3958-ACB325A7C9ED";
	setAttr -k off ".v";
	setAttr ".iog[0].og[0].gcl" -type "componentList" 1 "f[0:498]";
	setAttr ".vir" yes;
	setAttr ".vif" yes;
	setAttr ".uvst[0].uvsn" -type "string" "map1";
	setAttr -s 783 ".uvst[0].uvsp";
	setAttr ".uvst[0].uvsp[0:249]" -type "float2" 0.95534903 0.60112113 0.96355766
		 0.62226611 0.96002752 0.75715101 0.96993697 0.62797213 0.9949587 0.62937874 0.98504955
		 0.75855744 0.9472571 0.74743879 0.79430741 0.64595836 0.78609878 0.62481332 0.95544297
		 0.76672035 0.95510852 0.79177952 0.81151742 0.65275526 0.95539612 0.63259786 0.83446604
		 0.80450743 0.80548137 0.66214448 0.94001621 0.75853235 0.87778729 0.82767469 0.87812179
		 0.80261564 0.39407387 0.62624556 0.38687617 0.60093701 0.42020848 0.60095042 0.42425409
		 0.62359971 0.1406785 0.83911014 0.16314238 0.82855105 0.16314238 0.86978233 0.1406785
		 0.85860187 0.68991107 0.29337165 0.67280185 0.28578338 0.6743837 0.27055168 0.6958164
		 0.2800574 0.8404209 0.58362085 0.77932107 0.57469523 0.79953903 0.53666836 0.83986312
		 0.5435589 0.7358833 0.49273166 0.75650549 0.46975243 0.72748882 0.46199799 0.67973095
		 0.42879501 0.68357337 0.4131124 0.73112863 0.44189239 0.93022537 0.51952642 0.8974995
		 0.57707447 0.88391513 0.53631848 0.90630025 0.48720559 0.83948928 0.48842841 0.81079179
		 0.47619876 0.8138482 0.39700308 0.8433786 0.40709671 0.76928538 0.45097908 0.78276139
		 0.38212261 0.73742372 0.41388866 0.68997228 0.39069763 0.70145887 0.35134363 0.74652082
		 0.3691597 0.90608042 0.44671056 0.87257701 0.47450024 0.86805373 0.40404913 0.90038902
		 0.3881571 0.85162365 0.23465979 0.82617897 0.23201427 0.83296835 0.17582697 0.86026901
		 0.17625704 0.80272049 0.21867087 0.80831081 0.17305949 0.7752949 0.22515368 0.74993318
		 0.21736553 0.76653737 0.16489029 0.78417283 0.17168999 0.89144468 0.23340899 0.87056613
		 0.23357213 0.87817395 0.17829868 0.88822836 0.17815521 0.85117084 0.084217317 0.83523154
		 0.083855577 0.8376314 0.031712897 0.85214561 0.031971253 0.88275415 0.084115006 0.86834788
		 0.084098674 0.86750931 0.031879373 0.87971139 0.031846918 0.8072322 0.081496991 0.79878408
		 0.077868678 0.81428796 0.027722217 0.81903881 0.030444779 0.81938201 0.082727022
		 0.8257342 0.030898429 0.82449222 0.27379203 0.79719752 0.27922168 0.79940963 0.24568534
		 0.82130808 0.2477648 0.84834415 0.2695114 0.84904498 0.24801487 0.89140517 0.26515338
		 0.86881059 0.2672801 0.87071609 0.24880099 0.89233047 0.2486234 0.76707035 0.26461947
		 0.74144667 0.25049639 0.74695069 0.23384455 0.77506298 0.24375883 0.13958694 0.33107245
		 0.20381632 0.32981685 0.18330161 0.43562093 0.14404267 0.4356209 0.64694476 0.81323165
		 0.70157731 0.82118219 0.68642724 0.851767 0.61096406 0.82975239 0.12468672 0.13781537
		 0.12468672 0.21077533 0.071660548 0.21426488 0.087379426 0.14206426 0.38548103 0.27196231
		 0.33176807 0.2724272 0.33168313 0.2498641 0.39189237 0.24394503 0.33195683 0.32251975
		 0.37275064 0.32774976 0.35091391 0.49264008 0.33237249 0.49314201 0.33236319 0.43471551
		 0.34065711 0.43568483 0.33237222 0.59163761 0.33237222 0.52897644 0.36223313 0.52410889
		 0.33237222 0.61567646 0.68388295 0.26088214 0.70172137 0.26674297 0.89301157 0.084278502
		 0.88605183 0.032394238 0.91657895 0.23226136 0.89815038 0.18025976 0.91922289 0.26092806
		 0.91921693 0.24697706 0.94282317 0.41536251 0.94070494 0.3778969 0.95040303 0.46042696
		 0.94878525 0.43920872 0.33220008 0.38700107 0.34576872 0.3873198 0.078981578 0.73339331
		 0.086374611 0.7554608 0.04680473 0.7627539 0.046962935 0.73666382 0.087106302 0.33713388
		 0.044626504 0.4356207 0.03365691 0.43561986 0.063768767 0.3470448 0.10116148 0.047733918
		 0.1246942 0.02215834 0.12468854 0.039385274 0.068881713 0.30403927 0.090994485 0.30145246
		 0.24098311 0.32737586 0.23806536 0.40145886 0.21609215 0.43562067 0.06409952 0.65197212
		 0.11712545 0.64761627 0.11712545 0.6971212 0.08822763 0.70167142 0.0088797547 0.769216
		 0.0088798739 0.73524106 0.051645581 0.70283723 0.33193555 0.74216676 0.35854903 0.74567592
		 0.35434374 0.76202404 0.33193156 0.75527847 0.37597343 0.75947595 0.37106833 0.77480435
		 0.40559974 0.76473796 0.42825404 0.77944052 0.41407487 0.80245984 0.39343336 0.78910685
		 0.61175478 0.62874681 0.65951979 0.6351738 0.6472615 0.64504457 0.61167657 0.64891285
		 0.70481181 0.6561197 0.69892716 0.66172761 0.74199986 0.66356921 0.7772032 0.66567266
		 0.77768123 0.67614657 0.74321604 0.67439103 0.63072109 0.656587 0.61163902 0.65880829
		 0.69600034 0.67733634 0.7785908 0.69606692 0.74252486 0.69252181 0.61126947 0.75233597
		 0.64715004 0.75495285 0.64848161 0.79574841 0.61109471 0.79659384 0.74763691 0.76898807
		 0.78206074 0.77207702 0.78387618 0.81184405 0.75055647 0.80874246 0.69690228 0.76101106
		 0.70534873 0.80689746 0.7587595 0.84792417 0.74886787 0.82866353 0.12611222 0.2785629
		 0.13511181 0.295331 0.29810089 0.84389484 0.36341873 0.84585357 0.36375654 0.89750999
		 0.31149343 0.90041852 0.38435906 0.84710908 0.41833058 0.847067 0.41122919 0.89562207
		 0.38338202 0.89583796 0.011878941 0.69385338 0.98555714 0.42714655 0.99063176 0.44247469
		 0.96790034 0.3653121 0.97907251 0.40475649 0.94403058 0.24159545 0.9482125 0.25862768
		 0.92399883 0.17276937 0.93780422 0.22604936 0.89159423 0.031188376 0.9050954 0.081910707
		 0.7185725 0.29015002 0.7111429 0.27348968 0.70132118 0.29677865 0.45264021 0.58931011
		 0.44771659 0.61864555 0.05796165 0.28141141 0.076284781 0.27401525 0.28350753 0.86404288
		 0.29992348 0.90472084 0.18479159 0.83911014 0.18479159 0.85860187 0.1168696 0.82108575
		 0.16448379 0.79202431 0.16462493 0.81130993 0.13004813 0.83046436 0.16448379 0.90550268
		 0.1168696 0.87473202 0.13004813 0.86582255 0.16462493 0.88610387 0.21178296 0.82108575
		 0.19860414 0.83046436 0.21178296 0.87473202 0.19860414 0.86582255 0.14207374 0.9582966
		 0.16122806 0.9582966 0.16122808 0.93962425 0.14207359 0.93962425 0.086436957 0.9582966
		 0.10671552 0.9582966;
	setAttr ".uvst[0].uvsp[250:499]" 0.10671559 0.93962425 0.086431757 0.93962425
		 0.011645883 0.95833796 0.030800313 0.95832735 0.030790031 0.93965477 0.011635512
		 0.93966562 0.066158414 0.95830768 0.066147879 0.93963534 0.18698773 0.90311813 0.2215645
		 0.88396358 0.2216731 0.90067446 0.19920912 0.91123354 0.2215645 0.95875734 0.18698773
		 0.93847615 0.19920912 0.9307251 0.2216731 0.94190544 0.25554362 0.90311813 0.24332234
		 0.91123354 0.25554362 0.93847615 0.24332234 0.9307251 0.15300705 0.92750007 0.16356616
		 0.92750007 0.16356616 0.91375345 0.15300694 0.91375345 0.12233755 0.92750019 0.13351531
		 0.92750007 0.1335153 0.91375333 0.12233222 0.91375345 0.081109017 0.9275319 0.09166798
		 0.92752379 0.09165737 0.91377729 0.081098408 0.9137854 0.11115968 0.92750877 0.11114912
		 0.91376227 0.051111042 0.89064372 0.02326685 0.88397944 0.0061795674 0.8804394 0.053793788
		 0.9112103 0.084005654 0.87095231 0.10109293 0.88043964 0.10109293 0.82677037 0.081884325
		 0.82553154 0.053793788 0.79703993 0.0061795674 0.82670486 0.059241384 0.81419462
		 0.82242537 0.31927857 0.84482467 0.31775042 0.79231614 0.3142328 0.75885004 0.30464056
		 0.72628176 0.28898275 0.92771631 0.30364421 0.95580727 0.29929069 0.89441186 0.30666113
		 0.8679384 0.31306979 0.66012597 0.077996559 0.64428246 0.075264283 0.63940901 0.035604544
		 0.65583229 0.036101945 0.59145832 0.031787194 0.57594132 0.047483779 0.56070775 0.036134161
		 0.58723128 0.015161999 0.56786126 0.057992853 0.55625778 0.058151461 0.64402944 0.090989836
		 0.65165311 0.099159934 0.61297792 0.11825395 0.60149503 0.10053954 0.69932759 0.080395468
		 0.6902234 0.07999704 0.69032425 0.037428804 0.70548856 0.037706204 0.67915338 0.078983732
		 0.68104094 0.037315495 0.67044324 0.078044154 0.67133129 0.036513634 0.62806565 0.075077392
		 0.59666866 0.057414092 0.60680616 0.0339996 0.64854258 0.27924365 0.65977442 0.25904676
		 0.63290739 0.012957878 0.60808009 0.012957878 0.58847028 0.072011717 0.66641432 0.24407578
		 0.63016796 0.27023199 0.61853123 0.23933089 0.63518173 0.22823787 0.56915367 0.091775961
		 0.36220321 0.80244267 0.34955183 0.79224992 0.33192268 0.78645122 0.3989394 0.82703137
		 0.38215956 0.81472158 0.08296299 0.78181756 0.1390225 0.25547874 0.83443707 0.1281656
		 0.85553104 0.1284644 0.81399053 0.12671599 0.79573005 0.12495939 0.78462523 0.12029467
		 0.89732486 0.12910575 0.91563517 0.12537736 0.88533896 0.12851849 0.8711521 0.12836391
		 0.65162385 0.012957878 0.59112006 0.12694454 0.58122289 0.11109889 0.69810486 0.01421947
		 0.71070224 0.014768906 0.68211955 0.01350195 0.66484642 0.012945957 0.74536908 0.72306222
		 0.78000438 0.72703356 0.69727015 0.71210486 0.64156771 0.70015377 0.61150348 0.69305897
		 0.12833509 0.96761972 0.097565919 0.96760935 0.097558647 0.98953277 0.12833117 0.98954326
		 0.159104 0.96761984 0.15910411 0.98954326 0.2127503 0.98954326 0.21277329 0.96761972
		 0.24181141 0.98954326 0.2425037 0.96761984 0.043831259 0.96759099 0.014166266 0.96758097
		 0.014850944 0.9895044 0.043912262 0.98951441 0.33160123 0.22814479 0.39741579 0.21374139
		 0.45867968 0.64733613 0.43626294 0.65868288 0.40154219 0.65328747 0.33237222 0.63426208
		 0.019440353 0.19192 0.027088165 0.12701373 0.026026011 0.062330887 0.049236178 0.041633919
		 0.11712527 0.75658816 0.11712527 0.78124529 0.23666163 0.43562105 0.44584328 0.85170257
		 0.50485635 0.87306476 0.47885782 0.91289896 0.26612613 0.86891937 0.28830183 0.90908343
		 0.070594162 0.81622547 0.27067068 0.62624556 0.24048996 0.62360388 0.24453232 0.60095412
		 0.27786657 0.60093659 0.1406785 0.83911014 0.1406785 0.85860187 0.16314238 0.86978233
		 0.16314238 0.82855105 0.70089495 0.12012655 0.69824904 0.10580377 0.72130495 0.10154463
		 0.71930021 0.11672655 0.51356584 0.58412039 0.51358432 0.54405469 0.55381233 0.53662205
		 0.5745405 0.57437366 0.59594184 0.46913317 0.61687124 0.49183291 0.62485152 0.46098894
		 0.62094134 0.44093409 0.66810501 0.4115169 0.67215836 0.4271464 0.42290688 0.52124029
		 0.44639519 0.48860037 0.46943879 0.5374077 0.45640397 0.57834268 0.51321656 0.48892415
		 0.50823313 0.4076522 0.53762525 0.39716223 0.54174733 0.47630948 0.56850892 0.38186464
		 0.58291036 0.4505336 0.61426997 0.41301778 0.604572 0.36841533 0.64938998 0.34999445
		 0.66140479 0.38919035 0.44607008 0.44810611 0.45097315 0.38948125 0.48351923 0.40493688
		 0.47994432 0.47544247 0.49766871 0.23534188 0.48823825 0.17706063 0.51553065 0.17626327
		 0.52307546 0.23235419 0.54014862 0.17316431 0.54635209 0.21869627 0.57386237 0.22480947
		 0.56426591 0.17147005 0.58180833 0.16443372 0.59911692 0.21668085 0.45783439 0.23462698
		 0.46030715 0.17933485 0.47036254 0.17934307 0.47871342 0.23450914 0.49609712 0.084906943
		 0.49441907 0.032678761 0.50892901 0.032224931 0.51202971 0.084330775 0.46451557 0.085229523
		 0.4668546 0.032925166 0.47905609 0.03279344 0.47892013 0.085019358 0.53999472 0.081595577
		 0.5275023 0.03070686 0.53221673 0.027920552 0.54839379 0.077853836 0.52081376 0.031250514
		 0.52786267 0.082988985 0.52532423 0.27410546 0.52815765 0.24803773 0.55002636 0.24566373
		 0.55268955 0.27916732 0.50141674 0.27014616 0.50042665 0.24866101 0.45830089 0.26636791
		 0.45715365 0.24985182 0.47876832 0.24973866 0.48092201 0.26819038 0.58261728 0.26416096
		 0.57434487 0.24340978 0.60232121 0.23311806 0.60804886 0.2496945 0.13958684 0.54016942
		 0.2038161 0.54142451 0.5751164 0.81295007 0.53532875 0.85117143 0.52042365 0.82046825
		 0.16199401 0.14206426 0.17771262 0.21426488 0.27805319 0.27236712 0.27143082 0.24439898
		 0.29120359 0.32805699 0.31383041 0.49264279 0.32407287 0.43571427 0.3025113 0.52410889
		 0.69560325 0.091481276 0.71431553 0.08993078 0.45426098 0.085531123 0.460522 0.03355778
		 0.4326866 0.23381767;
	setAttr ".uvst[0].uvsp[500:749]" 0.45041418 0.18157265 0.43042907 0.26251727
		 0.43024713 0.2485674 0.40890893 0.41725528 0.41052309 0.37976447 0.40193605 0.46241757
		 0.40326819 0.4411796 0.31863311 0.38741717 0.15526906 0.73339337 0.18728781 0.73666388
		 0.18744573 0.76275426 0.14787626 0.75546128 0.08710517 0.53410935 0.063767374 0.52419817
		 0.14821064 0.047735587 0.090994932 0.56979102 0.068881951 0.56720489 0.24098079 0.54386687
		 0.23806389 0.46978348 0.17015135 0.65197212 0.14602309 0.70167136 0.225371 0.769216
		 0.22537088 0.73524088 0.182605 0.70283729 0.30951431 0.7620126 0.30531129 0.74566054
		 0.29279128 0.77479565 0.2878823 0.75946856 0.2582629 0.76473618 0.27043012 0.78910363
		 0.2497867 0.80245388 0.23561129 0.77943194 0.57612216 0.64476502 0.56394076 0.63479859
		 0.52432656 0.66104043 0.51848638 0.65538645 0.48124123 0.662543 0.47993994 0.67335516
		 0.44546214 0.67483884 0.44602263 0.66436911 0.59257317 0.65643716 0.52713072 0.67667156
		 0.48048866 0.69149065 0.44439593 0.6947515 0.57371676 0.79545301 0.57536972 0.75466937
		 0.47477537 0.76791447 0.47154337 0.80764455 0.43819949 0.8104834 0.44032791 0.77073187
		 0.51676476 0.80615538 0.52557147 0.76033658 0.47307456 0.82757682 0.4630295 0.84675747
		 0.13511235 0.57591105 0.12611312 0.5926795 0.29912558 0.99223864 0.31151 0.9354856
		 0.36381727 0.93746477 0.36439788 0.98911917 0.38531032 0.98749161 0.38347143 0.93878776
		 0.4113225 0.9385131 0.41927302 0.98693615 0.22237167 0.69385338 0.366337 0.42961314
		 0.3614693 0.44500837 0.38316038 0.36754677 0.37252006 0.40713781 0.40536341 0.2435202
		 0.40141118 0.26060703 0.42446768 0.17443076 0.4113802 0.22789165 0.45496416 0.032426633
		 0.44214636 0.083326019 0.6737693 0.11032594 0.68487078 0.095850982 0.68900537 0.12078593
		 0.21702698 0.61865312 0.21209893 0.58931839 0.076285899 0.59722823 0.057962477 0.58983302
		 0.28417623 0.97235417 0.2998648 0.93139005 0.18479159 0.85860187 0.18479159 0.83911014
		 0.1168696 0.82108575 0.13004813 0.83046436 0.16462493 0.81130993 0.16448379 0.79202431
		 0.16448379 0.90550268 0.16462493 0.88610387 0.13004813 0.86582255 0.1168696 0.87473202
		 0.19860414 0.83046436 0.21178296 0.82108575 0.19860414 0.86582255 0.21178296 0.87473202
		 0.030044407 0.93975824 0.030042112 0.95843083 0.010887533 0.95842856 0.010889858
		 0.93975598 0.085683107 0.93976527 0.085681781 0.9584375 0.065400034 0.95843524 0.065402359
		 0.93976265 0.16047633 0.93976516 0.16047615 0.9584375 0.14132163 0.9584375 0.14132163
		 0.93976516 0.10596366 0.95843738 0.10596362 0.93976527 0.18698773 0.90311813 0.19920912
		 0.91123354 0.2216731 0.90067446 0.2215645 0.88396358 0.2215645 0.95875734 0.2216731
		 0.94190544 0.19920912 0.9307251 0.18698773 0.93847615 0.24332234 0.91123354 0.25554362
		 0.90311813 0.24332234 0.9307251 0.25554362 0.93847615 0.091668278 0.91351897 0.091657072
		 0.92726547 0.08109802 0.927257 0.081109166 0.9135105 0.12233767 0.91354388 0.12233211
		 0.92729038 0.11114885 0.92728144 0.11116001 0.9135347 0.16356614 0.91354388 0.1635662
		 0.9272905 0.15300693 0.92729038 0.15300694 0.91354388 0.13351527 0.92729038 0.13351527
		 0.91354388 0.051111042 0.89064372 0.053793788 0.9112103 0.0061795674 0.8804394 0.02326685
		 0.88397944 0.084005654 0.87095231 0.10109293 0.88043964 0.10109293 0.82677037 0.081884325
		 0.82553154 0.053793788 0.79703993 0.059241384 0.81419462 0.0061795674 0.82670486
		 0.5055849 0.31833351 0.52800304 0.31956002 0.55804169 0.31410959 0.59137541 0.30406788
		 0.62372977 0.28797325 0.42251101 0.3053439 0.39436445 0.30136871 0.45585304 0.30791226
		 0.48241052 0.31396413 0.64679676 0.19966668 0.65109056 0.15777209 0.66751397 0.15727469
		 0.66264057 0.19693452 0.71546465 0.15345728 0.71969169 0.13683218 0.74283344 0.15442362
		 0.72759962 0.16577286 0.75066441 0.17982128 0.7390601 0.1796616 0.66289282 0.2126607
		 0.70542824 0.22220999 0.69394577 0.23992482 0.65527016 0.22083223 0.60759467 0.20206547
		 0.60143417 0.15937617 0.61659855 0.15909889 0.61669904 0.20166719 0.62588197 0.15898561
		 0.62776929 0.20065391 0.63647962 0.19971433 0.63559145 0.15818375 0.70011681 0.15566987
		 0.71025366 0.17908439 0.67885637 0.196747 0.73818982 0.093753941 0.74441522 0.11600954
		 0.67401558 0.134628 0.69884288 0.134628 0.71845192 0.19368193 0.73521477 0.077649094
		 0.78288776 0.08417315 0.76438206 0.11151961 0.76927465 0.069511034 0.73776907 0.21344516
		 0.31430116 0.7922368 0.30166379 0.80243182 0.28170523 0.81471884 0.26491806 0.82702792
		 0.15128747 0.78181773 0.139024 0.61576337 0.49233237 0.12920859 0.51342052 0.12862602
		 0.53384554 0.12690139 0.55208093 0.12489922 0.56312215 0.12008546 0.45055121 0.13041225
		 0.43219259 0.12693056 0.46252856 0.12966374 0.47671166 0.12931833 0.65529895 0.134628
		 0.7257008 0.23276854 0.71580416 0.24861461 0.59622079 0.13643894 0.60881799 0.13588953
		 0.62480313 0.1351721 0.64207619 0.13461623 0.4774043 0.72200793 0.44273865 0.7257058
		 0.5255878 0.71142882 0.58138347 0.69991589 0.12833191 0.99005336 0.12833446 0.96812993
		 0.15910411 0.96812993 0.15910411 0.99005324 0.09755978 0.99004632 0.097564787 0.9681229
		 0.043918461 0.96811038 0.043890476 0.99003392 0.014857322 0.96810395 0.014160126
		 0.99002713 0.21283886 0.99005324 0.21275029 0.96812993 0.24181142 0.96812993 0.24250369
		 0.99005336 0.26568004 0.21423775 0.22848597 0.65868884 0.20606747 0.64734524 0.26320419
		 0.65328789 0.222285 0.12701373 0.22993308 0.19192 0.22334677 0.06233494 0.20014009
		 0.041637048 0.44669855 0.98182255 0.47864228 0.9200601 0.50533062 0.95943582 0.26671073
		 0.96778804 0.28816718 0.92723513 0.070594162 0.81622547 0.72473085 0.9717958 0.72552598
		 0.988006 0.62193775 0.98020375;
	setAttr ".uvst[0].uvsp[750:782]" 0.62114257 0.96399379 0.71209908 0.88223004
		 0.63138151 0.95032728 0.6409415 0.86473131 0.7332021 0.96001017 0.72999918 0.86432052
		 0.74616188 0.86284733 0.74936485 0.95853651 0.72404271 0.96151876 0.63808084 0.95616567
		 0.71908492 0.88840914 0.60915291 0.9535836 0.61089659 0.88088417 0.62478673 0.88397956
		 0.6230433 0.95667875 0.7585544 0.87557292 0.75711638 0.86093247 0.93015039 0.86564815
		 0.93158859 0.8802886 0.94785768 0.99635732 0.77627027 0.98771071 0.90469825 0.90727746
		 0.95078659 0.87021673 0.99142742 0.98337805 0.97963506 0.99217284 0.93899393 0.87901127
		 0.75728077 0.88381499 0.90863848 0.89117318 0.7631948 0.9826231 0.95274419 0.99123645
		 0.9165585 0.89729494 0.93151712 0.89813411 0.96770275 0.9920758;
	setAttr ".cuvs" -type "string" "map1";
	setAttr ".dcc" -type "string" "Ambient+Diffuse";
	setAttr ".covm[0]"  0 1 1;
	setAttr ".cdvm[0]"  0 1 1;
	setAttr -s 490 ".vt";
	setAttr ".vt[0:165]"  -0.67443621 2.76827812 0.21703915 -0.68518031 2.82641792 0.33817863
		 -0.27030388 3.28347921 0.33840606 0.18470001 2.65122747 0.62612867 -0.25955984 3.22533941 0.21726647
		 0.19544406 2.59308767 0.50498939 0.29147443 3.27744007 0.19791353 0.56407696 3.97715688 0.19956356
		 0.52328461 4.039483547 -0.20450109 0.28799468 3.27636719 -0.15982342 0.58037025 4.46909332 0.19956356
		 0.56428993 4.38748598 -0.20450109 0.072745621 2.66751409 -0.20875484 0.099413827 2.70604563 0.33992064
		 0.58148241 2.71716285 -0.21322952 0.61137044 2.72805548 0.24955253 0.1028405 2.44243598 0.3197321
		 0.09110409 2.42271447 -0.20605282 0.42175484 1.51116872 -0.093470477 0.46587846 1.50715089 0.15144347
		 0.20820317 1.51619101 0.18138613 0.24909587 1.52020907 -0.05630108 0.37100911 0.34870872 -0.065926865
		 0.38854691 0.34870872 0.050585847 0.28221139 0.35419193 0.032262038 0.28872445 0.35419193 -0.060027067
		 0.47300929 1.11927557 0.084025286 0.45547155 1.13128293 -0.22590031 0.22072208 1.14237916 -0.21277413
		 0.19774926 1.13023269 0.10613932 0.11608368 2.19875312 0.28943178 0.58208138 2.30360866 0.24300839
		 0.55632645 2.34007406 -0.15826367 0.12263781 2.2251761 -0.14295389 -4.4166257e-010 4.00077629089 0.49597833
		 -4.4166257e-010 4.43851185 0.43588105 -4.4166257e-010 4.4885807 -0.45240673 -4.4166257e-010 4.097397327 -0.38935119
		 -4.4166257e-010 3.27495909 -0.24627976 -4.4166257e-010 2.65182495 -0.228383 -4.4166257e-010 2.69487071 0.35646379
		 -4.4166257e-010 3.22989559 0.31866264 0.31062767 2.62384725 0.36709908 0.33743358 2.24861693 0.32664758
		 0.33704087 1.51166868 0.2076901 0.33704087 1.11936367 0.14837709 0.33704087 0.35144788 0.075942382
		 0.33704087 0.35144788 -0.083381042 0.33704087 1.13722384 -0.27119979 0.33704087 1.51568651 -0.12396073
		 0.33738247 2.26505804 -0.25323153 0.32516298 2.58024168 -0.34610665 0.21861392 2.97751617 -0.37109685
		 -4.4166257e-010 3.006380558 -0.41523224 -4.4166257e-010 2.89392996 0.40483609 0.16010271 2.86783195 0.35079452
		 0.28430447 4.50729084 -0.42905226 -4.4166257e-010 4.58575821 0.18649162 -4.4166257e-010 4.62497139 -0.18698071
		 0.16487369 4.60698605 0.14100145 0.15493865 4.62310839 -0.16258417 0.37703061 4.54535055 0.15757029
		 0.35107654 4.56280994 -0.15633279 -4.4166268e-010 4.82319355 0.149001 -4.416626e-010 4.92465925 -0.15740138
		 0.10649624 4.85649967 0.10034797 0.12115054 4.91694689 -0.1250951 -4.4166271e-010 4.81992722 0.25712353
		 -4.4166257e-010 4.98087358 -0.20058556 0.087586015 4.85031414 0.21245106 0.123565 4.97494507 -0.13790315
		 -4.4166254e-010 5.63998032 0.36617294 -4.4166257e-010 5.70918751 -0.34819207 0.18880814 5.63472033 0.29731613
		 0.21970314 5.69346571 -0.27988803 0.23587826 5.41589785 0.35952863 -4.4166257e-010 5.40268517 0.42767581
		 -4.4166257e-010 5.4957509 -0.42307121 0.27470958 5.47895241 -0.31331167 -4.4166257e-010 5.76288795 0.29443499
		 -4.4166262e-010 5.80026865 -0.25615326 0.97038543 4.12853622 0.25197524 0.97038543 4.12853622 -0.25691283
		 0.97038543 4.41616631 -0.25691283 0.97038543 4.41616631 0.25197524 0.97038543 4.58114767 -0.0033135146
		 0.58037025 4.49878263 0.017402701 0.37618324 4.58185482 0.025032168 0.20451166 4.64419317 0.0074971379
		 0.14649162 4.88610554 0.0069219274 0.17170955 4.9161725 0.038472734 0.33310315 5.44849253 0.049329296
		 0.28603303 5.69451666 0.004042712 -4.4166262e-010 5.84136486 0.0059552109 -4.4166257e-010 2.60323787 0.036274157
		 0.044459019 2.62167811 0.041549876 0.042839624 2.41094398 0.023389453 0.071356803 2.19159818 0.0091996649
		 0.20375952 1.51619101 0.023256466 0.17448665 1.13285053 -0.0043226103 0.25894874 0.35419193 -0.014906743
		 0.41513276 0.34870872 -0.014906763 0.4995952 1.12190723 -0.065145805 0.46587846 1.50715089 -0.0082947491
		 0.60526526 2.36031604 0.014711925 0.62130636 2.79654837 0.031794373 0.32618636 3.30687094 0.022388421
		 0.59671754 3.95145321 -0.093322448 0.97038543 3.97272038 -0.0033135146 0.97728914 4.17882204 0.18131608
		 0.97728914 4.076122284 -0.0040704031 0.97728914 4.47713757 -0.0040704031 0.97728914 4.36839771 0.18131608
		 0.97728914 4.17882204 -0.18625359 0.97728914 4.36839771 -0.18625359 1.077404022 4.17882204 0.18131608
		 1.077404022 4.076122284 -0.0040704031 1.077404022 4.47713757 -0.0040704031 1.077404022 4.36839771 0.18131608
		 1.077404022 4.17882204 -0.18625359 1.077404022 4.36839771 -0.18625359 1.094365001 4.22233295 0.11579026
		 1.094365001 4.16571856 -0.004652448 1.094365001 4.38678455 -0.004652448 1.094365001 4.32683945 0.11579026
		 1.094365001 4.22233295 -0.1207278 1.094365001 4.32683945 -0.1207278 1.16806865 4.22233295 0.11579026
		 1.16806865 4.16571856 -0.004652448 1.16806865 4.38678455 -0.004652448 1.16806865 4.32683945 0.11579026
		 1.16806865 4.22233295 -0.1207278 1.16806865 4.32683945 -0.1207278 -4.4166254e-010 4.21126747 0.58399504
		 0.56407696 4.32040024 0.24124065 0.84090501 4.43514538 0.16035978 0.84090501 4.47087574 0.011070938
		 0.84036791 4.36529827 -0.16529739 0.83183694 4.084805489 -0.16529739 0.83183694 4.012161732 -0.09907797
		 0.83183694 4.060985565 -0.032521985 0.5031321 1.6224345 -0.0055345516 0.46504235 1.64704168 0.098242424
		 0.34714279 1.69158542 0.16667524 0.2178164 1.63859296 0.14037126 0.18670994 1.61018264 0.026016675
		 0.24841961 1.59372938 -0.077076152 0.34714279 1.6038754 -0.10782217 0.43484601 1.61000395 -0.08121752
		 0.47598127 1.4354291 -0.021500926 0.43789154 1.42379534 0.082292244 0.33704087 1.36574376 0.1429494
		 0.22857222 1.42311001 0.11664543 0.19365673 1.42768931 0.0081068221 0.23899311 1.4388504 -0.073249742
		 0.33704087 1.43397486 -0.12147478 0.43185768 1.42909896 -0.10600859 0.41513276 -3.7444138e-006 0.030678324
		 0.41513276 -3.7444138e-006 0.13103014 0.33704087 -6.8940898e-017 0.15638666 0.33704087 -6.8940898e-017 0.030678347
		 0.26899973 3.7444138e-006 0.13084744 0.25894874 3.7444138e-006 0.030678347 0.33704087 -6.8940898e-017 -0.10279249
		 0.27153522 3.7444138e-006 -0.030163631 0.40702903 -3.7444138e-006 -0.032650087;
	setAttr ".vt[166:331]" 0.43158832 0.099108532 0.37006637 0.30543119 0.10185242 0.49427086
		 0.30543119 -6.8940898e-017 0.49799609 0.43158832 -3.7444138e-006 0.37379169 0.21486813 0.10459177 0.43677765
		 0.21486813 3.7444138e-006 0.440503 0.43581417 0.11324127 0.26496711 0.43581417 -3.7444138e-006 0.26414454
		 0.31241059 -6.8940898e-017 0.25299871 0.22460115 3.7444138e-006 0.25299871 0.22460115 0.14217272 0.26836312
		 0.31241059 0.15987609 0.29420891 0.15799507 4.73048258 0.0072532995 0.10310351 4.68984127 0.096681207
		 -4.4166257e-010 4.65605783 0.14351225 -4.4166257e-010 4.76992655 -0.14806843 0.12172065 4.76558495 -0.12031887
		 -4.4166257e-010 4.45355511 0.2741611 -4.4166257e-010 3.46841621 0.4188585 -4.416626e-010 3.56873846 -0.32069388
		 0.52328461 3.69158053 -0.15989949 0.53172088 3.74603796 -0.0021189675 0.52304113 3.69531727 0.17958035
		 -4.4166257e-010 3.45843077 0.33140236 0.37142411 3.56279731 0.1708948 0.44771844 3.62678123 -0.0072900895
		 0.35316026 3.58828092 -0.13638018 -4.4166262e-010 3.51238537 -0.23023917 0.53730559 1.88769543 0.16078015
		 0.56758016 1.88122678 0.011099942 0.48873702 1.85401523 -0.11359525 0.34398255 1.82698452 -0.17303407
		 0.19415398 1.82442296 -0.1025548 0.12107556 1.83189249 0.020081935 0.15889974 1.85142088 0.21370171
		 0.34400159 1.88109064 0.23792599 0.47045821 0.86589098 -0.037530296 0.44387236 0.86450559 0.072547644
		 0.33704087 0.86902827 0.1232049 0.22688614 0.87357682 0.080734655 0.20362349 0.87500083 0.0051531387
		 0.24418086 0.87350392 -0.12418761 0.33704087 0.87064034 -0.17545334 0.42633456 0.86456239 -0.13470799
		 0.44186392 0.12408593 0.0081147458 0.4371787 0.12141883 0.09617094 0.25894874 0.12218226 0.12128627
		 0.25894874 0.12408593 0.0081147635 0.33704087 0.12780958 -0.15105906 0.27153522 0.12614319 -0.078430206
		 0.40702903 0.12638907 -0.080916651 -4.4166262e-010 5.084860802 0.43943146 -4.416626e-010 5.25399303 -0.38090056
		 0.23680919 5.23345327 -0.26232827 0.29748586 5.18627453 0.047357287 0.17787921 5.12219954 0.36255199
		 0.43009257 0.62886673 -0.012101051 0.40718907 0.62822121 0.058402624 0.33704087 0.63141185 0.092034668
		 0.26402968 0.63461667 0.05496813 0.24398908 0.63528013 -0.0011960156 0.27466375 0.6345827 -0.074892804
		 0.33704087 0.63216293 -0.11459821 0.3920804 0.62824774 -0.08212816 0.23156323 4.99986076 0.054165669
		 0.075856104 4.86195183 0.32483384 -4.4166268e-010 4.82668209 0.38471875 -4.4166257e-010 5.087790489 -0.28735867
		 0.20195067 5.070416927 -0.20444126 0.14688164 5.74553108 0.27513075 0.1954941 5.7925396 0.0049989615
		 0.16232912 5.78391361 -0.23068008 0.85284102 4.41616535 0.25197524 0.85284102 4.58114767 -0.0033135146
		 0.85284102 4.41616631 -0.25691283 0.85284102 4.12841225 -0.25691283 0.85284102 3.96900964 -0.0033135146
		 0.85284102 4.12806082 0.25197524 0.50811678 3.05967927 0.22451882 0.51482034 3.092108488 0.027234528
		 0.46495625 3.052332401 -0.2019006 0.33660397 2.79706144 -0.35822147 0.060714349 2.55287266 -0.20736277
		 0.02332915 2.53561425 0.032193322 0.097434901 2.59644079 0.32951915 0.25486112 2.73209047 0.37139031
		 -4.4166257e-010 3.39593506 -0.17176588 0.32293648 3.42645383 -0.10588329 0.36840013 3.43022919 0.022631384
		 0.33091572 3.41542697 0.18448886 -4.4166257e-010 3.35878229 0.2899887 0.20002764 4.1201787 -0.38088155
		 0.13119386 3.61561894 -0.3175171 0.18316486 4.44999743 0.26663968 0.58844501 3.98478627 0.0031139543
		 -0.33091572 3.41542697 0.18448886 -0.29147443 3.27744007 0.19791353 -0.32618636 3.30687094 0.022388421
		 -0.36840013 3.43022919 0.022631384 -1.16806865 4.22233295 0.11579026 -1.16806865 4.16571856 -0.004652448
		 -1.16806865 4.38678455 -0.004652448 -1.16806865 4.32683945 0.11579026 -0.41513276 -3.7444138e-006 0.030678324
		 -0.41513276 -3.7444138e-006 0.13103014 -0.33704087 -6.8939555e-017 0.15638666 -0.33704087 -6.8939403e-017 0.030678347
		 -0.50811678 3.05967927 0.22451882 -0.51482034 3.092108488 0.027234528 -0.16010271 2.86783195 0.35079452
		 -0.25486112 2.73209047 0.37139031 -0.099413827 2.70604563 0.33992064 -0.044459019 2.62167811 0.041549876
		 -0.02332915 2.53561425 0.032193322 -0.097434901 2.59644079 0.32951915 -0.21861392 2.97751617 -0.37109685
		 -0.28799468 3.27636719 -0.15982342 -0.46495625 3.052332401 -0.2019006 -0.33660397 2.79706144 -0.35822147
		 -0.62130636 2.79654837 0.031794373 -0.61137044 2.72805548 0.24955253 -0.58208138 2.30360866 0.24300839
		 -0.60526526 2.36031604 0.014711925 -0.31062767 2.62384725 0.36709908 -0.33743358 2.24861693 0.32664758
		 -0.1028405 2.44243598 0.3197321 -0.042839624 2.41094398 0.023389453 -0.071356803 2.19159818 0.0091996649
		 -0.11608368 2.19875312 0.28943178 -0.32516298 2.58024168 -0.34610665 -0.58148241 2.71716285 -0.21322952
		 -0.55632645 2.34007406 -0.15826367 -0.33738247 2.26505804 -0.25323153 -0.47598127 1.4354291 -0.021500926
		 -0.43789154 1.42379534 0.082292244 -0.47300929 1.11927557 0.084025286 -0.4995952 1.12190723 -0.065145805
		 -0.33704087 1.36574376 0.1429494 -0.33704087 1.11936367 0.14837709 -0.22857222 1.42311001 0.11664543
		 -0.19365673 1.42768931 0.0081068221 -0.17448665 1.13285053 -0.0043226103 -0.19774926 1.13023269 0.10613932
		 -0.33704087 1.43397486 -0.12147478 -0.43185768 1.42909896 -0.10600859 -0.45547155 1.13128293 -0.22590031
		 -0.33704087 1.13722384 -0.27119979 -0.43009257 0.62886673 -0.012101051 -0.40718907 0.62822121 0.058402624
		 -0.38854691 0.34870872 0.050585847 -0.41513276 0.34870872 -0.014906763 -0.33704087 0.63216293 -0.11459821
		 -0.3920804 0.62824774 -0.08212816 -0.37100911 0.34870872 -0.065926865 -0.33704087 0.35144788 -0.083381042
		 -0.26402968 0.63461667 0.05496813 -0.24398908 0.63528013 -0.0011960156 -0.25894874 0.35419193 -0.014906743
		 -0.28221139 0.35419193 0.032262038 -0.33704087 0.63141185 0.092034668 -0.33704087 0.35144788 0.075942382
		 -0.46504235 1.64704168 0.098242424 -0.34714279 1.69158542 0.16667524 -0.33704087 1.51166868 0.2076901
		 -0.46587846 1.50715089 0.15144347 -0.5031321 1.6224345 -0.0055345516;
	setAttr ".vt[332:489]" -0.46587846 1.50715089 -0.0082947491 -0.34714279 1.6038754 -0.10782217
		 -0.43484601 1.61000395 -0.08121752 -0.42175484 1.51116872 -0.093470477 -0.33704087 1.51568651 -0.12396073
		 -0.2178164 1.63859296 0.14037126 -0.18670994 1.61018264 0.026016675 -0.20375952 1.51619101 0.023256466
		 -0.20820317 1.51619101 0.18138613 -0.56407696 3.97715688 0.19956356 -0.56407696 4.32040024 0.24124065
		 -0.14688164 5.74553108 0.27513075 -0.1954941 5.7925396 0.0049989615 -0.28430447 4.50729084 -0.42905226
		 -0.20002764 4.1201787 -0.38088155 -0.32293648 3.42645383 -0.10588329 -0.26899973 3.7444138e-006 0.13084744
		 -0.25894874 3.7444138e-006 0.030678347 -0.27466375 0.6345827 -0.074892804 -0.28872445 0.35419193 -0.060027067
		 -0.23899311 1.4388504 -0.073249742 -0.22072208 1.14237916 -0.21277413 -0.24841961 1.59372938 -0.077076152
		 -0.24909587 1.52020907 -0.05630108 -0.09110409 2.42271447 -0.20605282 -0.12263781 2.2251761 -0.14295389
		 -0.072745621 2.66751409 -0.20875484 -0.060714349 2.55287266 -0.20736277 -0.20451166 4.64419317 0.0074971379
		 -0.16487369 4.60698605 0.14100145 -0.37703061 4.54535055 0.15757029 -0.37618324 4.58185482 0.025032168
		 -0.52304113 3.69531727 0.17958035 -0.37142411 3.56279731 0.1708948 -0.13119386 3.61561894 -0.3175171
		 -0.44771844 3.62678123 -0.0072900895 -0.53172088 3.74603796 -0.0021189675 -0.58037025 4.46909332 0.19956356
		 -0.18316486 4.44999743 0.26663968 -0.15493865 4.62310839 -0.16258417 -0.58037025 4.49878263 0.017402701
		 -0.35107654 4.56280994 -0.15633279 -0.10310351 4.68984127 0.096681207 -0.15799507 4.73048258 0.0072532995
		 -0.12172065 4.76558495 -0.12031887 -0.10649624 4.85649967 0.10034797 -0.087586015 4.85031414 0.21245106
		 -0.14649162 4.88610554 0.0069219274 -0.17170955 4.9161725 0.038472734 -0.12115054 4.91694689 -0.1250951
		 -0.123565 4.97494507 -0.13790315 -0.075856104 4.86195183 0.32483384 -0.23156323 4.99986076 0.054165669
		 -0.20195067 5.070416927 -0.20444126 -0.23587826 5.41589785 0.35952863 -0.18880814 5.63472033 0.29731613
		 -0.27470958 5.47895241 -0.31331167 -0.21970314 5.69346571 -0.27988803 -0.33310315 5.44849253 0.049329296
		 -0.28603303 5.69451666 0.004042712 -0.16232912 5.78391361 -0.23068008 -0.59671754 3.95145321 -0.093322448
		 -0.58844501 3.98478627 0.0031139543 -0.52328461 4.039483547 -0.20450109 -0.56428993 4.38748598 -0.20450109
		 -0.84036791 4.36529827 -0.16529739 -0.83183694 4.084805489 -0.16529739 -0.84090501 4.43514538 0.16035978
		 -0.84090501 4.47087574 0.011070938 -0.33704087 -7.8064012e-017 -0.10279249 -0.27153522 3.7444138e-006 -0.030163631
		 -0.40702903 -3.7444138e-006 -0.032650087 -0.35316026 3.58828092 -0.13638018 -0.52328461 3.69158053 -0.15989949
		 -0.83183694 4.012161732 -0.09907797 -1.16806865 4.22233295 -0.1207278 -1.16806865 4.32683945 -0.1207278
		 -0.97038543 4.12853622 0.25197524 -0.97038543 3.97272038 -0.0033135146 -0.97728914 4.076122284 -0.0040704031
		 -0.97728914 4.17882204 0.18131608 -0.97038543 4.58114767 -0.0033135146 -0.97038543 4.41616631 0.25197524
		 -0.97728914 4.36839771 0.18131608 -0.97728914 4.47713757 -0.0040704031 -0.97038543 4.12853622 -0.25691283
		 -0.97728914 4.17882204 -0.18625359 -0.97038543 4.41616631 -0.25691283 -0.97728914 4.36839771 -0.18625359
		 -1.077404022 4.076122284 -0.0040704031 -1.077404022 4.17882204 0.18131608 -1.077404022 4.36839771 0.18131608
		 -1.077404022 4.47713757 -0.0040704031 -1.077404022 4.17882204 -0.18625359 -1.077404022 4.36839771 -0.18625359
		 -1.094365001 4.16571856 -0.004652448 -1.094365001 4.22233295 0.11579026 -1.094365001 4.32683945 0.11579026
		 -1.094365001 4.38678455 -0.004652448 -1.094365001 4.22233295 -0.1207278 -1.094365001 4.32683945 -0.1207278
		 -0.85284102 4.41616535 0.25197524 -0.85284102 4.58114767 -0.0033135146 -0.85284102 4.41616631 -0.25691283
		 -0.85284102 4.12841225 -0.25691283 -0.85284102 3.96900964 -0.0033135146 -0.85284102 4.12806082 0.25197524
		 -0.83183694 4.060985565 -0.032521985 -0.53730559 1.88769543 0.16078015 -0.56758016 1.88122678 0.011099942
		 -0.34400159 1.88109064 0.23792599 -0.15889974 1.85142088 0.21370171 -0.12107556 1.83189249 0.020081935
		 -0.19415398 1.82442296 -0.1025548 -0.34398255 1.82698452 -0.17303407 -0.48873702 1.85401523 -0.11359525
		 -0.4371787 0.12141883 0.09617094 -0.44186392 0.12408593 0.0081147458 -0.43158832 0.099108532 0.37006637
		 -0.30543119 0.10185242 0.49427086 -0.30543119 -6.9827451e-017 0.49799609 -0.43158832 -3.7444138e-006 0.37379169
		 -0.21486813 0.10459177 0.43677765 -0.21486813 3.7444138e-006 0.440503 -0.25894874 0.12408593 0.0081147635
		 -0.25894874 0.12218226 0.12128627 -0.27153522 0.12614319 -0.078430206 -0.33704087 0.12780958 -0.15105906
		 -0.40702903 0.12638907 -0.080916651 -0.31241059 0.15987609 0.29420891 -0.43581417 0.11324127 0.26496711
		 -0.43581417 -3.7444138e-006 0.26414454 -0.31241059 -6.8939972e-017 0.25299871 -0.22460115 0.14217272 0.26836312
		 -0.22460115 3.7444138e-006 0.25299871 -0.44387236 0.86450559 0.072547644 -0.47045821 0.86589098 -0.037530296
		 -0.33704087 0.86902827 0.1232049 -0.22688614 0.87357682 0.080734655 -0.20362349 0.87500083 0.0051531387
		 -0.24418086 0.87350392 -0.12418761 -0.33704087 0.87064034 -0.17545334 -0.42633456 0.86456239 -0.13470799
		 -0.23680919 5.23345327 -0.26232827 -0.29748586 5.18627453 0.047357287 -0.17787921 5.12219954 0.36255199
		 0.0017997456 3.79433155 0.40174302 0.043670207 3.79605842 0.47802463 0.12628376 4.18016052 0.5449999
		 0.56136358 4.025396347 0.27256697 0.084413297 4.17843342 0.46871841 0.51949316 4.023670197 0.19628547
		 0.11898255 4.14204168 -0.53962016 0.10362381 4.14414263 -0.4607743 0.54413658 3.84815097 -0.14887321
		 0.020728841 3.22672796 -0.32043457 0.55949557 3.84605098 -0.22771917 0.036087468 3.22462773 -0.39928055;
	setAttr -s 981 ".ed";
	setAttr ".ed[0:165]"  2 3 0 4 5 0 0 1 0 1 2 0 1 3 0 2 4 0 3 5 0 4 0 0 5 0 0
		 6 255 0 7 107 1 8 186 0 9 106 0 7 134 0 10 86 0 9 52 0 6 55 0 12 95 0 9 246 1 6 244 1
		 14 105 1 13 250 1 15 42 1 12 248 1 17 96 1 14 51 1 14 32 1 15 31 1 18 103 1 16 30 1
		 19 44 1 17 33 1 21 98 1 18 49 1 18 156 1 19 150 1 22 101 0 20 152 1 23 46 0 21 154 1
		 25 100 0 22 47 0 26 203 1 27 209 1 26 102 1 28 207 1 27 48 1 29 205 1 28 99 1 29 45 1
		 30 200 1 31 194 1 30 43 1 32 196 1 31 104 1 33 198 1 32 50 1 33 97 1 34 7 1 35 10 0
		 34 133 0 36 56 0 36 37 1 38 9 1 37 185 1 38 53 1 40 13 1 39 94 1 40 54 1 42 16 1
		 43 31 1 42 43 0 44 20 1 43 201 0 45 26 1 44 151 0 46 24 0 45 204 0 47 25 0 48 28 1
		 47 228 0 49 21 1 48 155 0 50 33 1 49 147 0 51 17 1 50 51 0 52 12 0 51 247 0 53 39 1
		 52 53 1 54 41 1 55 13 0 55 251 1 56 11 0 37 257 1 39 12 1 54 55 1 41 6 1 41 256 1
		 193 252 1 35 183 0 36 58 1 57 59 1 56 60 1 59 88 1 58 60 1 10 61 1 59 61 1 11 62 1
		 61 87 1 60 62 1 57 180 1 58 181 1 59 179 1 63 65 1 60 182 1 65 89 1 64 66 1 63 67 1
		 64 68 1 65 69 1 67 69 1 66 70 1 69 90 1 68 70 1 67 232 0 68 233 0 71 79 0 69 231 1
		 71 73 1 70 234 1 73 92 1 72 74 1 75 73 1 76 71 0 75 76 1 77 72 0 78 74 1 77 78 1
		 78 91 1 79 93 0 79 235 1 80 72 0 74 237 1 7 260 1 81 108 0 84 85 0 85 83 0 86 11 0
		 85 239 1 87 62 1 86 87 1 88 60 1 87 88 1 89 66 1 88 178 1 90 70 1 89 90 1 91 75 1
		 90 230 1 92 74 1 91 92 1 93 80 0 92 236 1 94 40 1;
	setAttr ".ed[166:331]" 95 13 0 94 95 1 96 16 1 95 249 1 97 30 1 96 97 1 98 20 1
		 97 199 1 99 29 1 98 153 1 100 24 0 99 206 1 101 23 0 102 27 1 101 222 1 103 19 1
		 102 149 1 104 32 1 103 141 1 105 15 1 104 105 1 106 6 0 105 245 1 107 8 0 106 254 1
		 108 82 0 62 56 1 81 109 1 108 110 1 109 110 0 85 111 1 84 112 1 112 111 0 82 113 1
		 110 113 0 83 114 1 111 114 0 109 115 1 110 116 1 115 116 0 111 117 1 112 118 1 118 117 0
		 113 119 1 116 119 0 114 120 1 117 120 0 115 121 1 116 122 1 121 122 0 117 123 1 118 124 1
		 124 123 0 119 125 1 122 125 0 120 126 1 123 126 0 121 127 1 122 128 1 127 128 0 123 129 1
		 124 130 1 130 129 0 125 131 1 128 131 0 126 132 1 129 132 0 133 35 1 8 11 0 82 83 0
		 113 114 0 119 120 0 125 126 0 131 132 0 128 129 1 127 130 0 121 124 0 115 118 0 109 112 0
		 81 84 0 134 10 0 135 238 1 136 86 1 135 136 0 137 240 1 136 137 0 138 241 1 137 138 0
		 138 139 0 140 243 1 139 140 0 140 135 0 141 195 1 142 19 1 141 142 0 143 44 0 142 143 0
		 144 20 1 143 144 0 145 98 1 144 145 0 146 21 1 145 146 0 147 197 0 146 147 0 148 18 1
		 147 148 0 148 141 0 149 103 1 150 26 1 149 150 1 151 45 0 150 151 1 152 29 1 151 152 1
		 153 99 1 152 153 1 154 28 1 153 154 1 155 49 0 154 155 1 156 27 1 155 156 1 156 149 1
		 101 210 1 23 211 1 157 158 0 158 159 1 159 160 0 160 157 1 24 212 1 159 161 1 100 213 1
		 162 161 0 162 160 1 47 214 1 160 163 0 25 215 1 164 162 0 163 164 0 22 216 1 165 157 0
		 165 163 0 23 172 0 46 177 1 166 167 0 159 174 0 167 168 1 158 173 0 169 168 0 166 169 1
		 24 176 0 167 170 0 161 175 0 170 171 1 168 171 0 172 166 0 173 169 0 172 173 1 174 168 0
		 173 174 1 175 171 0 174 175 1 176 170 0 175 176 1 177 167 1;
	setAttr ".ed[332:497]" 176 177 1 177 172 1 178 89 1 179 65 1 178 179 1 180 63 1
		 179 180 1 181 64 1 182 66 1 181 182 1 182 178 1 134 133 0 183 57 1 10 259 0 184 34 0
		 185 193 1 186 192 1 185 258 0 187 107 1 186 187 0 188 7 0 187 188 0 188 184 0 189 184 0
		 190 188 1 189 190 0 191 187 1 190 191 0 192 253 0 191 192 0 192 193 0 194 142 1 195 104 1
		 194 195 1 196 148 1 195 196 1 197 50 0 196 197 1 198 146 1 197 198 1 199 145 1 198 199 1
		 200 144 1 199 200 1 201 143 0 200 201 1 201 194 1 202 102 1 203 223 1 202 203 1 204 224 0
		 203 204 1 205 225 1 204 205 1 206 226 1 205 206 1 207 227 1 206 207 1 208 48 0 207 208 1
		 209 229 1 208 209 1 209 202 1 210 157 1 211 158 1 212 161 1 213 162 1 214 163 1 215 164 1
		 216 165 1 211 210 1 213 212 1 215 213 1 214 215 1 210 216 1 216 214 1 211 172 1 212 176 1
		 217 76 0 218 77 0 219 78 1 218 219 1 220 91 1 219 220 1 221 75 1 220 221 1 221 217 1
		 222 202 1 223 23 1 222 223 1 224 46 0 223 224 1 225 24 1 224 225 1 226 100 1 225 226 1
		 227 25 1 226 227 1 228 208 0 227 228 1 229 22 1 228 229 1 229 222 1 230 220 1 231 221 1
		 230 231 1 232 217 0 231 232 1 233 218 0 234 219 1 233 234 1 234 230 1 235 73 1 236 93 1
		 237 80 1 235 236 1 236 237 1 238 84 1 239 136 1 238 239 0 240 83 1 239 240 0 241 82 1
		 240 241 0 242 108 1 241 242 0 243 81 1 242 243 0 243 238 0 244 15 1 245 106 1 244 245 0
		 246 14 1 245 246 0 247 52 1 246 247 0 248 17 1 247 248 0 249 96 1 248 249 0 250 16 1
		 249 250 0 251 42 0 250 251 0 251 244 0 252 38 1 253 9 0 252 253 1 254 191 1 253 254 1
		 255 190 0 254 255 1 256 189 1 255 256 1 257 8 1 258 186 0 56 257 0 257 258 0 258 193 1
		 259 183 0 59 259 1 259 35 1 259 61 1 260 140 0 134 135 0 260 134 0;
	setAttr ".ed[498:663]" 10 135 1 11 137 0 8 138 0 107 139 1 107 260 0 139 241 1
		 140 242 1 262 261 0 263 262 0 263 264 1 264 261 1 265 266 0 266 267 1 268 267 0 265 268 0
		 269 270 0 270 271 1 271 272 0 272 269 1 262 273 1 273 274 0 274 263 1 262 275 0 275 276 1
		 276 273 0 278 277 0 278 279 1 279 280 0 277 280 1 282 281 0 282 283 1 283 284 0 284 281 1
		 285 286 1 286 287 1 287 288 1 288 285 1 286 289 1 289 290 0 290 287 1 292 291 1 292 293 1
		 293 294 1 291 294 1 296 295 1 296 297 1 297 298 1 298 295 0 299 300 1 300 301 1 301 302 1
		 302 299 1 300 303 1 303 304 0 304 301 1 305 306 1 306 307 1 307 308 1 305 308 1 309 310 1
		 310 311 1 311 312 1 312 309 0 313 314 1 314 315 1 316 315 0 316 313 1 317 318 1 318 319 1
		 319 320 0 320 317 0 321 322 1 322 323 1 323 324 0 321 324 1 314 325 1 325 326 0 315 326 0
		 327 328 0 328 329 0 330 329 1 327 330 1 331 327 0 332 330 1 332 331 1 333 334 0 334 335 1
		 335 336 1 336 333 0 337 338 0 338 339 1 339 340 1 337 340 1 341 342 0 342 133 0 34 341 1
		 343 344 1 344 93 1 79 343 1 36 345 0 345 346 0 37 346 1 38 282 1 252 347 1 347 282 0
		 281 53 1 40 277 1 94 278 1 54 275 1 41 262 1 261 256 1 289 291 1 294 290 1 328 337 0
		 329 340 1 303 305 1 308 304 1 325 321 1 326 324 0 271 348 1 349 348 0 349 272 1 350 317 1
		 320 351 0 350 351 1 352 309 1 312 353 1 352 353 1 354 333 0 336 355 1 354 355 1 295 356 1
		 298 357 1 356 357 1 281 358 0 284 359 0 358 359 1 39 358 1 275 277 0 280 276 0 361 360 1
		 361 362 1 362 363 1 363 360 1 364 184 0 189 365 0 365 364 1 366 193 1 185 366 0 365 367 0
		 367 368 1 368 364 0 369 370 0 370 35 1 35 369 0 58 371 1 345 371 1 369 372 0 372 363 1
		 369 362 1 373 345 1 371 373 1 57 361 1 361 374 1 374 180 1 360 375 1;
	setAttr ".ed[664:829]" 375 374 1 181 376 1 371 376 1 63 377 1 377 378 1 67 378 1
		 377 379 1 379 380 1 378 380 1 64 381 1 68 382 1 381 382 1 378 383 1 383 232 1 380 384 1
		 384 383 1 233 385 1 382 385 1 386 76 1 386 387 1 71 387 1 77 388 1 72 389 1 388 389 1
		 390 386 1 390 391 1 387 391 1 343 387 1 392 80 1 389 392 1 341 393 1 393 394 0 341 394 1
		 395 396 0 396 397 0 397 398 0 395 398 0 369 399 1 399 400 0 400 372 1 372 396 0 400 397 0
		 396 373 1 363 373 1 360 371 1 376 375 1 379 381 1 380 382 1 385 384 1 388 390 1 391 389 1
		 344 392 1 358 278 0 359 279 0 356 292 1 357 293 1 338 354 0 355 339 1 306 352 1 353 307 1
		 322 350 1 351 323 0 272 401 0 402 349 0 401 402 0 403 269 0 403 401 0 318 313 1 319 316 0
		 310 299 1 302 311 1 334 331 0 335 332 1 296 285 1 288 297 1 282 263 0 274 283 0 347 264 1
		 367 404 0 405 404 1 405 368 0 393 395 0 398 406 0 393 406 1 266 407 0 407 408 0 267 408 0
		 345 396 0 409 410 0 410 411 1 412 411 0 409 412 1 414 413 0 414 415 1 415 416 0 413 416 1
		 412 415 0 409 414 0 410 417 0 417 418 1 411 418 0 417 419 0 419 420 1 418 420 0 413 419 0
		 416 420 0 411 421 1 422 421 0 412 422 1 415 423 1 423 424 0 416 424 1 422 423 0 418 425 1
		 421 425 0 420 426 1 425 426 0 424 426 0 421 427 1 428 427 0 422 428 1 423 429 1 429 430 0
		 424 430 1 428 429 0 425 431 1 427 431 0 426 432 1 431 432 0 430 432 0 427 266 1 428 265 1
		 429 268 1 430 267 1 431 407 1 432 408 1 399 433 1 433 434 0 434 400 1 434 435 0 397 435 1
		 398 436 1 435 436 0 437 438 0 439 438 1 439 437 1 438 433 0 439 399 0 287 440 1 440 441 1
		 441 288 1 290 442 0 442 440 1 443 442 1 294 443 1 293 444 1 444 443 1 445 444 1 357 445 1
		 446 298 0 446 445 1 297 447 1 447 446 1 441 447 1 330 300 1 299 332 1;
	setAttr ".ed[830:980]" 329 303 0 340 305 1 339 306 1 355 352 1 309 336 0 335 310 1
		 315 448 1 448 449 1 316 449 1 450 451 0 451 452 1 453 452 0 450 453 1 451 454 0 454 455 1
		 452 455 0 323 456 1 456 457 1 324 457 1 351 458 1 458 456 1 320 459 1 459 458 1 449 460 1
		 319 460 1 460 459 1 326 461 1 461 462 1 315 462 0 270 463 0 463 464 1 271 464 0 448 270 1
		 448 462 1 462 463 1 324 465 0 465 461 1 457 465 1 464 466 1 348 466 0 462 450 0 463 453 0
		 464 452 0 466 455 0 466 465 1 465 454 0 461 451 1 375 379 1 374 377 1 376 381 1 361 370 1
		 370 362 1 346 366 0 368 393 1 395 405 0 364 341 0 440 327 1 331 441 1 447 334 1 333 446 0
		 445 354 1 444 338 1 443 337 1 442 328 0 301 467 1 468 467 1 468 302 1 304 469 0 467 469 1
		 469 470 1 308 470 1 307 471 1 470 471 1 471 472 1 353 472 1 473 312 0 472 473 1 311 474 1
		 473 474 1 474 468 1 449 269 1 456 349 1 457 348 1 458 402 1 459 401 1 460 403 1 218 475 1
		 475 388 1 476 390 1 475 476 1 476 477 1 477 386 1 477 217 1 467 314 1 313 468 1 469 325 0
		 470 321 1 471 322 1 472 350 1 317 473 0 474 318 1 384 476 1 383 477 1 385 475 1 391 344 1
		 433 414 1 413 434 1 435 419 1 436 417 1 437 410 1 436 437 0 438 409 1 273 286 1 285 274 1
		 283 296 1 295 284 0 359 356 1 279 292 1 280 291 1 276 289 0 404 193 0 404 347 0 264 367 1
		 261 365 0 342 369 0 394 342 0 346 395 1 366 405 0 370 183 0 394 439 0 342 399 0 406 439 0
		 406 436 1 480 481 0 482 483 0 478 479 0 479 480 0 479 481 0 480 482 0 481 483 0 482 478 0
		 483 478 0 486 487 0 488 489 0 484 485 0 485 486 0 485 487 0 486 488 0 487 489 0 488 484 0
		 489 484 0;
	setAttr -s 499 -ch 1962 ".fc[0:498]" -type "polyFaces" 
		f 4 -3 -9 -7 -5
		mu 0 4 0 1 7 8
		f 3 4 -1 -4
		mu 0 3 6 11 12
		f 4 0 6 -2 -6
		mu 0 4 2 3 4 5
		f 3 1 8 -8
		mu 0 3 13 14 15
		f 4 7 2 3 5
		mu 0 4 17 9 10 16
		f 4 -10 -188 190 483
		mu 0 4 18 19 20 21
		f 4 225 240 -229 -242
		mu 0 4 22 23 24 25
		f 4 292 293 294 295
		mu 0 4 26 27 28 29
		f 4 187 19 463 462
		mu 0 4 30 31 32 33
		f 4 16 93 476 -20
		mu 0 4 31 34 35 32
		f 4 -167 169 473 -22
		mu 0 4 36 37 38 39
		f 4 -16 18 467 466
		mu 0 4 40 41 42 43
		f 4 185 27 54 186
		mu 0 4 44 45 46 47
		f 4 22 71 70 -28
		mu 0 4 45 48 49 46
		f 4 -169 171 170 -30
		mu 0 4 50 51 52 53
		f 4 -26 26 56 86
		mu 0 4 54 55 56 57
		f 4 276 275 44 182
		mu 0 4 58 59 60 61
		f 4 278 277 74 -276
		mu 0 4 59 62 63 60
		f 4 282 281 174 -280
		mu 0 4 64 65 66 67
		f 4 288 287 46 82
		mu 0 4 68 69 70 71
		f 4 421 420 -179 180
		mu 0 4 72 73 74 75
		f 4 433 432 41 80
		mu 0 4 76 77 78 79
		f 4 427 426 176 -425
		mu 0 4 80 81 82 83
		f 4 423 422 -39 -421
		mu 0 4 73 84 85 74
		f 4 262 261 -31 -260
		mu 0 4 86 87 88 89
		f 4 260 259 -182 184
		mu 0 4 90 86 89 91
		f 4 272 271 33 84
		mu 0 4 92 93 94 95
		f 4 266 265 172 -264
		mu 0 4 96 97 98 99
		f 4 13 343 -61 58
		mu 0 4 100 101 102 103
		f 4 447 445 -142 142
		mu 0 4 104 105 106 107
		f 4 -63 61 488 -96
		mu 0 4 108 109 110 111
		f 4 -64 -478 479 478
		mu 0 4 112 113 114 115
		f 4 -66 63 15 90
		mu 0 4 116 113 112 117
		f 4 -67 -166 167 166
		mu 0 4 118 119 120 121
		f 4 -92 97 -17 -99
		mu 0 4 122 123 124 19
		f 4 98 9 485 -100
		mu 0 4 122 19 18 125
		f 4 69 29 52 -72
		mu 0 4 48 50 53 49
		f 4 -262 264 263 -73
		mu 0 4 88 87 96 99
		f 4 -278 280 279 49
		mu 0 4 63 62 64 67
		f 4 -423 425 424 -77
		mu 0 4 85 84 80 83
		f 4 -295 297 -300 300
		mu 0 4 29 28 126 127
		f 4 431 -81 78 -429
		mu 0 4 128 76 79 129
		f 4 286 -83 79 -284
		mu 0 4 130 68 71 131
		f 4 270 -85 81 -268
		mu 0 4 132 92 95 133
		f 4 -86 -87 83 -32
		mu 0 4 134 54 57 135
		f 4 -88 -467 469 -24
		mu 0 4 136 40 43 137
		f 4 -90 -91 87 -97
		mu 0 4 138 116 117 139
		f 4 -69 66 -93 -98
		mu 0 4 123 119 118 124
		f 4 -94 92 21 475
		mu 0 4 35 34 36 39
		f 4 -106 108 110 154
		mu 0 4 140 141 142 143
		f 4 354 -356 357 356
		mu 0 4 144 145 146 147
		f 3 490 -348 349
		mu 0 3 148 149 150
		f 4 359 358 353 -357
		mu 0 4 147 151 152 144
		f 3 345 493 59
		mu 0 3 153 154 155
		f 4 -62 102 106 -105
		mu 0 4 156 157 158 159
		f 4 14 152 -111 -108
		mu 0 4 160 161 143 142
		f 3 192 104 111
		mu 0 3 162 156 159
		f 4 103 114 338 -113
		mu 0 4 163 164 165 166
		f 4 105 156 336 -115
		mu 0 4 164 167 168 165
		f 4 -107 113 341 -117
		mu 0 4 169 170 171 172
		f 4 115 121 -123 -120
		mu 0 4 173 174 175 176
		f 4 117 158 -125 -122
		mu 0 4 174 177 178 175
		f 4 -119 120 125 -124
		mu 0 4 179 180 181 182
		f 4 122 129 439 -127
		mu 0 4 176 175 183 184
		f 4 124 160 437 -130
		mu 0 4 175 178 185 183
		f 4 -126 127 442 -132
		mu 0 4 182 181 186 187
		f 4 -137 134 -131 -136
		mu 0 4 188 189 190 191
		f 4 -140 137 133 -139
		mu 0 4 192 193 194 195
		f 4 -160 162 -133 -135
		mu 0 4 189 196 197 190
		f 4 -445 -143 -129 130
		mu 0 4 190 104 107 191
		f 4 -144 -447 -145 -134
		mu 0 4 194 198 199 195
		f 3 10 502 -146
		mu 0 3 100 200 201
		f 4 234 499 253 -501
		mu 0 4 202 203 204 205
		f 4 -15 498 249 248
		mu 0 4 206 207 208 209
		f 4 -150 -249 251 -500
		mu 0 4 203 206 209 204
		f 4 -153 149 109 -152
		mu 0 4 143 161 210 162
		f 4 -154 -155 151 -112
		mu 0 4 159 140 143 162
		f 4 342 -157 153 116
		mu 0 4 172 168 167 169
		f 4 -159 155 123 -158
		mu 0 4 178 177 179 182
		f 4 443 -161 157 131
		mu 0 4 187 185 178 182
		f 4 -163 -141 138 -162
		mu 0 4 197 196 192 195
		f 4 448 446 -164 -446
		mu 0 4 105 199 198 106
		f 4 -68 96 17 -168
		mu 0 4 120 138 139 121
		f 4 -170 -18 23 471
		mu 0 4 211 212 136 137
		f 4 -172 -25 31 57
		mu 0 4 213 214 134 135
		f 4 -266 268 267 32
		mu 0 4 215 216 132 133
		f 4 -282 284 283 48
		mu 0 4 217 218 130 131
		f 4 -427 429 428 40
		mu 0 4 219 220 128 129
		f 4 -303 -301 -305 -306
		mu 0 4 221 29 127 222
		f 4 307 -296 302 -309
		mu 0 4 223 26 29 221
		f 4 434 -181 -37 -433
		mu 0 4 77 72 75 78
		f 4 289 -183 179 -288
		mu 0 4 69 58 61 70
		f 4 273 -185 -29 -272
		mu 0 4 93 90 91 94
		f 4 20 -187 183 -27
		mu 0 4 55 44 47 56
		f 4 12 -463 465 -19
		mu 0 4 41 30 33 42
		f 4 -13 -479 481 -191
		mu 0 4 20 224 225 21
		f 4 -359 361 -349 351
		mu 0 4 152 151 226 227
		f 4 189 500 254 -502
		mu 0 4 228 202 205 229
		f 4 230 239 -233 -241
		mu 0 4 23 230 231 24
		f 3 -95 -193 -110
		mu 0 3 210 156 162
		f 4 146 194 -196 -194
		mu 0 4 232 233 234 235
		f 4 -148 197 198 -197
		mu 0 4 236 237 238 239
		f 4 193 244 -198 -246
		mu 0 4 232 235 238 237
		f 4 191 199 -201 -195
		mu 0 4 233 240 241 234
		f 4 -200 235 201 -237
		mu 0 4 241 240 242 243
		f 4 -149 196 202 -202
		mu 0 4 242 236 239 243
		f 4 195 204 -206 -204
		mu 0 4 244 245 246 247
		f 4 -199 207 208 -207
		mu 0 4 248 249 250 251
		f 4 203 243 -208 -245
		mu 0 4 244 247 250 249
		f 4 200 209 -211 -205
		mu 0 4 252 253 254 255
		f 4 -210 236 211 -238
		mu 0 4 254 253 256 257
		f 4 -203 206 212 -212
		mu 0 4 256 248 251 257
		f 4 205 214 -216 -214
		mu 0 4 258 259 260 261
		f 4 -209 217 218 -217
		mu 0 4 262 263 264 265
		f 4 213 242 -218 -244
		mu 0 4 258 261 264 263
		f 4 210 219 -221 -215
		mu 0 4 259 266 267 260
		f 4 -220 237 221 -239
		mu 0 4 267 266 268 269
		f 4 -213 216 222 -222
		mu 0 4 268 262 265 269
		f 4 215 224 -226 -224
		mu 0 4 270 271 272 273
		f 4 -219 227 228 -227
		mu 0 4 274 275 276 277
		f 4 223 241 -228 -243
		mu 0 4 270 273 276 275
		f 4 220 229 -231 -225
		mu 0 4 278 279 280 281
		f 4 -230 238 231 -240
		mu 0 4 280 279 282 283
		f 4 -223 226 232 -232
		mu 0 4 282 274 277 283
		f 4 -250 247 451 450
		mu 0 4 284 285 286 287
		f 4 -252 -451 453 -251
		mu 0 4 288 284 287 289
		f 4 -253 -254 250 455
		mu 0 4 290 291 288 289
		f 3 459 -256 504
		mu 0 3 292 293 294
		f 4 460 -248 -258 255
		mu 0 4 293 286 285 294
		f 4 -55 51 365 364
		mu 0 4 47 46 295 296
		f 4 -71 73 378 -52
		mu 0 4 46 49 297 295
		f 4 377 -74 -53 50
		mu 0 4 298 297 49 53
		f 4 -171 173 375 -51
		mu 0 4 53 52 299 298
		f 4 373 -174 -58 55
		mu 0 4 300 301 213 135
		f 4 -84 -369 371 -56
		mu 0 4 135 57 302 300
		f 4 -57 53 369 368
		mu 0 4 57 56 303 302
		f 4 -184 -365 367 -54
		mu 0 4 56 47 296 303
		f 4 181 35 -277 274
		mu 0 4 91 89 59 58
		f 4 30 75 -279 -36
		mu 0 4 89 88 62 59
		f 4 -281 -76 72 37
		mu 0 4 64 62 88 99
		f 4 -173 175 -283 -38
		mu 0 4 99 98 65 64
		f 4 -285 -176 -33 39
		mu 0 4 130 218 215 133
		f 4 -82 -286 -287 -40
		mu 0 4 133 95 68 130
		f 4 -34 34 -289 285
		mu 0 4 95 94 69 68
		f 4 28 -275 -290 -35
		mu 0 4 94 91 58 69
		f 4 178 291 402 -291
		mu 0 4 304 305 306 307
		f 4 311 313 -316 -317
		mu 0 4 308 309 310 311
		f 4 318 320 -322 -314
		mu 0 4 309 312 313 310
		f 4 -177 298 403 -297
		mu 0 4 314 315 316 317
		f 4 -41 303 404 -299
		mu 0 4 318 319 320 321
		f 4 -79 301 405 -304
		mu 0 4 319 322 323 320
		f 4 36 290 406 -307
		mu 0 4 324 304 307 325
		f 4 -42 306 407 -302
		mu 0 4 322 324 325 323
		f 4 38 310 333 -310
		mu 0 4 305 326 327 328
		f 4 -294 314 326 -313
		mu 0 4 28 27 329 330
		f 4 -397 408 324 -315
		mu 0 4 331 306 328 332
		f 4 76 317 332 -311
		mu 0 4 326 314 333 327
		f 3 296 409 -318
		mu 0 3 314 317 333
		f 4 -298 312 328 -320
		mu 0 4 126 28 330 334
		f 4 -325 322 316 -324
		mu 0 4 332 328 308 311
		f 4 -327 323 315 -326
		mu 0 4 330 329 335 336
		f 4 -329 325 321 -328
		mu 0 4 334 330 336 337
		f 4 -331 327 -321 -330
		mu 0 4 333 338 313 312
		f 4 -333 329 -319 -332
		mu 0 4 327 333 312 309
		f 4 -334 331 -312 -323
		mu 0 4 328 327 309 308
		f 4 -337 334 -118 -336
		mu 0 4 165 168 339 340
		f 4 -339 335 -116 -338
		mu 0 4 166 165 340 341
		f 4 -342 339 118 -341
		mu 0 4 172 171 342 343
		f 4 -335 -343 340 -156
		mu 0 4 339 168 172 343
		f 3 492 494 -109
		mu 0 3 141 344 142
		f 4 -65 95 489 -350
		mu 0 4 150 108 111 148
		f 4 -351 -352 -12 -190
		mu 0 4 200 152 227 345
		f 4 -354 350 -11 -353
		mu 0 4 144 152 200 100
		f 4 -59 -347 -355 352
		mu 0 4 100 103 145 144
		f 4 -366 363 -261 258
		mu 0 4 296 295 86 90
		f 4 -368 -259 -274 -367
		mu 0 4 303 296 90 93
		f 4 -370 366 -273 269
		mu 0 4 302 303 93 92
		f 4 -372 -270 -271 -371
		mu 0 4 300 302 92 132
		f 4 -269 -373 -374 370
		mu 0 4 132 216 301 300
		f 4 -376 372 -267 -375
		mu 0 4 298 299 97 96
		f 4 -265 -377 -378 374
		mu 0 4 96 87 297 298
		f 4 -379 376 -263 -364
		mu 0 4 295 297 87 86
		f 4 -45 42 -382 379
		mu 0 4 61 60 346 347
		f 4 -75 77 -384 -43
		mu 0 4 60 63 348 346
		f 4 -386 -78 -50 47
		mu 0 4 349 348 63 67
		f 4 -175 177 -388 -48
		mu 0 4 67 66 350 349
		f 4 -390 -178 -49 45
		mu 0 4 351 352 217 131
		f 4 -80 -391 -392 -46
		mu 0 4 131 71 353 351
		f 4 -47 43 -394 390
		mu 0 4 71 70 354 353
		f 4 -180 -380 -395 -44
		mu 0 4 70 61 347 354
		f 4 -403 396 -293 -396
		mu 0 4 307 306 331 355
		f 4 -404 398 299 -398
		mu 0 4 317 316 356 357
		f 4 -405 400 304 -399
		mu 0 4 321 320 358 359
		f 4 -406 399 305 -401
		mu 0 4 320 323 360 358
		f 4 -407 395 -308 -402
		mu 0 4 325 307 355 361
		f 4 -408 401 308 -400
		mu 0 4 323 325 361 360
		f 3 -409 -292 309
		mu 0 3 328 306 305
		f 4 -410 397 319 330
		mu 0 4 333 317 357 338
		f 4 -414 411 139 -413
		mu 0 4 362 363 193 192
		f 4 -415 -416 412 140
		mu 0 4 196 364 362 192
		f 4 -418 414 159 -417
		mu 0 4 365 364 196 189
		f 4 -419 416 136 -411
		mu 0 4 366 365 189 188
		f 4 381 380 -422 419
		mu 0 4 347 346 73 72
		f 4 383 382 -424 -381
		mu 0 4 346 348 84 73
		f 4 -426 -383 385 384
		mu 0 4 80 84 348 349
		f 4 387 386 -428 -385
		mu 0 4 349 350 81 80
		f 4 -430 -387 389 388
		mu 0 4 128 220 352 351
		f 4 391 -431 -432 -389
		mu 0 4 351 353 76 128
		f 4 393 392 -434 430
		mu 0 4 353 354 77 76
		f 4 394 -420 -435 -393
		mu 0 4 354 347 72 77
		f 4 -438 435 417 -437
		mu 0 4 183 185 364 365
		f 4 -440 436 418 -439
		mu 0 4 184 183 365 366
		f 4 -443 440 413 -442
		mu 0 4 187 186 363 362
		f 4 -436 -444 441 415
		mu 0 4 364 185 187 362
		f 4 164 -448 444 132
		mu 0 4 197 105 104 190
		f 4 144 -449 -165 161
		mu 0 4 195 199 105 197
		f 4 -452 449 147 150
		mu 0 4 367 368 369 370
		f 4 -454 -151 148 -453
		mu 0 4 371 367 370 372
		f 4 -455 -456 452 -236
		mu 0 4 373 374 371 372
		f 4 -457 -458 454 -192
		mu 0 4 375 376 374 373
		f 4 -460 456 -147 -459
		mu 0 4 377 378 379 380
		f 4 -450 -461 458 245
		mu 0 4 369 368 377 380
		f 4 -464 461 -186 188
		mu 0 4 33 32 45 44
		f 4 -466 -189 -21 -465
		mu 0 4 42 33 44 55
		f 4 -468 464 25 88
		mu 0 4 43 42 55 54
		f 4 -470 -89 85 -469
		mu 0 4 137 43 54 134
		f 4 -471 -472 468 24
		mu 0 4 214 211 137 134
		f 4 -474 470 168 -473
		mu 0 4 39 38 51 50
		f 4 -475 -476 472 -70
		mu 0 4 48 35 39 50
		f 4 -477 474 -23 -462
		mu 0 4 32 35 48 45
		f 4 -480 -101 -363 360
		mu 0 4 115 114 381 382
		f 4 -482 -361 -362 -481
		mu 0 4 21 225 383 384
		f 4 -483 -484 480 -360
		mu 0 4 385 18 21 384
		f 4 -486 482 -358 -485
		mu 0 4 125 18 385 386
		f 4 246 -60 -234 -344
		mu 0 4 101 153 155 102
		f 3 -14 145 497
		mu 0 3 101 100 201
		f 4 -489 94 -235 -487
		mu 0 4 111 110 387 388
		f 4 -490 486 11 -488
		mu 0 4 148 111 388 389
		f 4 362 -491 487 348
		mu 0 4 390 149 148 389
		f 4 -104 -345 -492 -493
		mu 0 4 141 391 392 344
		f 3 -494 491 -102
		mu 0 3 155 154 393
		f 3 -495 -346 107
		mu 0 3 142 344 160
		f 4 -498 495 257 -497
		mu 0 4 394 395 396 208
		f 3 -247 496 -499
		mu 0 3 207 394 208
		f 4 -503 501 256 -496
		mu 0 4 397 228 229 398
		f 3 -504 -255 252
		mu 0 3 290 399 291
		f 4 -505 -257 503 457
		mu 0 4 292 294 399 290
		f 4 -509 -508 506 505
		mu 0 4 400 401 402 403
		f 4 512 511 -511 -510
		mu 0 4 404 405 406 407
		f 4 -517 -516 -515 -514
		mu 0 4 408 409 410 411
		f 4 -520 -519 -518 -507
		mu 0 4 412 413 414 415
		f 4 517 -523 -522 -521
		mu 0 4 415 414 416 417
		f 4 526 -526 -525 523
		mu 0 4 418 419 420 421
		f 4 -531 -530 -529 527
		mu 0 4 422 423 424 425
		f 4 -535 -534 -533 -532
		mu 0 4 426 427 428 429
		f 4 532 -538 -537 -536
		mu 0 4 429 428 430 431
		f 4 541 -541 -540 538
		mu 0 4 432 433 434 435
		f 4 -546 -545 -544 542
		mu 0 4 436 437 438 439
		f 4 -550 -549 -548 -547
		mu 0 4 440 441 442 443
		f 4 547 -553 -552 -551
		mu 0 4 443 442 444 445
		f 4 556 -556 -555 -554
		mu 0 4 446 447 448 449
		f 4 -561 -560 -559 -558
		mu 0 4 450 451 452 453
		f 4 -565 563 -563 -562
		mu 0 4 454 455 456 457
		f 4 -569 -568 -567 -566
		mu 0 4 458 459 460 461
		f 4 572 -572 -571 -570
		mu 0 4 462 463 464 465
		f 4 562 575 -575 -574
		mu 0 4 457 456 466 467
		f 4 579 578 -578 -577
		mu 0 4 468 469 470 471
		f 4 -583 581 -580 -581
		mu 0 4 472 473 469 468
		f 4 -587 -586 -585 -584
		mu 0 4 474 475 476 477
		f 4 590 -590 -589 -588
		mu 0 4 478 479 480 481
		f 4 -594 60 -593 -592
		mu 0 4 482 103 102 483
		f 4 -597 141 -596 -595
		mu 0 4 484 107 485 486
		f 4 599 -599 -598 62
		mu 0 4 108 487 488 109
		f 4 -603 -602 477 600
		mu 0 4 489 490 114 113
		f 4 -604 -528 -601 65
		mu 0 4 116 491 489 113
		f 4 -524 -606 165 604
		mu 0 4 492 493 120 119
		f 4 607 520 -607 91
		mu 0 4 122 403 494 123
		f 4 99 -609 -506 -608
		mu 0 4 122 125 400 403
		f 4 536 -611 -542 -610
		mu 0 4 431 430 433 432
		f 4 612 -591 -612 577
		mu 0 4 470 479 478 471
		f 4 -615 -557 -614 551
		mu 0 4 444 447 446 445
		f 4 616 -573 -616 574
		mu 0 4 466 463 462 467
		f 4 -620 618 -618 515
		mu 0 4 409 495 496 410
		f 4 622 -622 568 -621
		mu 0 4 497 498 459 458
		f 4 625 -625 560 -624
		mu 0 4 499 500 451 450
		f 4 628 -628 586 -627
		mu 0 4 501 502 475 474
		f 4 631 -631 545 629
		mu 0 4 503 504 437 436
		f 4 634 -634 530 632
		mu 0 4 505 506 423 422
		f 4 635 -633 603 89
		mu 0 4 138 507 491 116
		f 4 606 636 -605 68
		mu 0 4 123 494 492 119
		f 4 -638 -527 -637 521
		mu 0 4 416 419 418 417
		f 4 -642 -641 -640 638
		mu 0 4 508 509 510 511
		f 4 -645 -644 355 -643
		mu 0 4 512 513 146 145
		f 3 -647 347 -646
		mu 0 3 514 150 149
		f 4 644 -650 -649 -648
		mu 0 4 513 512 515 516
		f 3 -653 -652 -651
		mu 0 3 517 155 518
		f 4 654 -654 -103 597
		mu 0 4 519 520 158 157
		f 4 657 640 -657 -656
		mu 0 4 521 510 509 522
		f 3 -660 -655 -659
		mu 0 3 523 520 519
		f 4 112 -663 -662 -661
		mu 0 4 163 166 524 525
		f 4 661 -665 -664 -639
		mu 0 4 525 524 526 527
		f 4 666 -666 -114 653
		mu 0 4 528 529 530 531
		f 4 119 669 -669 -668
		mu 0 4 173 176 532 533
		f 4 668 672 -672 -671
		mu 0 4 533 532 534 535
		f 4 675 -675 -121 673
		mu 0 4 536 537 538 539
		f 4 126 -678 -677 -670
		mu 0 4 176 184 540 532
		f 4 676 -680 -679 -673
		mu 0 4 532 540 541 534
		f 4 681 -681 -128 674
		mu 0 4 537 542 543 538
		f 4 135 684 -684 682
		mu 0 4 188 191 544 545
		f 4 687 -687 -138 685
		mu 0 4 546 547 548 549
		f 4 683 690 -690 688
		mu 0 4 545 544 550 551
		f 4 -685 128 596 691
		mu 0 4 544 191 107 484
		f 4 686 693 692 143
		mu 0 4 548 547 552 553
		f 3 696 -696 -695
		mu 0 3 482 554 555
		f 4 700 -700 -699 -698
		mu 0 4 556 557 558 559
		f 4 -704 -703 -702 655
		mu 0 4 560 561 562 563
		f 4 698 -706 703 704
		mu 0 4 559 558 561 560
		f 4 707 -707 -705 656
		mu 0 4 509 523 564 522
		f 4 659 -708 641 708
		mu 0 4 520 523 509 508
		f 4 -667 -709 663 -710
		mu 0 4 529 528 527 526
		f 4 711 -676 -711 671
		mu 0 4 534 537 536 535
		f 4 -682 -712 678 -713
		mu 0 4 542 537 534 541
		f 4 714 -688 713 689
		mu 0 4 550 547 546 551
		f 4 595 163 -693 -716
		mu 0 4 486 485 553 552
		f 4 605 -717 -636 67
		mu 0 4 120 493 507 138
		f 4 -718 -635 716 524
		mu 0 4 565 506 505 566
		f 4 -720 -632 718 539
		mu 0 4 567 504 503 568
		f 4 -722 -629 -721 588
		mu 0 4 569 502 501 570
		f 4 -724 -626 -723 554
		mu 0 4 571 500 499 572
		f 4 -726 -623 -725 570
		mu 0 4 573 498 497 574
		f 4 728 727 619 726
		mu 0 4 575 576 495 409
		f 4 730 -727 516 -730
		mu 0 4 577 575 409 408
		f 4 566 732 564 -732
		mu 0 4 461 460 455 454
		f 4 558 -735 549 -734
		mu 0 4 453 452 441 440
		f 4 584 736 582 -736
		mu 0 4 477 476 473 472
		f 4 543 -739 534 -738
		mu 0 4 439 438 427 426
		f 4 528 -741 519 -740
		mu 0 4 425 424 413 412
		f 4 507 -742 602 739
		mu 0 4 402 401 578 579
		f 4 -745 743 -743 648
		mu 0 4 515 580 581 516
		f 4 747 -747 -701 -746
		mu 0 4 582 583 557 556
		f 4 510 750 -750 -749
		mu 0 4 407 406 584 585
		f 3 706 658 751
		mu 0 3 564 523 519
		f 4 755 754 -754 -753
		mu 0 4 586 587 588 589
		f 4 759 -759 -758 756
		mu 0 4 590 591 592 593
		f 4 761 757 -761 -756
		mu 0 4 586 593 592 587
		f 4 753 764 -764 -763
		mu 0 4 589 588 594 595
		f 4 767 -767 -766 763
		mu 0 4 594 596 597 595
		f 4 766 -770 -760 768
		mu 0 4 597 596 591 590
		f 4 772 771 -771 -755
		mu 0 4 598 599 600 601
		f 4 775 -775 -774 758
		mu 0 4 602 603 604 605
		f 4 760 773 -777 -773
		mu 0 4 598 605 604 599
		f 4 770 778 -778 -765
		mu 0 4 606 607 608 609
		f 4 780 -780 -768 777
		mu 0 4 608 610 611 609
		f 4 779 -782 -776 769
		mu 0 4 611 610 603 602
		f 4 784 783 -783 -772
		mu 0 4 612 613 614 615
		f 4 787 -787 -786 774
		mu 0 4 616 617 618 619
		f 4 776 785 -789 -785
		mu 0 4 612 619 618 613
		f 4 782 790 -790 -779
		mu 0 4 615 614 620 621
		f 4 792 -792 -781 789
		mu 0 4 620 622 623 621
		f 4 791 -794 -788 781
		mu 0 4 623 622 617 616
		f 4 795 509 -795 -784
		mu 0 4 624 625 626 627
		f 4 797 -512 -797 786
		mu 0 4 628 629 630 631
		f 4 788 796 -513 -796
		mu 0 4 624 631 630 625
		f 4 794 748 -799 -791
		mu 0 4 632 633 634 635
		f 4 749 -800 -793 798
		mu 0 4 634 636 637 635
		f 4 799 -751 -798 793
		mu 0 4 637 636 629 628
		f 4 -803 -802 -801 702
		mu 0 4 638 639 640 641
		f 4 804 -804 802 705
		mu 0 4 642 643 639 638
		f 4 -807 -805 699 805
		mu 0 4 644 643 642 645
		f 3 -810 808 -808
		mu 0 3 646 647 648
		f 4 -809 811 800 -811
		mu 0 4 648 647 641 640
		f 4 -815 -814 -813 533
		mu 0 4 427 649 650 428
		f 4 812 -817 -816 537
		mu 0 4 428 650 651 430
		f 4 -819 610 815 -818
		mu 0 4 652 433 430 651
		f 4 818 -821 -820 540
		mu 0 4 433 652 653 434
		f 4 -823 719 819 -822
		mu 0 4 654 504 567 655
		f 4 822 -825 823 630
		mu 0 4 504 654 656 437
		f 4 -824 -827 -826 544
		mu 0 4 437 656 657 438
		f 4 825 -828 814 738
		mu 0 4 438 657 649 427
		f 4 -830 546 -829 -582
		mu 0 4 473 440 443 469
		f 4 828 550 -831 -579
		mu 0 4 469 443 445 470
		f 4 -832 -613 830 613
		mu 0 4 446 479 470 445
		f 4 831 553 -833 589
		mu 0 4 479 446 449 480
		f 4 -834 721 832 722
		mu 0 4 499 502 569 572
		f 4 833 623 834 627
		mu 0 4 502 499 450 475
		f 4 -835 557 -836 585
		mu 0 4 475 450 453 476
		f 4 835 733 829 -737
		mu 0 4 476 453 440 473
		f 4 838 -838 -837 -564
		mu 0 4 658 659 660 661
		f 4 842 841 -841 -840
		mu 0 4 662 663 664 665
		f 4 840 845 -845 -844
		mu 0 4 665 664 666 667
		f 4 848 -848 -847 571
		mu 0 4 668 669 670 671
		f 4 846 -851 -850 725
		mu 0 4 672 673 674 675
		f 4 849 -853 -852 621
		mu 0 4 675 674 676 677
		f 4 854 -854 -839 -733
		mu 0 4 678 679 659 658
		f 4 851 -856 -855 567
		mu 0 4 677 676 679 678
		f 4 858 -858 -857 -576
		mu 0 4 661 680 681 682
		f 4 861 -861 -860 514
		mu 0 4 410 683 684 411
		f 4 859 -865 -864 862
		mu 0 4 685 686 680 660
		f 4 856 -867 -866 -617
		mu 0 4 682 681 687 668
		f 3 865 -868 -849
		mu 0 3 668 687 669
		f 4 869 -869 -862 617
		mu 0 4 496 688 683 410
		f 4 871 -843 -871 864
		mu 0 4 686 663 662 680
		f 4 872 -842 -872 860
		mu 0 4 683 689 690 684
		f 4 873 -846 -873 868
		mu 0 4 688 691 689 683
		f 4 875 844 -874 874
		mu 0 4 687 667 666 692
		f 4 876 843 -876 866
		mu 0 4 681 665 667 687
		f 4 870 839 -877 857
		mu 0 4 680 662 665 681
		f 4 878 670 -878 664
		mu 0 4 524 693 694 526
		f 4 337 667 -879 662
		mu 0 4 166 341 693 524
		f 4 879 -674 -340 665
		mu 0 4 529 695 696 530
		f 4 710 -880 709 877
		mu 0 4 694 695 529 526
		f 3 639 -882 -881
		mu 0 3 511 510 697
		f 4 646 -883 -600 64
		mu 0 4 150 514 487 108
		f 4 745 884 744 883
		mu 0 4 555 698 580 515
		f 4 885 694 -884 649
		mu 0 4 512 482 555 515
		f 4 -886 642 346 593
		mu 0 4 482 512 145 103
		f 4 -888 580 -887 813
		mu 0 4 649 472 468 650
		f 4 888 735 887 827
		mu 0 4 657 477 472 649
		f 4 -890 583 -889 826
		mu 0 4 656 474 477 657
		f 4 890 626 889 824
		mu 0 4 654 501 474 656
		f 4 -891 821 891 720
		mu 0 4 501 654 655 570
		f 4 892 587 -892 820
		mu 0 4 652 478 481 653
		f 4 -893 817 893 611
		mu 0 4 478 652 651 471
		f 4 886 576 -894 816
		mu 0 4 650 468 471 651
		f 4 -897 895 -895 548
		mu 0 4 441 699 700 442
		f 4 894 898 -898 552
		mu 0 4 442 700 701 444
		f 4 -901 614 897 899
		mu 0 4 702 447 444 701
		f 4 900 902 -902 555
		mu 0 4 447 702 703 448
		f 4 -905 723 901 903
		mu 0 4 704 500 571 705
		f 4 904 906 905 624
		mu 0 4 500 704 706 451
		f 4 -906 908 -908 559
		mu 0 4 451 706 707 452
		f 4 907 909 896 734
		mu 0 4 452 707 699 441
		f 4 910 513 -863 837
		mu 0 4 659 708 685 660
		f 4 912 -619 -912 847
		mu 0 4 669 709 710 670
		f 4 911 -728 -914 850
		mu 0 4 673 711 712 674
		f 4 913 -729 -915 852
		mu 0 4 674 712 713 676
		f 4 915 729 -911 853
		mu 0 4 679 714 708 659
		f 4 914 -731 -916 855
		mu 0 4 676 713 714 679
		f 3 -859 836 863
		mu 0 3 680 661 660
		f 4 -875 -870 -913 867
		mu 0 4 687 692 709 669
		f 4 917 -686 -412 916
		mu 0 4 715 546 549 716
		f 4 -714 -918 919 918
		mu 0 4 551 546 715 717
		f 4 921 -689 -919 920
		mu 0 4 718 545 551 717
		f 4 410 -683 -922 922
		mu 0 4 366 188 545 718
		f 4 -925 561 -924 -896
		mu 0 4 699 454 457 700
		f 4 923 573 -926 -899
		mu 0 4 700 457 467 701
		f 4 -927 -900 925 615
		mu 0 4 462 702 701 467
		f 4 926 569 -928 -903
		mu 0 4 702 462 465 703
		f 4 -929 -904 927 724
		mu 0 4 497 704 705 574
		f 4 928 620 929 -907
		mu 0 4 704 497 458 706
		f 4 -930 565 -931 -909
		mu 0 4 706 458 461 707
		f 4 930 731 924 -910
		mu 0 4 707 461 454 699
		f 4 932 -921 -932 679
		mu 0 4 540 718 717 541
		f 4 438 -923 -933 677
		mu 0 4 184 366 718 540
		f 4 933 -917 -441 680
		mu 0 4 542 715 716 543
		f 4 -920 -934 712 931
		mu 0 4 717 715 542 541
		f 4 -691 -692 594 -935
		mu 0 4 550 544 484 486
		f 4 -715 934 715 -694
		mu 0 4 547 550 486 552
		f 4 -937 -757 -936 801
		mu 0 4 719 720 721 722
		f 4 937 -769 936 803
		mu 0 4 723 724 720 719
		f 4 765 -938 806 938
		mu 0 4 725 724 723 726
		f 4 762 -939 940 939
		mu 0 4 727 725 726 728
		f 4 941 752 -940 807
		mu 0 4 729 730 731 732
		f 4 -762 -942 810 935
		mu 0 4 721 730 729 722
		f 4 -944 531 -943 518
		mu 0 4 413 426 429 414
		f 4 944 737 943 740
		mu 0 4 424 439 426 413
		f 4 -946 -543 -945 529
		mu 0 4 423 436 439 424
		f 4 946 -630 945 633
		mu 0 4 506 503 436 423
		f 4 -719 -947 717 947
		mu 0 4 568 503 506 565
		f 4 948 -539 -948 525
		mu 0 4 419 432 435 420
		f 4 609 -949 637 949
		mu 0 4 431 432 419 416
		f 4 942 535 -950 522
		mu 0 4 414 429 431 416
		f 4 -952 950 100 601
		mu 0 4 490 733 381 114
		f 4 952 742 951 741
		mu 0 4 401 734 735 578
		f 4 647 -953 508 953
		mu 0 4 736 734 401 400
		f 4 484 643 -954 608
		mu 0 4 125 386 736 400
		f 4 592 233 652 -955
		mu 0 4 483 102 155 517
		f 3 -956 -697 591
		mu 0 3 483 554 482
		f 4 956 697 -752 598
		mu 0 4 487 737 738 488
		f 4 957 -885 -957 882
		mu 0 4 514 739 737 487
		f 4 -744 -958 645 -951
		mu 0 4 740 739 514 149
		f 4 880 958 344 660
		mu 0 4 511 697 392 391
		f 3 101 -959 651
		mu 0 3 155 393 518
		f 3 -658 650 881
		mu 0 3 510 521 697
		f 4 960 -812 -960 955
		mu 0 4 741 562 742 743
		f 3 701 -961 954
		mu 0 3 563 562 741
		f 4 959 -962 -748 695
		mu 0 4 744 745 583 582
		f 3 -806 746 962
		mu 0 3 644 645 746
		f 4 -941 -963 961 809
		mu 0 4 646 644 746 647
		f 4 -966 -972 -970 -968
		mu 0 4 747 748 749 750
		f 3 967 -964 -967
		mu 0 3 751 752 753
		f 4 963 969 -965 -969
		mu 0 4 754 755 756 757
		f 3 964 971 -971
		mu 0 3 758 759 760
		f 4 970 965 966 968
		mu 0 4 761 762 763 764
		f 4 -975 -981 -979 -977
		mu 0 4 765 766 767 768
		f 3 976 -973 -976
		mu 0 3 769 770 771
		f 4 972 978 -974 -978
		mu 0 4 772 773 774 775
		f 3 973 980 -980
		mu 0 3 776 777 778
		f 4 979 974 975 977
		mu 0 4 779 780 781 782;
	setAttr ".cd" -type "dataPolyComponent" Index_Data Edge 0 ;
	setAttr ".cvd" -type "dataPolyComponent" Index_Data Vertex 0 ;
	setAttr ".pd[0]" -type "dataPolyComponent" Index_Data UV 0 ;
	setAttr ".hfd" -type "dataPolyComponent" Index_Data Face 0 ;
createNode groupId -n "groupId20";
	rename -uid "49929D01-4779-993E-2879-A0B28F3E4EC3";
	setAttr ".ihi" 0;
createNode shadingEngine -n "lambert3SG";
	rename -uid "1768823E-4C56-EF30-8193-EF8F180746FA";
	setAttr ".ihi" 0;
	setAttr ".ro" yes;
createNode materialInfo -n "materialInfo2";
	rename -uid "CBB55EA4-4042-BB56-BB1E-B69179049A0C";
createNode lambert -n "lambert3";
	rename -uid "1E72C166-48C7-8337-83CE-7FA6F7265795";
createNode file -n "file2";
	rename -uid "1B0120D9-4950-A1A0-E4D4-44B3DF607ED3";
	setAttr ".ftn" -type "string" "//gamesserver2/Games/2015-2017/Sophie/Claudio/Statue_Enemies//sourceimages/SleepingGiant_Female_Texture.psd";
	setAttr ".cs" -type "string" "sRGB";
createNode place2dTexture -n "place2dTexture2";
	rename -uid "9B111646-4447-9F7D-074D-D6A8706807EF";
createNode lightLinker -s -n "lightLinker1";
	rename -uid "93C8F456-49F4-D1D6-1982-7BA68C718BAE";
	setAttr -s 8 ".lnk";
	setAttr -s 8 ".slnk";
select -ne :time1;
	setAttr ".o" 1;
	setAttr ".unw" 1;
select -ne :hardwareRenderingGlobals;
	setAttr ".otfna" -type "stringArray" 22 "NURBS Curves" "NURBS Surfaces" "Polygons" "Subdiv Surface" "Particles" "Particle Instance" "Fluids" "Strokes" "Image Planes" "UI" "Lights" "Cameras" "Locators" "Joints" "IK Handles" "Deformers" "Motion Trails" "Components" "Hair Systems" "Follicles" "Misc. UI" "Ornaments"  ;
	setAttr ".otfva" -type "Int32Array" 22 0 1 1 1 1 1
		 1 1 1 0 0 0 0 0 0 0 0 0
		 0 0 0 0 ;
	setAttr ".fprt" yes;
select -ne :renderPartition;
	setAttr -s 8 ".st";
select -ne :renderGlobalsList1;
select -ne :defaultShaderList1;
	setAttr -s 10 ".s";
select -ne :postProcessList1;
	setAttr -s 2 ".p";
select -ne :defaultRenderUtilityList1;
	setAttr -s 6 ".u";
select -ne :defaultRenderingList1;
	setAttr -s 2 ".r";
select -ne :defaultTextureList1;
	setAttr -s 3 ".tx";
select -ne :initialShadingGroup;
	setAttr ".ro" yes;
select -ne :initialParticleSE;
	setAttr ".ro" yes;
select -ne :defaultRenderGlobals;
	setAttr ".mcfr" 30;
select -ne :defaultResolution;
	setAttr ".pa" 1;
select -ne :hardwareRenderGlobals;
	setAttr ".ctrs" 256;
	setAttr ".btrs" 512;
	setAttr ".hwfr" 30;
select -ne :ikSystem;
	setAttr -s 4 ".sol";
connectAttr "groupId20.id" "SleepingGiant_FemaleShape.iog.og[0].gid";
connectAttr "lambert3SG.mwc" "SleepingGiant_FemaleShape.iog.og[0].gco";
connectAttr "lambert3.oc" "lambert3SG.ss";
connectAttr "SleepingGiant_FemaleShape.iog.og[0]" "lambert3SG.dsm" -na;
connectAttr "groupId20.msg" "lambert3SG.gn" -na;
connectAttr "lambert3SG.msg" "materialInfo2.sg";
connectAttr "lambert3.msg" "materialInfo2.m";
connectAttr "file2.msg" "materialInfo2.t" -na;
connectAttr "file2.oc" "lambert3.c";
connectAttr ":defaultColorMgtGlobals.cme" "file2.cme";
connectAttr ":defaultColorMgtGlobals.cfe" "file2.cmcf";
connectAttr ":defaultColorMgtGlobals.cfp" "file2.cmcp";
connectAttr ":defaultColorMgtGlobals.wsn" "file2.ws";
connectAttr "place2dTexture2.c" "file2.c";
connectAttr "place2dTexture2.tf" "file2.tf";
connectAttr "place2dTexture2.rf" "file2.rf";
connectAttr "place2dTexture2.mu" "file2.mu";
connectAttr "place2dTexture2.mv" "file2.mv";
connectAttr "place2dTexture2.s" "file2.s";
connectAttr "place2dTexture2.wu" "file2.wu";
connectAttr "place2dTexture2.wv" "file2.wv";
connectAttr "place2dTexture2.re" "file2.re";
connectAttr "place2dTexture2.of" "file2.of";
connectAttr "place2dTexture2.r" "file2.ro";
connectAttr "place2dTexture2.n" "file2.n";
connectAttr "place2dTexture2.vt1" "file2.vt1";
connectAttr "place2dTexture2.vt2" "file2.vt2";
connectAttr "place2dTexture2.vt3" "file2.vt3";
connectAttr "place2dTexture2.vc1" "file2.vc1";
connectAttr "place2dTexture2.o" "file2.uv";
connectAttr "place2dTexture2.ofs" "file2.fs";
relationship "link" ":lightLinker1" ":initialShadingGroup.message" ":defaultLightSet.message";
relationship "link" ":lightLinker1" ":initialParticleSE.message" ":defaultLightSet.message";
relationship "link" ":lightLinker1" "lambert3SG.message" ":defaultLightSet.message";
relationship "shadowLink" ":lightLinker1" ":initialShadingGroup.message" ":defaultLightSet.message";
relationship "shadowLink" ":lightLinker1" ":initialParticleSE.message" ":defaultLightSet.message";
relationship "shadowLink" ":lightLinker1" "lambert3SG.message" ":defaultLightSet.message";
connectAttr "lambert3SG.pa" ":renderPartition.st" -na;
connectAttr "lambert3.msg" ":defaultShaderList1.s" -na;
connectAttr "place2dTexture2.msg" ":defaultRenderUtilityList1.u" -na;
connectAttr "file2.msg" ":defaultTextureList1.tx" -na;
// End of SleepingGiant_Female.ma
