//Maya ASCII 2016 scene
//Name: SleepingGiant_Male.ma
//Last modified: Wed, Sep 14, 2016 01:58:32 PM
//Codeset: 1252
requires maya "2016";
requires "stereoCamera" "10.0";
requires "stereoCamera" "10.0";
currentUnit -l meter -a degree -t ntsc;
fileInfo "application" "maya";
fileInfo "product" "Maya 2016";
fileInfo "version" "2016";
fileInfo "cutIdentifier" "201603180400-990260";
fileInfo "osv" "Microsoft Windows 8 , 64-bit  (Build 9200)\n";
fileInfo "license" "education";
createNode transform -n "SleepingGiant_Male";
	rename -uid "2FAA785C-4A64-C3B6-6C00-628373980DDC";
createNode mesh -n "SleepingGiant_MaleShape" -p "SleepingGiant_Male";
	rename -uid "64B65CD8-4797-BA51-B699-DFADF4C51D24";
	setAttr -k off ".v";
	setAttr ".iog[0].og[0].gcl" -type "componentList" 1 "f[0:516]";
	setAttr ".vir" yes;
	setAttr ".vif" yes;
	setAttr ".uvst[0].uvsn" -type "string" "map1";
	setAttr -s 819 ".uvst[0].uvsp";
	setAttr ".uvst[0].uvsp[0:249]" -type "float2" 0.20983791 0.69651312 0.22257973
		 0.9596985 0.22112519 0.96705669 0.21223307 0.97254783 0.22320987 0.728486 0.62894768
		 0.67098653 0.15169746 0.72563869 0.20987934 0.96279031 0.229991 0.93922132 0.22562866
		 0.93641096 0.23014098 0.72355336 0.15177618 0.7186442 0.19214118 0.71423632 0.72249359
		 0.87370038 0.74414498 0.86310577 0.74414498 0.90447521 0.72249359 0.89325738 0.63983113
		 0.61911416 0.67771131 0.6261186 0.56991786 0.60503113 0.52225584 0.58123291 0.5250203
		 0.5535835 0.57281142 0.56660664 0.63961953 0.53446949 0.66939086 0.53955507 0.5325951
		 0.50659037 0.57461852 0.51692998 0.65312725 0.38433483 0.63022906 0.38506925 0.62917894
		 0.33400381 0.65588194 0.33064544 0.22242463 0.87029344 0.20392287 0.8731944 0.59102124
		 0.64691246 0.60347837 0.5879395 0.1996454 0.85711974 0.22242463 0.85711974 0.76715559
		 0.6285249 0.74144095 0.65802324 0.7198233 0.6067822 0.74288577 0.57263058 0.60800046
		 0.52464044 0.70220178 0.52664971 0.72506756 0.5087024 0.60793418 0.375705 0.60793418
		 0.33414221 0.25240183 0.8767485 0.69790453 0.37696043 0.24935715 0.76892775 0.6755572
		 0.38029292 0.5173955 0.9010607 0.56688416 0.90765882 0.67831177 0.32949609 0.24728578
		 0.8772499 0.25314435 0.82566959 0.24352151 0.76901382 0.19439581 0.72117215 0.21660791
		 0.70602351 0.6877746 0.32793596 0.67053384 0.24449784 0.24766222 0.82371324 0.58461136
		 0.38471985 0.20886427 0.68547362 0.19101702 0.70359665 0.65860695 0.24619865 0.64651328
		 0.20085454 0.22364326 0.97839195 0.22076708 0.98641038 0.56151825 0.38099375 0.15089294
		 0.81792343 0.41294539 0.93468106 0.48400396 0.91626179 0.2675637 0.76833457 0.26756185
		 0.82471234 0.4291299 0.73645031 0.55212319 0.75356126 0.56761771 0.33143854 0.62213498
		 0.25101259 0.53307974 0.75288868 0.44713801 0.73934698 0.58685356 0.33579031 0.60793418
		 0.25182766 0.60793418 0.20459938 0.11176714 0.81271899 0.63932651 0.24892294 0.63360673
		 0.42274618 0.60963827 0.43067259 0.60793418 0.40032166 0.62770957 0.39982259 0.20224798
		 0.83881384 0.61818427 0.20397151 0.70189828 0.40470988 0.68163317 0.40957162 0.12953576
		 0.81707412 0.59527427 0.25184631 0.58564144 0.24945757 0.59624368 0.20323449 0.73719776
		 0.75439656 0.22242463 0.83987623 0.3974812 0.49340641 0.098855466 0.82604462 0.65451342
		 0.41596597 0.42000258 0.48671973 0.65247399 0.39661992 0.58187026 0.42108822 0.42332089
		 0.55601883 0.69987929 0.73006403 0.70011997 0.71935689 0.55805176 0.41173232 0.56090361
		 0.39612818 0.58659619 0.40138841 0.16961741 0.12254006 0.20491743 0.154989 0.40043831
		 0.55601883 0.16207123 0.18091929 0.14474249 0.14002824 0.86633158 0.45056239 0.95695126
		 0.23726957 0.30247819 0.092610061 0.27298617 0.079246044 0.9900744 0.24097514 0.57106268
		 0.66403508 0.74700594 0.74918282 0.58839089 0.67175984 0.58273262 0.69023061 0.56745476
		 0.67887115 0.57504308 0.71533203 0.56356543 0.76377773 0.56091815 0.77789545 0.5096252
		 0.75430489 0.51673454 0.84809732 0.56173402 0.85357678 0.56937355 0.89507961 0.51793927
		 0.8849957 0.60312897 0.70290005 0.61384207 0.68071645 0.593238 0.72620034 0.60345918
		 0.77197719 0.6052388 0.78995705 0.6140123 0.85941434 0.618734 0.89459705 0.47145182
		 0.56990725 0.47755164 0.54349077 0.49192673 0.497895 0.53490275 0.40395731 0.5398013
		 0.39162761 0.54436678 0.37926096 0.5273307 0.32448995 0.56572217 0.24508905 0.58536822
		 0.20091504 0.6798746 0.39292741 0.7005567 0.38979572 0.098445654 0.060200095 0.14475489
		 0.033684731 0.14232191 0.81770754 0.82366216 0.41336772 0.65177453 0.7492553 0.83470571
		 0.41549718 0.66158277 0.75460613 0.66158277 0.79773974 0.65177453 0.80310678 0.69987929
		 0.82225418 0.73719776 0.79773974 0.74700594 0.80310667 0.10829227 0.71983403 0.11405171
		 0.71095842 0.31219804 0.20382822 0.94255114 0.26803523 0.32102787 0.11218166 0.76675481
		 0.87370038 0.38864243 0.20174062 0.76675481 0.89325738 0.85362005 0.46099192 0.79656756
		 0.35900155 0.81206048 0.35986614 0.92824227 0.30508226 0.91777289 0.34519529 0.91485494
		 0.34519535 0.92121601 0.30111718 0.69685459 0.85587466 0.38864243 0.26773083 0.92850137
		 0.26567429 0.74374044 0.82671595 0.74388206 0.84606612 0.87213755 0.49012834 0.4470973
		 0.48501062 0.089779019 0.090849578 0.71007752 0.86528492 0.30859292 0.26773083 0.74374044
		 0.94057465 0.69685459 0.90970075 0.26755995 0.96169573 0.26755995 0.96910554 0.71007752
		 0.90076149 0.45328426 0.5628739 0.323838 0.53895593 0.26755995 0.94233102 0.31989825
		 0.45890641 0.36467397 0.45890641 0.36878955 0.48504364 0.13940001 0.19347835 0.74388206
		 0.92111063 0.79208589 0.85587466 0.39577758 0.58822781 0.36960244 0.55066353 0.357481
		 0.58822781 0.61081529 0.9147284 0.59726125 0.94796026 0.26755995 0.87705785 0.77886307
		 0.86528492 0.24336731 0.8550486 0.79208589 0.90970075 0.2344898 0.84328383 0.23761618
		 0.86680776 0.77886307 0.90076149 0.66668421 0.7583549 0.70048887 0.7391361 0.70059782
		 0.75590289 0.67894644 0.76649749 0.70048887 0.81418061 0.26756608 0.70592576 0.66668421
		 0.79383147 0.67894644 0.78605449 0.26756513 0.73006099 0.70059782 0.79727232 0.73546988
		 0.7583549 0.72320765 0.76649749 0.73546988 0.79383147 0.72320765 0.78605449 0.63651758
		 0.46392599 0.65960068 0.4593285 0.5470472 0.44762769 0.26756647 0.69576889 0.57976168
		 0.45800489 0.51333088 0.43566039 0.69029218 0.44748843 0.10737905 0.77873164 0.12682161
		 0.7791816 0.072021335 0.77456033 0.054400295 0.78268063 0.047845215 0.76818573 0.067005366
		 0.75824839 0.073857032 0.84978575 0.064570509 0.83245045 0.48467982 0.74473822 0.083249897
		 0.86727095 0.32529384 0.69651753 0.14381525 0.78036535 0.10795769 0.75824839 0.34299433
		 0.71424526;
	setAttr ".uvst[0].uvsp[250:499]" 0.081997 0.77631265 0.085502237 0.75824839
		 0.057373129 0.80626005 0.031664461 0.81356424 0.18146718 0.87378222 0.030926555 0.79270077
		 0.31192008 0.72848958 0.045321904 0.79500455 0.24928677 0.15900195 0.29160538 0.76901549
		 0.28577 0.76892918 0.70011997 0.83398068 0.2617358 0.20580339 0.22874117 0.059172392
		 0.74499714 0.78518569 0.31253979 0.95969862 0.89903641 0.40132678 0.62491757 0.29107967
		 0.59986824 0.20466113 0.64895505 0.28799367 0.57825392 0.28923094 0.59173089 0.29252324
		 0.68092138 0.24276826 0.54473406 0.2818239 0.66902798 0.28520736 0.12645957 0.75824839
		 0.055081218 0.85904545 0.15901396 0.81875813 0.71426886 0.37441891 0.04584524 0.84110689
		 0.060574852 0.86978757 0.14278612 0.75828463 0.56206661 0.80934215 0.70716697 0.32481697
		 0.60947359 0.81775618 0.51168495 0.79853308 0.71799856 0.40032732 0.17203683 0.68556631
		 0.38336724 0.71867961 0.38344151 0.72567433 0.71524006 0.38754079 0.76678967 0.87386286
		 0.76678967 0.89341986 0.77011985 0.54111993 0.74513841 0.90463769 0.74513841 0.86326826
		 0.11790764 0.64734262 0.15457237 0.63552463 0.75918287 0.4947831 0.77913862 0.56693661
		 0.2220937 0.61256707 0.21428227 0.57483363 0.26000166 0.5557723 0.26629913 0.58283663
		 0.115026 0.56042802 0.14389586 0.55155557 0.20610136 0.52580202 0.24644589 0.51014352
		 0.11119139 0.40440512 0.10155451 0.35151589 0.18334734 0.85296482 0.1284678 0.35141203
		 0.17126906 0.83815187 0.13399392 0.40218845 0.16297042 0.87306935 0.14201784 0.85178739
		 0.17918789 0.39597502 0.25932109 0.2527498 0.15171671 0.83651 0.47351158 0.45890641
		 0.89912009 0.36317945 0.32523954 0.96279198 0.32288462 0.97255129 0.26755995 0.97946185
		 0.3139967 0.96705717 0.45061791 0.45890641 0.6819967 0.051953435 0.30512935 0.93922108
		 0.30498964 0.72355622 0.34073567 0.72117978 0.98958379 0.30109096 0.79264319 0.34267101
		 0.31852448 0.70602781 0.80285275 0.34267431 0.42767656 0.45890641 0.092748284 0.94460243
		 0.092748284 0.95777601 0.1706714 0.3477402 0.18918782 0.34095061 0.20160991 0.38930988
		 0.10746205 0.26834285 0.11051742 0.93657553 0.1282858 0.9322204 0.12477964 0.26820409
		 0.1515246 0.26557633 0.30949199 0.93641108 0.069969058 0.95777601 0.28271815 0.87674898
		 0.28783438 0.87725061 0.074246526 0.94170141 0.28197956 0.82567066 0.092748284 0.97501951
		 0.28746194 0.82371467 0.072571754 0.97608203 0.3974812 0.42440653 0.40043831 0.36179402
		 0.42332089 0.36179402 0.42000258 0.43109322 0.82366222 0.27198365 0.85361826 0.22435866
		 0.86633027 0.23478766 0.83470571 0.26985365 0.79657054 0.32634562 0.81206214 0.32548517
		 0.92824244 0.38530827 0.14090014 0.21937388 0.13044146 0.95393103 0.326271 0.68547839
		 0.34412575 0.70360917 0.92121619 0.38927341 0.94255126 0.42235506 0.31434023 0.98641181
		 0.31147364 0.97839123 0.16077024 0.26196855 0.54694974 0.66118157 0.92850149 0.42471647
		 0.87213564 0.19522189 0.95695138 0.45312053 0.4470973 0.4328022 0.73721588 0.7543053
		 0.74702394 0.74909157 0.64429581 0.16171139 0.11388481 0.43595183 0.11341918 0.41650414
		 0.54710418 0.67303979 0.13838989 0.4164952 0.43621624 0.75250793 0.41716802 0.75302815
		 0.45965844 0.75411081 0.74501514 0.78509444 0.13548994 0.43998688 0.18658352 0.43168885
		 0.17936319 0.41276044 0.63450515 0.69374239 0.20416594 0.40423954 0.73721588 0.79764849
		 0.74702394 0.80301541 0.20900095 0.41934735 0.47336325 0.71666563 0.39880353 0.89440835
		 0.59252888 0.76480842 0.4873358 0.73871338 0.45031607 0.88472986 0.34387708 0.76055694
		 0.45073342 0.90079904 0.40119398 0.90700626 0.6875093 0.090854526 0.70013809 0.71926564
		 0.69989741 0.72997278 0.65179265 0.74916404 0.65179265 0.80301553 0.66160077 0.79764849
		 0.66160077 0.75451487 0.69989741 0.82216293 0.323838 0.37885681 0.36878955 0.43276918
		 0.43309617 0.32958499 0.60766757 0.12254083 0.63254213 0.14002889 0.61521149 0.18092
		 0.57236743 0.15498948 0.50429916 0.079246104 0.47480714 0.092610002 0.90525591 0.26098782
		 0.91402328 0.22388579 0.52291852 0.66466153 0.52691191 0.67939878 0.51193571 0.69115317
		 0.50579721 0.6728363 0.5315969 0.70667863 0.40564573 0.76315629 0.52027774 0.71604514
		 0.40818173 0.7772944 0.45181108 0.84784222 0.40676975 0.8529669 0.49187696 0.70435047
		 0.4805899 0.68245351 0.3656891 0.77104092 0.37667531 0.76395893 0.36376792 0.78900647
		 0.34944791 0.89353693 0.35444689 0.85839272 0.35720789 0.91372895 0.30577797 0.53965855
		 0.31522465 0.56507105 0.28565818 0.49629012 0.22451413 0.39706239 0.23095775 0.4086597
		 0.22824663 0.32887843 0.21839619 0.38538557 0.1253511 0.9638176 0.17996222 0.2550745
		 0.32900649 0.7862016 0.48428166 0.84573102 0.48412436 0.8857609 0.087991357 0.26812088
		 0.094152749 0.22159797 0.088427901 0.40328151 0.079163134 0.35326082 0.086167991
		 0.4330985 0.31719726 0.8540014 0.085771441 0.41636634 0.073658645 0.63358295 0.080827713
		 0.55184954 0.058810592 0.68717867 0.31101894 0.88947284 0.39577758 0.32958499 0.36960244
		 0.36714926 0.42685038 0.71989733 0.357481 0.32958499 0.98759395 0.40899032 0.45625699
		 0.1121816 0.72252858 0.89341986 0.72252858 0.87386286 0.69683033 0.85567188 0.11369097
		 0.95984727 0.71005315 0.86508214 0.10481358 0.97161192 0.10793984 0.94808811 0.7438578
		 0.84586334 0.67884278 0.060203731 0.74371618 0.82651317 0.74371618 0.94037187 0.7438578
		 0.92090786 0.71005315 0.90055871 0.30838239 0.9046098 0.69683033 0.90949798 0.77883881
		 0.86508214 0.79206163 0.85567188 0.77883881 0.90055871 0.79206163 0.90949798 0.6492939
		 0.98993033 0.66657007 0.7584421 0.7801621 0.98994589 0.78016597 0.97121072 0.053671122
		 0.96193105 0.051790953 0.94111365 0.041592836 0.976744 0.012341499 0.96310836 0.033294201
		 0.94182646;
	setAttr ".uvst[0].uvsp[500:749]" 0.022040367 0.97838587 0.64929396 0.97119528
		 0.70511866 0.98993033 0.68477046 0.98993045 0.68477052 0.97119516 0.70512062 0.97119516
		 0.76094347 0.98994184 0.76094723 0.97120667 0.72546691 0.9899345 0.72547072 0.97119939
		 0.67586499 0.96288902 0.74800491 0.96291447 0.74801338 0.94912195 0.67586499 0.94909638
		 0.70663768 0.96288902 0.69542211 0.96288902 0.69542211 0.94909644 0.70664197 0.94909644
		 0.73741043 0.96290803 0.73741889 0.9491154 0.71785331 0.96289599 0.71786177 0.94910347
		 0.49159092 0.98996335 0.4607172 0.98996514 0.46071595 0.9657346 0.4915902 0.96573293
		 0.52246451 0.98996335 0.52246451 0.96573287 0.57629055 0.96573299 0.57631606 0.98996335
		 0.37773126 0.96573919 0.37696749 0.98996967 0.4067933 0.98996806 0.40688998 0.96573758
		 0.60910839 0.46264094 0.70948333 0.43878347 0.73414809 0.43324572 0.67883229 0.76658469
		 0.15468487 0.78033096 0.16645011 0.78058738 0.070038877 0.79580212 0.5634824 0.7062639
		 0.54747087 0.70123219 0.63001275 0.023610115 0.095291853 0.051949382 0.89912009 0.34267521
		 0.34606433 0.12120783 0.38864243 0.13369977 0.70048368 0.75599009 0.18673682 0.012333453
		 0.59373665 0.0087513924 0.98759359 0.28140041 0.60793418 0.29191208 0.67867452 0.28389525
		 0.69411308 0.28119847 0.15566954 0.7587927 0.16742346 0.75929779 0.32419544 0.8138231
		 0.70037472 0.7392233 0.48449236 0.79211652 0.70037472 0.81426781 0.18661368 0.59993356
		 0.20655191 0.65681463 0.029515803 0.66123253 0.046395302 0.60268104 0.17398834 0.5377419
		 0.055843651 0.53699207 0.14955384 0.34881699 0.15489924 0.39003465 0.065837502 0.40285081
		 0.06957823 0.35293067 0.075944722 0.26796812 0.089160725 0.93742502 0.097731389 0.93720901
		 0.12264752 0.22104558 0.14368227 0.9344945 0.13896728 0.26718605 0.1580652 0.41444686
		 0.16027874 0.44476488 0.06544584 0.43088344 0.064858139 0.41592062 0.70048368 0.79735953
		 0.67883229 0.78614169 0.46508682 0.20382822 0.46869206 0.26773083 0.14119723 0.94554591
		 0.065420926 0.26758888 0.071320772 0.22059813 0.049282253 0.40243503 0.049945772
		 0.3523317 0.048915625 0.42860797 0.050006807 0.41557285 0.015334845 0.57493472 0.020221472
		 0.52757609 0.009711206 0.60169709 0.66657007 0.79391867 0.72309351 0.76658469 0.51554894
		 0.20580345 0.51796377 0.2527498 0.89912009 0.32217097 0.89903641 0.2840232 0.98958379
		 0.38929963 0.45725054 0.79831934 0.50237131 0.72738552 0.73535573 0.7584421 0.76095682
		 0.99005175 0.76095819 0.9713167 0.78017688 0.97131801 0.78017557 0.99005306 0.70513141
		 0.99004799 0.70513219 0.97131294 0.72548157 0.97131431 0.72548032 0.99004942 0.64930612
		 0.97131294 0.64930606 0.99004799 0.68478268 0.97131282 0.68478268 0.99004799 0.73714185
		 0.96278715 0.73714006 0.94899452 0.66499686 0.94899839 0.74773628 0.96278572 0.70636654
		 0.96279114 0.70636564 0.94899857 0.71758294 0.94899702 0.71758473 0.96278965 0.67559129
		 0.94899851 0.67559129 0.96279114 0.69514841 0.94899857 0.69514841 0.96279114 0.49144387
		 0.96554303 0.49144435 0.98977357 0.4605701 0.98977357 0.4605701 0.96554303 0.52231753
		 0.96554166 0.5223186 0.98977214 0.57614464 0.98976964 0.57616895 0.96553922 0.60530335
		 0.98976833 0.37682033 0.96554297 0.40664613 0.96554291 0.40674412 0.98977351 0.1378994
		 0.48119909 0.16491568 0.4763996 0.1934225 0.46802774 0.037133813 0.46332997 0.062306106
		 0.46564955 0.082457423 0.47181404 0.16803184 0.8940618 0.72309351 0.78614169 0.19220784
		 0.88768733 0.18565276 0.90218228 0.20912638 0.91220254 0.19473103 0.9145062 0.073602833
		 0.90008914 0.085368201 0.89983261 0.096237816 0.89986682 0.15805605 0.89581412 0.17001405
		 0.91530359 0.1826798 0.9257617 0.63253224 0.033686221 0.43122053 0.12120783 0.73535573
		 0.79391867 0.54854488 0.059172273 0.59055102 0.01233381 0.12717319 0.30829632 0.1441226
		 0.30693758 0.16026998 0.30545974 0.057281375 0.30739656 0.072938621 0.30808535 0.082673788
		 0.30814588 0.072629251 0.87879968 0.084383167 0.87829441 0.097266719 0.8777861 0.35931402
		 0.81677151 0.11441672 0.47960854 0.22453064 0.45352933 0.25642776 0.43732515 0.11323146
		 0.89868307 0.13267401 0.89823306 0.17304769 0.87774992 0.17548218 0.95195198 0.16619554
		 0.96928722 0.15680256 0.98677242 0.13209537 0.87774992 0.15455094 0.87774992 0.20838836
		 0.93306601 0.52799821 0.15900224 0.10293841 0.30832744 0.17321163 0.30046147 0.20550048
		 0.28880498 0.11359362 0.87774992 0.19420734 0.96060854 0.18497136 0.97854704 0.1794776
		 0.98928905 0.40678561 0.8087312 0.60606724 0.96553785 0.37758541 0.98977357 0.6649968
		 0.96279114 0.74773455 0.94899309 0.63008738 0.99004799 0.63008749 0.97131282 0.60621434
		 0.98996335 0.60544926 0.96573287 0.66527051 0.96288913 0.66527057 0.94909638 0.63007528
		 0.98993045 0.63007534 0.97119516 0.70013809 0.83388942 0.18355131 0.0087510943 0.14727473
		 0.023608863 0.066429377 0.07931751 0.71085978 0.079324305 0.47971225 0.4336133 0.45328426
		 0.35493889 0.63788033 0.19347966 0.47971225 0.48419964 0.1329869 0.16170961 0.43309617
		 0.58822781 0.93962812 0.45450503 0.93962729 0.23588541 0.42739773 0.72769672 0.11632097
		 0.69503826 0.68541902 0.67321408 0.10773995 0.72763306 0.2880711 0.68631476 0.26756686
		 0.68631393 0.42109662 0.71101803 0.3818512 0.70933431 0.98766786 0.34519529 0.24706261
		 0.68631309 0.15329817 0.70929986 0.90525651 0.42436159 0.99007428 0.4494158 0.88537347
		 0.20685518 0.91402459 0.46146345 0.88537478 0.47849476 0.11307025 0.22108191 0.15479809
		 0.21379399 0.081039578 0.93825984 0.14431125 0.21749288 0.079483271 0.22074553 0.13289326
		 0.22035003 0.62768656 0.20277578 0.10961124 0.83442962 0.66095132 0.1981225 0.11470148
		 0.84431648 0.66902703 0.19692653 0.096370429 0.81499326 0.62535411 0.76166582 0.64002192
		 0.78742659;
	setAttr ".uvst[0].uvsp[750:818]" 0.6446147 0.81508529 0.6512953 0.85531759
		 0.65971023 0.90599406 0.6571933 0.89083672 0.55491436 0.93524027 0.37049925 0.94706571
		 0.40036339 0.75804234 0.61948717 0.75470448 0.56888789 0.75870562 0.52226502 0.73963976
		 0.54029596 0.73688924 0.62195629 0.71473002 0.6085611 0.73713344 0.34984487 0.75375247
		 0.46027356 0.69601083 0.99600947 0.97183269 0.98025191 0.97451013 0.96659112 0.85624069
		 0.98234868 0.85356319 0.87678504 0.95504254 0.95446831 0.85879713 0.9694888 0.9646135
		 0.97624922 0.98997527 0.8782196 0.98877132 0.87852693 0.97278392 0.97655678 0.973988
		 0.84041739 0.8588075 0.94704843 0.85156035 0.8690027 0.94751179 0.83624113 0.87888914
		 0.86102653 0.95495802 0.84504592 0.95525658 0.82026052 0.87918776 0.97449267 0.48320419
		 0.99282658 0.48497051 0.96491063 0.60673738 0.9465766 0.60497105 0.83695829 0.51327485
		 0.94633389 0.57255578 0.83479106 0.59342974 0.93767202 0.60457802 0.83812451 0.62114495
		 0.83367097 0.60327262 0.9332186 0.58670545 0.9434191 0.56148314 0.84251654 0.50955766
		 0.96428335 0.48406094 0.81118321 0.59182996 0.81086516 0.51008719 0.82837713 0.51552993
		 0.82869518 0.59727281 0.83196044 0.82544792 0.80757177 0.82989705 0.76983148 0.67376578
		 0.79422021 0.66931689 0.95437598 0.78095889 0.80837005 0.68118262 0.96085787 0.65879738
		 0.956204 0.64647228 0.8124249 0.6755904 0.80704349 0.65139031 0.95082247 0.62227225
		 0.84614277 0.8441186 0.80939209 0.69444215 0.95684803 0.79206294 0.99145591 0.65963483
		 0.98736554 0.78121972 0.96257192 0.7780447 0.96666229 0.65645969;
	setAttr ".cuvs" -type "string" "map1";
	setAttr ".dcc" -type "string" "Ambient+Diffuse";
	setAttr ".covm[0]"  0 1 1;
	setAttr ".cdvm[0]"  0 1 1;
	setAttr -s 514 ".vt";
	setAttr ".vt[0:165]"  0.42545545 3.21108341 0.27815178 0.79037309 4.27129745 0.22539705
		 0.79037309 4.27257872 -0.23673965 0.38439658 3.21455383 -0.24260491 0.79037309 4.53619862 0.22539705
		 0.79037309 4.53619862 -0.23673965 0.13215287 2.71596003 -0.275269 0.15964796 2.80587649 0.35046056
		 0.54775512 2.88042307 -0.2489801 0.57856995 2.89408183 0.25729036 0.16630454 2.57061958 0.32964599
		 0.15420423 2.55028605 -0.27248317 0.47075051 1.55388272 -0.12325575 0.51624221 1.55388272 0.170039
		 0.25057727 1.56320357 0.20091008 0.29273799 1.56320357 -0.093994349 0.43169993 0.36331216 -0.070830099
		 0.43651283 0.35952106 0.05215437 0.32688028 0.36517432 0.033262383 0.33359528 0.36517432 -0.064747371
		 0.5235942 1.15398073 0.10748024 0.50551265 1.1663605 -0.26765406 0.26348436 1.17780077 -0.25412092
		 0.23979923 1.16527772 0.13027996 0.15560143 2.26692986 0.29840615 0.63604826 2.37503624 0.2505433
		 0.60949481 2.3778832 -0.26046899 0.16235878 2.25942254 -0.24468449 -4.55357e-010 4.13247633 0.56475443
		 -4.5535711e-010 4.40658379 0.47240403 -4.55357e-010 4.62775755 -0.46643448 -4.55357e-010 4.22444534 -0.46643448
		 -4.55357e-010 3.21412587 -0.36675096 -4.55357e-010 2.68385983 -0.29550573 -4.55357e-010 2.77843022 0.39283577
		 -4.55357e-010 3.17072749 0.46153137 0.35617763 2.70520449 0.37848169 0.38381469 2.31833959 0.33677602
		 0.3834098 1.5585407 0.22802964 0.3834098 1.15407169 0.17382738 0.3834098 0.36234513 0.078297101
		 0.3834098 0.36234513 -0.08624132 0.3834098 1.17248571 -0.31435812 0.3834098 1.5585407 -0.1546914
		 0.383762 2.30054116 -0.35838151 0.35617763 2.70520449 -0.35683838 0.2800433 3.069761753 -0.36348262
		 -4.55357e-010 3.095775127 -0.40898648 -4.55357e-010 3.023219824 0.43758872 0.2800433 3.065629244 0.35136613
		 0.63541788 4.23639631 0.53807688 0.63541788 4.53031492 0.34878063 0.48923883 4.62775755 -0.44235581
		 0.46720535 4.23720407 -0.44235581 0.27410474 3.19966245 -0.32160354 0.23090963 3.080405235 -0.39585173
		 0.092247039 2.68385983 -0.28948608 0.11013216 2.77843022 0.37748867 0.22732474 3.062809467 0.40379483
		 0.31336251 3.1723752 0.42764682 0.46592674 3.31314707 0.2507576 0.3584027 3.29082346 0.39487907
		 -4.55357e-010 3.29058838 0.42876357 -4.55357e-010 3.32270694 -0.28934652 0.26955277 3.31099796 -0.26225805
		 0.38221124 3.32008791 -0.21546444 0.49591976 3.25536132 0.28199831 0.3539426 3.23280311 0.44670403
		 -4.55357e-010 3.23280311 0.48058853 -4.55357e-010 3.25941324 -0.36449584 0.28305611 3.25045776 -0.31934848
		 0.41220421 3.26230216 -0.2444886 -4.55357e-010 4.72794724 0.19227417 -4.55357e-010 4.76837683 -0.19277839
		 0.16998591 4.74983406 0.14537346 0.15974282 4.7664566 -0.16762538 0.59352183 4.6735301 0.16565385
		 0.56079215 4.68733883 -0.16265747 -4.55357e-010 4.97274542 0.15362106 -4.55357e-010 5.077356339 -0.16228192
		 0.10979836 5.0070848465 0.10345946 0.12490704 5.069406986 -0.12897392 -4.55357e-010 4.96937799 0.2650961
		 -4.55357e-010 5.13531494 -0.20680511 0.090301774 5.00070762634 0.21903856 0.12739637 5.12920237 -0.1421791
		 -4.5535711e-010 5.81485844 0.37752685 -4.5535692e-010 5.8862114 -0.35898846 0.1946625 5.80943537 0.30653495
		 0.22651544 5.87000322 -0.28856647 0.24319212 5.5838275 0.37067649 -4.5535711e-010 5.57020521 0.44093677
		 -4.55357e-010 5.66615677 -0.43618935 0.2832275 5.64883804 -0.32302651 -4.5535711e-010 5.94157839 0.30356449
		 -4.5535711e-010 5.98011732 -0.26409575 0.95835114 4.24003124 0.28534138 0.95835114 4.24003124 -0.29668397
		 0.95835114 4.56900024 -0.29668397 0.95835114 4.56900024 0.28534138 0.95835114 4.75769234 -0.001211071
		 0.79037309 4.68602276 -0.0026823133 0.59352183 4.7267046 0.02580213 0.21085295 4.75909472 0.0077296011
		 0.15103388 5.037608147 0.007136554 0.17703375 5.068607807 0.039665651 0.34343162 5.61743307 0.05085884
		 0.294902 5.87108564 0.0041680634 -4.5535711e-010 6.022487164 0.0061398642 -4.55357e-010 2.68395591 0.037398905
		 0.088242501 2.68395591 0.033553004 0.1029892 2.71889305 0.042838212 0.10683324 2.55010033 0.024114687
		 0.1094877 2.25955296 0.0094849179 0.24599582 1.56320357 0.037877299 0.21581529 1.16797674 -0.0044566407
		 0.30289632 0.36517432 0.0032148613 0.46392307 0.35952106 0.0032148403 0.55100441 1.15669405 -0.067165755
		 0.51624221 1.55388272 0.0053477776 0.65995103 2.4335022 0.015168095 0.58881396 2.96469808 0.032780215
		 0.42545545 3.25619984 0.023082614 0.49591976 3.29874229 0.018861666 0.46592674 3.35652828 0.021830207
		 0.79037309 4.12258482 -0.0026823133 0.95835114 4.061822414 -0.001211071 0.96624708 4.29754448 0.20452705
		 0.96624708 4.18008471 -0.0020767339 0.96624708 4.63873434 -0.0020767339 0.96624708 4.51436663 0.20452705
		 0.96624708 4.29754448 -0.21586962 0.96624708 4.51436663 -0.21586962 1.080750465 4.29754448 0.20452705
		 1.080750465 4.18008471 -0.0020767339 1.080750465 4.63873434 -0.0020767339 1.080750465 4.51436663 0.20452705
		 1.080750465 4.29754448 -0.21586962 1.080750465 4.51436663 -0.21586962 1.10014927 4.34730911 0.1295839
		 1.10014927 4.28255796 -0.0027424365 1.10014927 4.53539562 -0.0027424365 1.10014927 4.4668355 0.1295839
		 1.10014927 4.34730911 -0.14092645 1.10014927 4.4668355 -0.14092645 1.18444526 4.34730911 0.1295839
		 1.18444526 4.28255796 -0.0027424365 1.18444526 4.53539562 -0.0027424365 1.18444526 4.4668355 0.1295839
		 1.18444526 4.34730911 -0.14092645 1.18444526 4.4668355 -0.14092645 -4.55357e-010 4.35714388 0.57589263
		 0.79037309 4.45947218 0.27306402 0.63541788 4.51001835 0.57528448 0.81026185 4.56899977 0.28534138
		 0.81026185 4.75769234 -0.001211071 0.81026185 4.56900024 -0.29668397 0.81026185 4.23987579 -0.29668397
		 0.81026185 4.057146549 -0.001211071 0.81026185 4.23943281 0.28534138 0.55465102 1.67274129 0.0081935618
		 0.51538014 1.69811094 0.11518834 0.39382499 1.74403596 0.18574305 0.2604886 1.68940067 0.15862344
		 0.22841761 1.66010952 0.040723097 0.29204068 1.64314592 -0.10755709;
	setAttr ".vt[166:331]" 0.39382499 1.64946461 -0.16825412 0.48424765 1.65578258 -0.12425444
		 0.5266583 1.47993708 -0.0082678767 0.48738754 1.46794283 0.09874358 0.3834098 1.40809107 0.16128154
		 0.27157786 1.46723616 0.13416195 0.23557979 1.47195756 0.022257909 0.28232193 1.48346472 -0.082470849
		 0.3834098 1.47843778 -0.12313069 0.48116657 1.47341084 -0.10718493 0.46392307 -3.8605167e-006 0.022015607
		 0.48165336 -3.8605167e-006 0.13509299 0.3834098 0 0.16123572 0.3834098 0 0.022015629
		 0.27152944 3.8605167e-006 0.14532913 0.27802262 3.8605167e-006 0.022015629 0.37075147 0 -0.10597977
		 0.29884893 -0.0001970109 -0.051723376 0.44261956 0.00019701064 -0.070830099 0.4808889 0.10218158 0.38154098
		 0.35082 0.10501054 0.50959659 0.35082 0 0.51343745 0.4808889 -3.8605167e-006 0.38538185
		 0.25744885 0.10783484 0.45032075 0.25744885 3.8605167e-006 0.45416161 0.48524573 0.11675254 0.2731829
		 0.48524573 -3.8605167e-006 0.27233487 0.35801587 0 0.2608434 0.26748368 3.8605167e-006 0.33466274
		 0.26748368 0.1517932 0.29872265 0.35801587 0.16483334 0.3033314 0.162894 4.87716055 0.0074782027
		 0.10630042 4.83525896 0.099678986 -4.55357e-010 4.80042744 0.14796211 -4.55357e-010 4.91782713 -0.15265957
		 0.12549482 4.91335058 -0.12404957 0.15954056 4.60523081 0.31096834 0.15458392 4.48726511 0.5103007
		 0.070647106 4.44071484 0.63033026 0.051149286 4.17006731 0.58965582 0.12531555 3.29058838 0.41976413
		 -4.55357e-010 4.59164667 0.3324849 -4.5535689e-010 3.89289021 0.52148014 -4.55357e-010 3.80859995 -0.3439267
		 0.26022431 3.73225307 -0.30744284 0.39848077 3.65378451 -0.17250578 0.44805604 3.6026659 -0.006562179
		 0.47366124 3.65019107 0.18553413 0.36851311 3.74221587 0.4610872 0.027639765 3.88317251 0.51952302
		 -4.5535689e-010 3.87890005 0.63524413 0.10330997 3.82338572 0.57916772 0.44769707 3.68350077 0.47224277
		 0.57454669 3.59646535 0.20409712 0.55517274 3.55901313 -0.0037054822 0.48262137 3.59899998 -0.21709204
		 0.24851395 3.68478608 -0.33767906 -4.55357e-010 3.75049925 -0.36331937 0.5898841 1.94622695 0.18661503
		 0.62109751 1.93955767 0.011444116 0.53980964 1.89065313 -0.20746571 0.39056674 1.86278427 -0.26874751
		 0.23609248 1.8601433 -0.19608288 0.16074809 1.88869381 0.020704616 0.19974506 1.90882802 0.24117756
		 0.39058635 1.93941736 0.26615292 0.52096397 0.89273953 -0.058707334 0.49355382 0.89131141 0.095646694
		 0.3834098 0.89597398 0.14787465 0.26983953 0.90066367 0.10408755 0.24585558 0.90213186 0.0053129219
		 0.28767049 0.90058851 -0.20448676 0.3834098 0.89763623 -0.2573421 0.47547227 0.89136994 -0.21533334
		 0.46392307 0.12793344 0.019802552 0.48165336 0.12518364 0.13862978 0.27152944 0.12597077 0.13997924
		 0.27802262 0.12793343 0.019802572 0.3707515 0.13177256 -0.15574291 0.29884893 0.1300545 -0.10148654
		 0.44261956 0.13521838 -0.089575708 -4.55357e-010 5.24252748 0.45305684 -4.55357e-010 5.41690254 -0.39271104
		 0.24415192 5.3957262 -0.27046221 0.30670995 5.34708452 0.048825704 0.1833947 5.28102303 0.3737936
		 0.47934681 0.64836586 -0.031060083 0.45573306 0.64770043 0.060213499 0.3834098 0.65098989 0.094888374
		 0.30813473 0.65429413 0.056672525 0.28747275 0.65497816 -0.0012331004 0.31909856 0.6542592 -0.12586401
		 0.3834098 0.65176427 -0.16680057 0.44015595 0.64772767 -0.13332373 0.23874326 5.15489054 0.055845171
		 0.078208163 5.012705803 0.33490598 -4.5535692e-010 4.9763422 0.39664763 -4.5535711e-010 5.24554682 -0.29626876
		 0.20821251 5.22763491 -0.21078035 -0.42545545 3.21108341 0.27815178 -0.42545545 3.25619984 0.023082614
		 -0.49591976 3.29874229 0.018861666 -0.49591976 3.25536132 0.28199831 -1.18444526 4.34730911 0.1295839
		 -1.18444526 4.28255796 -0.0027424402 -1.18444526 4.53539562 -0.0027424402 -1.18444526 4.4668355 0.1295839
		 -0.46392307 -3.8605167e-006 0.022015607 -0.48165336 -3.8605167e-006 0.13509299 -0.3834098 -2.0098471e-021 0.16123572
		 -0.3834098 -1.0084549e-021 0.022015629 -0.57856995 2.89408183 0.25729036 -0.58881396 2.96469808 0.032780215
		 -0.2800433 3.065629244 0.35136613 -0.35617763 2.70520449 0.37848169 -0.15964796 2.80587649 0.35046056
		 -0.1029892 2.71889305 0.042838212 -0.10683324 2.55010033 0.024114687 -0.16630454 2.57061958 0.32964599
		 -0.2800433 3.069761753 -0.36348262 -0.38439658 3.21455383 -0.24260491 -0.54775512 2.88042307 -0.2489801
		 -0.35617763 2.70520449 -0.35683838 -0.63604826 2.37503624 0.2505433 -0.65995103 2.4335022 0.015168095
		 -0.38381469 2.31833959 0.33677602 -0.1094877 2.25955296 0.0094849179 -0.15560143 2.26692986 0.29840615
		 -0.60949481 2.3778832 -0.26046899 -0.383762 2.30054116 -0.35838151 -0.5266583 1.47993708 -0.0082678767
		 -0.48738754 1.46794283 0.09874358 -0.5235942 1.15398073 0.10748024 -0.55100441 1.15669405 -0.067165755
		 -0.3834098 1.40809107 0.16128154 -0.3834098 1.15407169 0.17382738 -0.27157786 1.46723616 0.13416195
		 -0.23557979 1.47195756 0.022257909 -0.21581529 1.16797674 -0.0044566407 -0.23979923 1.16527772 0.13027996
		 -0.3834098 1.47843778 -0.12313069 -0.48116657 1.47341084 -0.10718493 -0.50551265 1.1663605 -0.26765406
		 -0.3834098 1.17248571 -0.31435812 -0.47934681 0.64836586 -0.031060083 -0.45573306 0.64770043 0.060213499
		 -0.43651283 0.35952106 0.05215437 -0.46392307 0.35952106 0.0032148403 -0.3834098 0.65176427 -0.16680057
		 -0.44015595 0.64772767 -0.13332373 -0.43169993 0.36331216 -0.070830099 -0.3834098 0.36234513 -0.08624132
		 -0.30813473 0.65429413 0.056672525 -0.28747275 0.65497816 -0.0012331004 -0.30289632 0.36517432 0.0032148613
		 -0.32688028 0.36517432 0.033262383 -0.3834098 0.65098989 0.094888374 -0.3834098 0.36234513 0.078297101
		 -0.51538014 1.69811094 0.11518834 -0.39382499 1.74403596 0.18574305 -0.3834098 1.5585407 0.22802964
		 -0.51624221 1.55388272 0.170039 -0.55465102 1.67274129 0.0081935618 -0.51624221 1.55388272 0.0053477776
		 -0.39382499 1.64946461 -0.16825412 -0.48424765 1.65578258 -0.12425444;
	setAttr ".vt[332:497]" -0.47075051 1.55388272 -0.12325575 -0.3834098 1.5585407 -0.1546914
		 -0.2604886 1.68940067 0.15862344 -0.22841761 1.66010952 0.040723097 -0.24599582 1.56320357 0.037877299
		 -0.25057727 1.56320357 0.20091008 -0.070647106 4.44071484 0.63033026 -0.051149286 4.17006731 0.58965582
		 -0.63541788 4.23639631 0.53807688 -0.63541788 4.51001835 0.57528448 -0.294902 5.87108564 0.0041680634
		 -0.1946625 5.80943537 0.30653495 -0.46720535 4.23720407 -0.44235581 -0.48923883 4.62775755 -0.44235581
		 -0.28305611 3.25045776 -0.31934848 -0.27410474 3.19966245 -0.32160354 -0.23090963 3.080405235 -0.39585173
		 -0.088242501 2.68395591 0.033553004 -0.11013216 2.77843022 0.37748867 -0.31336251 3.1723752 0.42764682
		 -0.22732474 3.062809467 0.40379483 -0.3539426 3.23280311 0.44670403 -0.27152944 3.8605167e-006 0.14532913
		 -0.27802262 3.8605167e-006 0.022015629 -0.31909856 0.6542592 -0.12586401 -0.33359528 0.36517432 -0.064747371
		 -0.28232193 1.48346472 -0.082470849 -0.26348436 1.17780077 -0.25412092 -0.29204068 1.64314592 -0.10755709
		 -0.29273799 1.56320357 -0.093994349 -0.15420423 2.55028605 -0.27248317 -0.16235878 2.25942254 -0.24468449
		 -0.13215287 2.71596003 -0.275269 -0.092247039 2.68385983 -0.28948608 -0.79037309 4.27129745 0.22539705
		 -0.79037309 4.45947218 0.27306402 -0.21085295 4.75909472 0.0077296011 -0.16998591 4.74983406 0.14537346
		 -0.59352183 4.6735301 0.16565385 -0.59352183 4.7267046 0.02580213 -0.79037309 4.27257872 -0.23673965
		 -0.79037309 4.53619862 -0.23673965 -0.41220421 3.26230216 -0.2444886 -0.36851311 3.74221587 0.4610872
		 -0.44769707 3.68350077 0.47224277 -0.57454669 3.59646535 0.20409712 -0.47366124 3.65019107 0.18553413
		 -0.027639765 3.88317251 0.51952302 -0.10330997 3.82338572 0.57916772 -0.24851395 3.68478608 -0.33767906
		 -0.26022431 3.73225307 -0.30744284 -0.48262137 3.59899998 -0.21709204 -0.39848077 3.65378451 -0.17250578
		 -0.55517274 3.55901313 -0.0037054822 -0.44805604 3.6026659 -0.006562179 -0.3584027 3.29082346 0.39487907
		 -0.46592674 3.31314707 0.2507576 -0.12531555 3.29058838 0.41976413 -0.26955277 3.31099796 -0.26225805
		 -0.38221124 3.32008791 -0.21546444 -0.46592674 3.35652828 0.021830207 -0.15954056 4.60523081 0.31096834
		 -0.15458392 4.48726511 0.5103007 -0.63541788 4.53031492 0.34878063 -0.15974282 4.7664566 -0.16762538
		 -0.79037309 4.53619862 0.22539705 -0.79037309 4.68602276 -0.0026823168 -0.56079215 4.68733883 -0.16265747
		 -0.10630042 4.83525896 0.099678986 -0.162894 4.87716055 0.0074782027 -0.12549482 4.91335058 -0.12404957
		 -0.10979836 5.0070848465 0.10345946 -0.090301774 5.00070762634 0.21903856 -0.15103388 5.037608147 0.007136554
		 -0.17703375 5.068607807 0.039665651 -0.12490704 5.069406986 -0.12897392 -0.12739637 5.12920237 -0.1421791
		 -0.078208163 5.012705803 0.33490598 -0.23874326 5.15489054 0.055845171 -0.20821251 5.22763491 -0.21078035
		 -0.24319212 5.5838275 0.37067649 -0.2832275 5.64883804 -0.32302651 -0.22651544 5.87000322 -0.28856647
		 -0.34343162 5.61743307 0.05085884 -0.79037309 4.12258482 -0.0026823168 -0.81026185 4.057146549 -0.0012110748
		 -0.81026185 4.23943281 0.28534138 -0.81026185 4.23987579 -0.29668397 -0.81026185 4.56900024 -0.29668397
		 -0.81026185 4.56899977 0.28534138 -0.81026185 4.75769234 -0.0012110748 -0.37075147 -7.2456696e-018 -0.10597977
		 -0.29884893 -0.0001970109 -0.051723376 -0.44261956 0.00019701064 -0.070830099 -1.18444526 4.34730911 -0.14092645
		 -1.18444526 4.4668355 -0.14092645 -0.95835114 4.24003124 0.28534138 -0.95835114 4.061822414 -0.0012110748
		 -0.96624708 4.18008471 -0.0020767373 -0.96624708 4.29754448 0.20452705 -0.95835114 4.75769234 -0.0012110748
		 -0.95835114 4.56900024 0.28534138 -0.96624708 4.51436663 0.20452705 -0.96624708 4.63873434 -0.0020767373
		 -0.95835114 4.24003124 -0.29668397 -0.96624708 4.29754448 -0.21586962 -0.95835114 4.56900024 -0.29668397
		 -0.96624708 4.51436663 -0.21586962 -1.080750465 4.18008471 -0.0020767373 -1.080750465 4.29754448 0.20452705
		 -1.080750465 4.51436663 0.20452705 -1.080750465 4.63873434 -0.0020767373 -1.080750465 4.29754448 -0.21586962
		 -1.080750465 4.51436663 -0.21586962 -1.10014927 4.28255796 -0.0027424402 -1.10014927 4.34730911 0.1295839
		 -1.10014927 4.4668355 0.1295839 -1.10014927 4.53539562 -0.0027424402 -1.10014927 4.34730911 -0.14092645
		 -1.10014927 4.4668355 -0.14092645 -0.5898841 1.94622695 0.18661503 -0.62109751 1.93955767 0.011444116
		 -0.39058635 1.93941736 0.26615292 -0.19974506 1.90882802 0.24117756 -0.16074809 1.88869381 0.020704616
		 -0.23609248 1.8601433 -0.19608288 -0.39056674 1.86278427 -0.26874751 -0.53980964 1.89065313 -0.20746571
		 -0.48165336 0.12518364 0.13862978 -0.46392307 0.12793344 0.019802552 -0.4808889 0.10218158 0.38154098
		 -0.35082 0.10501054 0.50959659 -0.35082 2.4225759e-018 0.51343745 -0.4808889 -3.8605167e-006 0.38538185
		 -0.25744885 0.10783484 0.45032075 -0.25744885 3.8605167e-006 0.45416161 -0.27802262 0.12793343 0.019802572
		 -0.27152944 0.12597077 0.13997924 -0.29884893 0.1300545 -0.10148654 -0.3707515 0.13177256 -0.15574291
		 -0.44261956 0.13521838 -0.089575708 -0.35801587 0.16483334 0.3033314 -0.48524573 0.11675254 0.2731829
		 -0.48524573 -3.8605167e-006 0.27233487 -0.35801587 -2.1061517e-021 0.2608434 -0.26748368 0.1517932 0.29872265
		 -0.26748368 3.8605167e-006 0.33466274 -0.49355382 0.89131141 0.095646694 -0.52096397 0.89273953 -0.058707334
		 -0.3834098 0.89597398 0.14787465 -0.26983953 0.90066367 0.10408755 -0.24585558 0.90213186 0.0053129219
		 -0.28767049 0.90058851 -0.20448676 -0.3834098 0.89763623 -0.2573421 -0.47547227 0.89136994 -0.21533334
		 -0.24415192 5.3957262 -0.27046221 -0.30670995 5.34708452 0.048825704 -0.1833947 5.28102303 0.3737936
		 0.151436 5.92368221 0.28366172 0.20155574 5.97214842 0.0051539643 0.16736247 5.96325445 -0.23783275
		 -0.151436 5.92368221 0.28366172 -0.20155574 5.97214842 0.0051539643 -0.16736247 5.96325445 -0.23783275
		 0.5309906 3.066601515 0.12576246 0.62793809 3.078589439 0.13808721;
	setAttr ".vt[498:513]" 0.82702011 2.63198733 -0.21543594 0.75558823 2.36224151 0.37946451
		 0.73007238 2.61999989 -0.22776057 0.65864038 2.35025358 0.36713973 -0.62780058 3.98350835 0.43961808
		 -0.63859606 3.98111272 0.55167025 -0.51107925 4.45429373 0.71195495 0.10560631 4.13694286 0.72228467
		 -0.50028384 4.45668936 0.59990281 0.11640155 4.13933706 0.61023253 0.16375598 4.62909746 -0.38330877
		 0.14252181 4.63744831 -0.53459454 -0.60021222 4.55172968 -0.50062215 -0.30957314 3.65574169 -0.53303111
		 -0.57897794 4.54337883 -0.34933648 -0.28833875 3.64739084 -0.38174543;
	setAttr -s 1023 ".ed";
	setAttr ".ed[0:165]"  0 66 1 1 125 0 2 211 0 3 122 0 1 152 0 4 101 0 3 46 0
		 0 49 0 6 111 0 3 8 1 0 9 1 8 121 1 7 10 1 9 36 1 6 11 1 11 112 1 8 45 1 8 26 1 9 25 1
		 12 119 1 10 24 1 13 38 1 11 27 1 15 114 1 12 43 1 12 175 1 13 169 1 16 117 0 14 171 1
		 17 40 0 15 173 1 19 116 0 16 41 0 20 233 1 21 239 1 20 118 1 22 237 1 21 42 1 23 235 1
		 22 115 1 23 39 1 24 230 1 25 224 1 24 37 1 26 226 1 25 120 1 27 228 1 26 44 1 27 113 1
		 28 205 1 29 203 0 28 151 0 30 52 1 31 53 1 30 31 0 32 54 1 31 209 0 33 56 1 32 47 1
		 34 57 1 33 109 1 35 59 1 34 48 1 35 68 1 36 10 1 37 25 1 36 37 0 38 14 1 37 231 0
		 39 20 1 38 170 0 40 18 0 39 234 0 41 19 0 42 22 1 41 258 0 43 15 1 42 174 0 44 27 1
		 43 166 0 45 11 1 44 45 0 46 6 0 45 46 0 47 33 1 46 55 1 48 35 1 49 7 0 48 58 1 49 36 0
		 50 1 1 51 4 0 50 153 1 52 5 1 53 2 1 52 53 1 54 3 1 53 210 1 55 47 1 54 55 0 56 6 1
		 55 56 0 57 7 1 56 110 0 58 49 1 57 58 0 59 0 1 58 59 0 59 67 1 60 219 0 61 218 1
		 60 61 0 62 216 1 61 206 0 63 69 1 64 70 1 63 64 0 65 71 1 64 65 0 65 124 0 66 60 1
		 67 61 1 66 67 1 68 62 1 67 68 1 69 32 1 70 54 1 69 70 1 71 3 1 70 71 1 71 123 1 29 207 1
		 30 73 1 51 202 1 72 74 1 52 75 1 74 103 1 73 75 1 4 76 1 74 76 1 5 77 1 76 102 1
		 75 77 1 72 199 1 73 200 1 74 198 1 78 80 1 75 201 1 80 104 1 79 81 1 78 82 1 79 83 1
		 80 84 1 82 84 1 81 85 1 84 105 1 83 85 1 82 262 0 83 263 0 86 94 0 84 261 1 86 88 1
		 85 264 1 88 107 1 87 89 1 90 88 1;
	setAttr ".ed[166:331]" 91 86 0 90 91 1 92 87 0 93 89 1 92 93 1 93 106 1 94 108 0
		 94 490 1 95 87 0 89 492 1 1 159 1 2 157 1 96 126 0 5 156 1 4 154 1 99 100 0 100 98 0
		 101 5 0 100 155 1 102 77 1 101 102 1 103 75 1 102 103 1 104 81 1 103 197 1 105 85 1
		 104 105 1 106 90 1 105 260 1 107 89 1 106 107 1 108 95 0 107 491 1 109 34 1 110 57 0
		 109 110 1 111 7 0 110 111 1 112 10 1 111 112 1 113 24 1 112 113 1 114 14 1 113 229 1
		 115 23 1 114 172 1 116 18 0 115 236 1 117 17 0 118 21 1 117 252 1 119 13 1 118 168 1
		 120 26 1 119 160 1 121 9 1 120 121 1 122 0 0 121 122 1 123 66 1 122 123 1 124 60 0
		 123 124 1 125 2 0 124 220 1 126 97 0 125 158 1 76 51 1 77 52 1 96 127 1 126 128 1
		 127 128 0 100 129 1 99 130 1 130 129 0 97 131 1 128 131 0 98 132 1 129 132 0 127 133 1
		 128 134 1 133 134 0 129 135 1 130 136 1 136 135 0 131 137 1 134 137 0 132 138 1 135 138 0
		 133 139 1 134 140 1 139 140 0 135 141 1 136 142 1 142 141 0 137 143 1 140 143 0 138 144 1
		 141 144 0 139 145 1 140 146 1 145 146 0 141 147 1 142 148 1 148 147 0 143 149 1 146 149 0
		 144 150 1 147 150 0 151 29 0 2 5 0 97 98 0 131 132 0 137 138 0 143 144 0 149 150 0
		 146 147 1 145 148 0 139 142 0 133 136 0 127 130 0 96 99 0 152 4 0 153 51 1 152 153 0
		 153 204 0 154 99 1 155 101 1 154 155 1 156 98 1 155 156 1 157 97 1 156 157 1 158 126 1
		 157 158 1 159 96 1 158 159 1 159 154 1 154 152 1 160 225 1 161 13 1 160 161 1 162 38 0
		 161 162 1 163 14 1 162 163 1 164 114 1 163 164 1 165 15 1 164 165 1 166 227 0 165 166 1
		 167 12 1 166 167 1 167 160 1 168 119 1 169 20 1 168 169 0 170 39 0 169 170 0 171 23 1
		 170 171 0 172 115 1 171 172 0 173 22 1 172 173 0;
	setAttr ".ed[332:497]" 174 43 0 173 174 0 175 21 1 174 175 0 175 168 0 117 240 1
		 17 241 1 176 177 0 177 178 1 178 179 1 179 176 1 18 242 1 178 180 1 116 243 1 181 180 0
		 181 179 1 41 244 1 179 182 1 19 245 1 183 181 0 182 183 0 16 246 1 184 176 0 184 182 0
		 17 191 0 40 196 1 185 186 0 178 193 1 186 187 1 177 192 0 188 187 0 185 188 1 18 195 0
		 186 189 0 180 194 0 189 190 1 187 190 0 191 185 1 192 188 0 191 192 1 193 187 1 192 193 1
		 194 190 0 193 194 1 195 189 0 194 195 1 196 186 1 195 196 1 196 191 1 197 104 1 198 80 1
		 197 198 1 199 78 1 198 199 1 200 79 1 201 81 1 200 201 1 201 197 1 202 74 1 203 51 0
		 204 151 0 205 50 1 206 62 0 202 203 1 203 204 0 204 205 0 205 215 0 206 68 1 207 72 1
		 202 207 1 208 28 0 209 223 1 210 222 1 209 210 0 211 221 1 210 211 0 212 125 1 211 212 0
		 213 1 0 212 213 0 214 50 1 213 214 0 215 217 1 214 215 0 215 208 0 216 208 1 217 206 1
		 216 217 0 218 214 1 217 218 0 219 213 1 218 219 0 220 212 1 219 220 0 221 65 0 220 221 0
		 222 64 1 221 222 0 223 63 1 222 223 0 224 161 1 225 120 1 224 225 1 226 167 1 225 226 1
		 227 44 0 226 227 1 228 165 1 227 228 1 229 164 1 228 229 1 230 163 1 229 230 1 231 162 0
		 230 231 1 231 224 1 232 118 1 233 253 1 232 233 1 234 254 0 233 234 1 235 255 1 234 235 1
		 236 256 1 235 236 1 237 257 1 236 237 1 238 42 0 237 238 1 239 259 1 238 239 1 239 232 1
		 240 176 1 241 177 1 242 180 1 243 181 1 244 182 1 245 183 1 246 184 1 241 240 1 243 242 1
		 245 243 1 244 245 1 240 246 1 246 244 1 241 191 1 242 195 1 247 91 0 248 92 0 249 93 1
		 248 249 1 250 106 1 249 250 1 251 90 1 250 251 1 251 247 1 252 232 1 253 17 1 252 253 1
		 254 40 0 253 254 1 255 18 1 254 255 1 256 116 1 255 256 1 257 19 1;
	setAttr ".ed[498:663]" 256 257 1 258 238 0 257 258 1 259 16 1 258 259 1 259 252 1
		 260 250 1 261 251 1 260 261 1 262 247 0 261 262 1 263 248 0 264 249 1 263 264 1 264 260 1
		 266 265 0 266 267 1 267 268 1 265 268 1 269 270 0 270 271 1 272 271 0 269 272 0 273 274 0
		 274 275 1 275 276 1 276 273 1 265 277 1 278 277 1 278 266 1 265 279 0 279 280 0 277 280 1
		 282 281 0 282 283 1 283 284 1 281 284 1 286 285 0 286 287 1 287 288 1 288 285 0 277 289 1
		 289 290 1 290 278 1 280 291 0 291 289 1 283 292 1 292 293 1 284 293 1 287 294 1 294 295 1
		 295 288 0 296 297 0 297 298 1 298 299 1 299 296 1 297 300 0 300 301 0 301 298 1 302 303 0
		 303 304 1 304 305 1 302 305 1 306 307 0 307 308 1 308 309 1 309 306 0 310 311 1 311 312 1
		 313 312 0 313 310 1 314 315 1 315 316 1 316 317 0 317 314 0 318 319 1 319 320 1 320 321 0
		 318 321 1 311 322 1 322 323 0 312 323 0 324 325 1 325 326 0 327 326 1 324 327 1 328 324 1
		 329 327 1 329 328 1 330 331 1 331 332 1 332 333 1 333 330 0 334 335 1 335 336 1 336 337 1
		 334 337 1 338 339 0 340 341 0 341 338 0 342 494 1 94 493 1 343 342 1 31 344 1 30 345 1
		 345 344 1 69 346 1 346 347 1 32 347 1 347 348 0 348 47 1 109 349 1 349 350 0 34 350 1
		 35 351 1 48 352 1 352 351 0 351 353 1 353 68 1 280 284 1 293 291 1 325 334 1 326 337 1
		 300 302 0 305 301 1 322 318 1 323 321 0 275 354 1 355 354 0 355 276 1 356 314 1 317 357 0
		 356 357 1 358 306 0 309 359 1 358 359 1 360 330 1 333 361 1 360 361 1 288 362 1 295 363 1
		 362 363 1 285 364 0 364 362 1 348 365 0 33 365 1 350 352 0 279 281 0 340 366 1 366 367 0
		 367 341 0 369 368 1 369 370 1 370 371 1 371 368 1 344 372 1 345 373 1 372 373 0 346 374 1
		 374 286 1 347 286 1 285 348 1 365 364 1 349 282 1 350 281 1 352 279 1;
	setAttr ".ed[664:829]" 351 265 1 268 353 1 376 375 1 376 377 0 377 378 1 378 375 0
		 379 380 1 380 376 0 375 379 0 381 223 0 209 382 0 382 381 1 383 381 0 382 384 0 384 383 1
		 377 385 0 385 386 1 386 378 0 353 387 1 268 388 1 388 387 0 389 68 1 387 389 0 63 390 0
		 390 346 1 390 391 0 391 374 1 267 392 1 392 388 0 393 394 1 394 395 0 395 393 1 73 396 1
		 345 396 1 395 397 0 397 370 1 370 395 1 397 398 0 398 371 1 399 345 1 396 399 1 72 369 1
		 369 400 1 400 199 1 368 401 1 401 400 1 200 402 1 396 402 1 78 403 1 403 404 1 82 404 1
		 403 405 1 405 406 1 404 406 1 79 407 1 83 408 1 407 408 1 404 409 1 409 262 1 406 410 1
		 410 409 1 263 411 1 408 411 1 412 91 1 412 343 1 86 343 1 92 413 1 87 414 1 413 414 1
		 415 412 1 415 342 1 414 495 1 366 416 0 416 417 1 417 418 1 366 418 1 372 419 1 373 420 1
		 420 419 1 397 421 1 421 422 1 422 398 1 418 421 1 421 367 1 398 373 0 422 420 1 373 399 1
		 371 399 1 368 396 1 402 401 1 405 407 1 406 408 1 411 410 1 413 415 1 342 414 1 365 349 0
		 364 282 0 362 283 1 363 292 1 335 360 1 361 336 1 303 358 0 359 304 1 319 356 1 357 320 0
		 276 423 1 424 355 0 423 424 0 425 273 0 425 423 0 315 310 1 316 313 0 307 296 0 299 308 1
		 331 328 1 332 329 1 287 278 1 290 294 1 286 266 0 374 267 1 391 392 0 385 383 0 384 386 0
		 416 372 0 419 417 1 270 426 0 426 427 0 271 427 0 393 369 1 428 429 0 429 430 1 431 430 0
		 428 431 1 433 432 0 433 434 1 434 435 0 432 435 1 431 434 0 428 433 0 429 436 0 436 437 1
		 430 437 0 436 438 0 438 439 1 437 439 0 432 438 0 435 439 0 430 440 1 441 440 0 431 441 1
		 434 442 1 442 443 0 435 443 1 441 442 0 437 444 1 440 444 0 439 445 1 444 445 0 443 445 0
		 440 446 1 447 446 0 441 447 1 442 448 1 448 449 0 443 449 1 447 448 0;
	setAttr ".ed[830:995]" 444 450 1 446 450 0 445 451 1 450 451 0 449 451 0 446 270 1
		 447 269 1 448 272 1 449 271 1 450 426 1 451 427 1 367 397 0 341 395 1 394 338 0 421 433 1
		 432 422 1 420 438 1 419 436 1 417 429 1 418 428 1 289 452 1 452 453 1 453 290 1 291 454 0
		 454 452 1 455 454 1 293 455 1 292 456 1 456 455 1 457 456 1 363 457 1 458 295 0 458 457 1
		 294 459 1 459 458 1 453 459 1 327 297 1 296 329 1 326 300 0 337 302 1 336 303 1 361 358 1
		 306 333 0 332 307 1 312 460 1 460 461 1 313 461 1 462 463 0 463 464 1 465 464 0 462 465 1
		 463 466 0 466 467 1 464 467 0 320 468 1 468 469 1 321 469 1 357 470 1 470 468 1 317 471 1
		 471 470 1 461 472 1 316 472 1 472 471 1 323 473 1 473 474 1 312 474 0 274 475 0 475 476 1
		 275 476 1 460 274 1 460 474 1 474 475 1 321 477 0 477 473 1 469 477 1 476 478 1 354 478 0
		 474 462 1 475 465 0 476 464 1 478 467 0 478 477 1 477 466 0 473 463 1 401 405 1 400 403 1
		 402 407 1 29 394 0 393 207 1 338 151 0 28 339 1 379 208 0 216 380 0 389 62 0 344 382 1
		 372 384 0 386 416 1 378 366 0 375 340 0 339 379 0 380 389 1 387 376 1 388 377 0 392 385 1
		 383 391 0 381 390 1 452 324 1 328 453 1 459 331 1 330 458 0 457 360 1 456 335 1 455 334 1
		 454 325 0 298 479 1 480 479 1 480 299 1 301 481 0 479 481 1 481 482 1 305 482 1 304 483 1
		 482 483 1 483 484 1 359 484 1 485 309 0 484 485 1 308 486 1 485 486 1 486 480 1 461 273 1
		 468 355 1 469 354 1 470 424 1 471 423 1 472 425 1 248 487 1 487 413 1 488 415 1 487 488 1
		 488 489 1 489 412 1 489 247 1 479 311 1 310 480 1 481 322 0 482 318 1 483 319 1 484 356 1
		 314 485 0 486 315 1 410 488 1 409 489 1 411 487 1 490 88 1 491 108 1 492 95 1 490 491 1
		 491 492 1 493 343 1 494 108 1 495 95 1 493 494 1 494 495 1 339 340 1;
	setAttr ".ed[996:1022]" 498 499 0 500 501 0 496 497 0 497 498 0 497 499 0 498 500 0
		 499 501 0 500 496 0 501 496 0 504 505 0 506 507 0 502 503 0 503 504 0 503 505 0 504 506 0
		 505 507 0 506 502 0 507 502 0 510 511 0 512 513 0 508 509 0 509 510 0 509 511 0 510 512 0
		 511 513 0 512 508 0 513 508 0;
	setAttr -s 517 -ch 2046 ".fc";
	setAttr ".fc[0:499]" -type "polyFaces" 
		f 4 -224 226 225 -1
		mu 0 4 56 6 11 12
		f 4 267 282 -271 -284
		mu 0 4 13 14 15 16
		f 4 339 340 341 342
		mu 0 4 31 32 35 36
		f 4 223 10 -222 224
		mu 0 4 722 5 17 18
		f 4 7 89 -14 -11
		mu 0 4 5 33 34 17
		f 4 -203 205 204 -13
		mu 0 4 19 20 21 22
		f 4 -7 9 16 83
		mu 0 4 37 38 39 40
		f 4 221 18 45 222
		mu 0 4 18 17 23 24
		f 4 13 66 65 -19
		mu 0 4 17 34 41 23
		f 4 -205 207 206 -21
		mu 0 4 22 21 25 26
		f 4 -17 17 47 81
		mu 0 4 40 39 42 43
		f 4 323 322 35 218
		mu 0 4 27 28 29 30
		f 4 325 324 69 -323
		mu 0 4 28 44 45 29
		f 4 329 328 210 -327
		mu 0 4 61 68 76 80
		f 4 335 334 37 77
		mu 0 4 47 49 52 58
		f 4 490 489 -215 216
		mu 0 4 84 77 90 742
		f 4 502 501 32 75
		mu 0 4 59 64 65 744
		f 4 496 495 212 -494
		mu 0 4 94 95 96 268
		f 4 492 491 -30 -490
		mu 0 4 77 81 82 90
		f 4 309 308 -22 -307
		mu 0 4 85 86 87 88
		f 4 307 306 -218 220
		mu 0 4 101 85 88 103
		f 4 319 318 24 79
		mu 0 4 91 92 150 151
		f 4 313 312 208 -311
		mu 0 4 104 108 109 110
		f 4 397 393 92 291
		mu 0 4 152 153 111 115
		f 4 988 986 -173 173
		mu 0 4 50 51 754 71
		f 4 -54 -55 52 95
		mu 0 4 166 170 180 188
		f 4 -126 127 126 -56
		mu 0 4 191 192 2 1
		f 4 -59 55 99 98
		mu 0 4 196 191 1 8
		f 4 -200 201 200 -60
		mu 0 4 72 73 54 48
		f 4 -62 -87 88 107
		mu 0 4 57 220 223 10
		f 4 -64 61 108 124
		mu 0 4 232 220 57 0
		f 4 64 20 43 -67
		mu 0 4 34 22 26 41
		f 4 -309 311 310 -68
		mu 0 4 87 86 104 110
		f 4 -325 327 326 40
		mu 0 4 45 44 61 80
		f 4 -492 494 493 -72
		mu 0 4 82 81 94 268
		f 4 -342 344 -347 347
		mu 0 4 36 35 89 98
		f 4 500 -76 73 -498
		mu 0 4 272 59 744 746
		f 4 333 -78 74 -331
		mu 0 4 278 47 58 283
		f 4 317 -80 76 -315
		mu 0 4 286 91 151 290
		f 4 -81 -82 78 -23
		mu 0 4 293 40 43 298
		f 4 -83 -84 80 -15
		mu 0 4 299 37 40 293
		f 4 -85 -99 101 -58
		mu 0 4 208 196 8 46
		f 4 -89 -63 59 105
		mu 0 4 10 223 72 48
		f 4 -90 87 12 -65
		mu 0 4 34 33 19 22
		f 4 90 4 290 -93
		mu 0 4 111 112 114 115
		f 4 -137 139 141 188
		mu 0 4 99 102 105 113
		f 4 -95 -96 93 -277
		mu 0 4 262 166 188 317
		f 4 -127 129 128 -97
		mu 0 4 1 2 3 7
		f 4 -100 96 6 85
		mu 0 4 8 1 7 9
		f 4 -102 -86 82 -101
		mu 0 4 46 8 9 53
		f 4 -201 203 202 -103
		mu 0 4 48 54 60 55
		f 4 -105 -106 102 -88
		mu 0 4 4 10 48 55
		f 4 -107 -108 104 -8
		mu 0 4 56 57 10 4
		f 4 -109 106 0 122
		mu 0 4 0 57 56 12
		f 4 -421 423 422 413
		mu 0 4 155 157 116 172
		f 4 414 421 420 415
		mu 0 4 173 174 157 155
		f 4 431 -404 405 404
		mu 0 4 175 176 177 178
		f 4 429 -405 407 406
		mu 0 4 167 175 178 181
		f 4 425 424 411 -423
		mu 0 4 116 735 184 172
		f 4 -122 -123 120 111
		mu 0 4 62 0 12 63
		f 4 399 -125 121 113
		mu 0 4 729 232 0 62
		f 4 -128 -115 116 115
		mu 0 4 2 192 323 66
		f 4 -130 -116 118 117
		mu 0 4 3 2 66 67
		f 4 -226 228 227 -121
		mu 0 4 12 11 730 63
		f 3 395 391 133
		mu 0 3 185 715 194
		f 4 -53 132 137 -136
		mu 0 4 195 197 198 199
		f 3 91 138 233
		mu 0 3 194 717 105
		f 4 5 186 -142 -139
		mu 0 4 717 203 113 105
		f 3 234 135 142
		mu 0 3 204 195 199
		f 4 134 145 385 -144
		mu 0 4 374 121 125 384
		f 4 136 190 383 -146
		mu 0 4 121 123 124 125
		f 4 -138 144 388 -148
		mu 0 4 135 393 761 134
		f 4 146 152 -154 -151
		mu 0 4 760 75 78 759
		f 4 148 192 -156 -153
		mu 0 4 75 758 127 78
		f 4 -150 151 156 -155
		mu 0 4 400 757 748 137
		f 4 153 160 508 -158
		mu 0 4 759 78 129 244
		f 4 155 194 506 -161
		mu 0 4 78 127 128 129
		f 4 -157 158 511 -163
		mu 0 4 137 748 749 138
		f 4 -168 165 -162 -167
		mu 0 4 453 130 133 454
		f 4 -171 168 164 -170
		mu 0 4 139 751 753 140
		f 4 -194 196 -164 -166
		mu 0 4 130 131 132 133
		f 4 -986 -174 -160 161
		mu 0 4 133 50 71 454
		f 4 -175 -988 -176 -165
		mu 0 4 753 752 206 140
		f 4 1 232 302 -177
		mu 0 4 97 106 107 122
		f 4 -178 276 179 298
		mu 0 4 156 158 159 160
		f 4 -6 180 294 293
		mu 0 4 161 162 163 261
		f 4 303 304 -5 176
		mu 0 4 122 163 264 97
		f 4 -184 -294 296 -180
		mu 0 4 159 161 261 160
		f 4 -187 183 140 -186
		mu 0 4 113 203 205 204
		f 4 -188 -189 185 -143
		mu 0 4 199 99 113 204
		f 4 389 -191 187 147
		mu 0 4 134 124 123 135
		f 4 -193 189 154 -192
		mu 0 4 127 758 400 137
		f 4 512 -195 191 162
		mu 0 4 138 128 127 137
		f 4 -197 -172 169 -196
		mu 0 4 132 131 139 140
		f 4 989 987 -198 -987
		mu 0 4 51 206 207 754
		f 4 -202 -61 57 103
		mu 0 4 54 73 208 46
		f 4 -204 -104 100 8
		mu 0 4 60 54 46 53
		f 4 -206 -9 14 15
		mu 0 4 21 20 141 142
		f 4 -208 -16 22 48
		mu 0 4 25 21 142 143
		f 4 -313 315 314 23
		mu 0 4 109 108 144 145
		f 4 -329 331 330 39
		mu 0 4 76 68 146 147
		f 4 -496 498 497 31
		mu 0 4 96 95 148 149
		f 4 -350 -348 -352 -353
		mu 0 4 210 36 98 212
		f 4 354 -343 349 -356
		mu 0 4 213 31 36 210
		f 4 503 -217 -28 -502
		mu 0 4 64 84 742 65
		f 4 336 -219 215 -335
		mu 0 4 49 27 30 52
		f 4 320 -221 -20 -319
		mu 0 4 92 101 103 150
		f 4 11 -223 219 -18
		mu 0 4 39 18 24 42
		f 4 3 -225 -12 -10
		mu 0 4 38 722 18 39
		f 4 -227 -4 -129 130
		mu 0 4 11 6 723 164
		f 4 -229 -131 -118 119
		mu 0 4 730 11 164 165
		f 4 -425 427 -407 409
		mu 0 4 719 117 167 181
		f 4 -233 229 177 300
		mu 0 4 107 106 158 156
		f 4 272 281 -275 -283
		mu 0 4 14 169 171 15
		f 4 -234 -140 -391 -134
		mu 0 4 194 105 102 185
		f 3 -94 -235 -141
		mu 0 3 205 195 204
		f 4 178 236 -238 -236
		mu 0 4 179 182 183 187
		f 4 -182 239 240 -239
		mu 0 4 189 190 193 201
		f 4 235 286 -240 -288
		mu 0 4 179 187 193 190
		f 4 231 241 -243 -237
		mu 0 4 182 202 209 183
		f 4 -242 277 243 -279
		mu 0 4 209 202 211 214
		f 4 -183 238 244 -244
		mu 0 4 211 189 201 214
		f 4 237 246 -248 -246
		mu 0 4 491 705 706 501
		f 4 -241 249 250 -249
		mu 0 4 502 503 504 505
		f 4 245 285 -250 -287
		mu 0 4 491 501 504 503
		f 4 242 251 -253 -247
		mu 0 4 493 506 507 494
		f 4 -252 278 253 -280
		mu 0 4 507 506 508 509
		f 4 -245 248 254 -254
		mu 0 4 508 502 505 509
		f 4 247 256 -258 -256
		mu 0 4 215 216 217 218
		f 4 -251 259 260 -259
		mu 0 4 219 221 222 224
		f 4 255 284 -260 -286
		mu 0 4 215 218 222 221
		f 4 252 261 -263 -257
		mu 0 4 216 225 226 217
		f 4 -262 279 263 -281
		mu 0 4 226 225 227 228
		f 4 -255 258 264 -264
		mu 0 4 227 219 224 228
		f 4 257 266 -268 -266
		mu 0 4 510 703 704 513
		f 4 -261 269 270 -269
		mu 0 4 514 515 516 517
		f 4 265 283 -270 -285
		mu 0 4 510 513 516 515
		f 4 262 271 -273 -267
		mu 0 4 511 518 519 512
		f 4 -272 280 273 -282
		mu 0 4 519 518 520 521
		f 4 -265 268 274 -274
		mu 0 4 520 514 517 521
		f 4 -291 288 -92 -290
		mu 0 4 115 114 200 716
		f 4 396 -292 289 -392
		mu 0 4 186 152 115 716
		f 4 -295 292 181 184
		mu 0 4 522 523 524 525
		f 4 -297 -185 182 -296
		mu 0 4 526 522 525 527
		f 4 -298 -299 295 -278
		mu 0 4 528 529 526 527
		f 4 -300 -301 297 -232
		mu 0 4 702 701 529 528
		f 4 -303 299 -179 -302
		mu 0 4 532 531 530 533
		f 4 -293 -304 301 287
		mu 0 4 524 523 532 533
		f 3 -181 -289 -305
		mu 0 3 163 162 264
		f 4 -46 42 434 433
		mu 0 4 24 23 229 230
		f 4 -66 68 447 -43
		mu 0 4 23 41 534 229
		f 4 446 -69 -44 41
		mu 0 4 233 534 41 26
		f 4 -207 209 444 -42
		mu 0 4 26 25 231 233
		f 4 442 -210 -49 46
		mu 0 4 234 231 25 143
		f 4 -79 -438 440 -47
		mu 0 4 298 43 535 536
		f 4 -48 44 438 437
		mu 0 4 43 42 235 535
		f 4 -220 -434 436 -45
		mu 0 4 42 24 230 235
		f 4 217 26 -324 321
		mu 0 4 103 88 28 27
		f 4 21 70 -326 -27
		mu 0 4 88 87 44 28
		f 4 -328 -71 67 28
		mu 0 4 61 44 87 110
		f 4 -209 211 -330 -29
		mu 0 4 110 109 68 61
		f 4 -332 -212 -24 30
		mu 0 4 146 68 109 145
		f 4 -77 -333 -334 -31
		mu 0 4 290 151 47 278
		f 4 -25 25 -336 332
		mu 0 4 151 150 49 47
		f 4 19 -322 -337 -26
		mu 0 4 150 103 27 49
		f 4 214 338 471 -338
		mu 0 4 93 83 236 237
		f 4 358 360 -363 -364
		mu 0 4 238 239 240 241
		f 4 365 367 -369 -361
		mu 0 4 239 257 255 240
		f 4 -213 345 472 -344
		mu 0 4 100 743 242 243
		f 4 -32 350 473 -346
		mu 0 4 743 745 245 242
		f 4 -74 348 474 -351
		mu 0 4 277 69 538 539
		f 4 27 337 475 -354
		mu 0 4 154 93 237 247
		f 4 -33 353 476 -349
		mu 0 4 69 154 247 538
		f 4 29 357 380 -357
		mu 0 4 83 747 540 250
		f 4 -341 361 373 -360
		mu 0 4 35 32 254 310
		f 4 -466 477 371 -362
		mu 0 4 248 236 250 251
		f 4 71 364 379 -358
		mu 0 4 747 100 252 540
		f 3 343 478 -365
		mu 0 3 100 243 252
		f 4 -345 359 375 -367
		mu 0 4 89 35 310 312
		f 4 -372 369 363 -371
		mu 0 4 251 250 238 241
		f 4 -374 370 362 -373
		mu 0 4 310 254 314 315
		f 4 -376 372 368 -375
		mu 0 4 312 310 315 318
		f 4 -378 374 -368 -377
		mu 0 4 252 253 255 257
		f 4 -380 376 -366 -379
		mu 0 4 540 252 257 239
		f 4 -381 378 -359 -370
		mu 0 4 250 540 239 238
		f 4 -384 381 -149 -383
		mu 0 4 125 124 126 541
		f 4 -386 382 -147 -385
		mu 0 4 384 125 541 542
		f 4 -389 386 149 -388
		mu 0 4 134 761 762 136
		f 4 -382 -390 387 -190
		mu 0 4 126 124 134 136
		f 4 50 -396 401 -132
		mu 0 4 319 715 185 325
		f 4 -393 -397 -51 -276
		mu 0 4 544 152 186 710
		f 4 49 -398 392 -52
		mu 0 4 709 153 152 544
		f 4 416 -418 419 -415
		mu 0 4 173 331 333 174
		f 3 -124 -400 394
		mu 0 3 725 232 729
		f 4 -402 390 -135 -401
		mu 0 4 325 185 102 334
		f 4 -406 -57 53 97
		mu 0 4 546 547 170 166
		f 4 -408 -98 94 2
		mu 0 4 168 546 166 262
		f 4 -409 -410 -3 -230
		mu 0 4 258 118 168 262
		f 4 -412 408 -2 -411
		mu 0 4 119 118 258 112
		f 4 -413 -414 410 -91
		mu 0 4 111 263 119 112
		f 4 398 -416 412 -394
		mu 0 4 153 549 263 111
		f 4 -403 -417 -399 -50
		mu 0 4 709 708 549 153
		f 4 -420 -113 -395 -419
		mu 0 4 174 333 545 320
		f 4 -422 418 -114 110
		mu 0 4 157 174 320 266
		f 4 -424 -111 -112 109
		mu 0 4 116 157 266 731
		f 4 -228 230 -426 -110
		mu 0 4 731 734 735 116
		f 4 -428 -231 -120 -427
		mu 0 4 167 117 120 551
		f 4 -119 -429 -430 426
		mu 0 4 551 330 175 167
		f 4 -117 -431 -432 428
		mu 0 4 330 728 176 175
		f 4 -435 432 -308 305
		mu 0 4 230 229 85 101
		f 4 -437 -306 -321 -436
		mu 0 4 235 230 101 92
		f 4 -439 435 -320 316
		mu 0 4 535 235 92 91
		f 4 -441 -317 -318 -440
		mu 0 4 536 535 91 286
		f 4 -316 -442 -443 439
		mu 0 4 144 108 231 234
		f 4 -445 441 -314 -444
		mu 0 4 233 231 108 104
		f 4 -312 -446 -447 443
		mu 0 4 104 86 534 233
		f 4 -448 445 -310 -433
		mu 0 4 229 534 86 85
		f 4 -36 33 -451 448
		mu 0 4 30 29 267 269
		f 4 -70 72 -453 -34
		mu 0 4 29 45 552 267
		f 4 -455 -73 -41 38
		mu 0 4 271 552 45 80
		f 4 -211 213 -457 -39
		mu 0 4 80 76 270 271
		f 4 -459 -214 -40 36
		mu 0 4 273 270 76 147
		f 4 -75 -460 -461 -37
		mu 0 4 283 58 553 554
		f 4 -38 34 -463 459
		mu 0 4 58 52 274 553
		f 4 -216 -449 -464 -35
		mu 0 4 52 30 269 274
		f 4 -472 465 -340 -465
		mu 0 4 237 236 248 275
		f 4 -473 467 346 -467
		mu 0 4 243 242 276 279
		f 4 -474 469 351 -468
		mu 0 4 242 245 280 276
		f 4 -475 468 352 -470
		mu 0 4 539 538 555 556
		f 4 -476 464 -355 -471
		mu 0 4 247 237 275 281
		f 4 -477 470 355 -469
		mu 0 4 538 247 281 555
		f 3 -478 -339 356
		mu 0 3 250 236 83
		f 4 -479 466 366 377
		mu 0 4 252 243 279 253
		f 4 -483 480 170 -482
		mu 0 4 284 750 751 139
		f 4 -484 -485 481 171
		mu 0 4 131 282 284 139
		f 4 -487 483 193 -486
		mu 0 4 285 282 131 130
		f 4 -488 485 167 -480
		mu 0 4 559 285 130 453
		f 4 450 449 -491 488
		mu 0 4 269 267 77 84
		f 4 452 451 -493 -450
		mu 0 4 267 552 81 77
		f 4 -495 -452 454 453
		mu 0 4 94 81 552 271
		f 4 456 455 -497 -454
		mu 0 4 271 270 95 94
		f 4 -499 -456 458 457
		mu 0 4 148 95 270 273
		f 4 460 -500 -501 -458
		mu 0 4 554 553 59 272
		f 4 462 461 -503 499
		mu 0 4 553 274 64 59
		f 4 463 -489 -504 -462
		mu 0 4 274 269 84 64
		f 4 -507 504 486 -506
		mu 0 4 129 128 282 285
		f 4 -509 505 487 -508
		mu 0 4 244 129 285 559
		f 4 -512 509 482 -511
		mu 0 4 138 749 750 284
		f 4 -505 -513 510 484
		mu 0 4 282 128 138 284
		f 4 516 -516 -515 513
		mu 0 4 329 249 288 289
		f 4 520 519 -519 -518
		mu 0 4 291 292 294 295
		f 4 -525 -524 -523 -522
		mu 0 4 335 336 346 349
		f 4 -528 526 -526 -514
		mu 0 4 721 296 297 287
		f 4 525 530 -530 -529
		mu 0 4 287 297 561 562
		f 4 534 -534 -533 531
		mu 0 4 300 301 302 303
		f 4 -539 -538 -537 535
		mu 0 4 563 564 462 464
		f 4 -542 -541 -540 -527
		mu 0 4 296 304 305 297
		f 4 539 -544 -543 -531
		mu 0 4 297 305 565 561
		f 4 546 -546 -545 533
		mu 0 4 301 306 307 302
		f 4 -550 -549 -548 537
		mu 0 4 564 566 463 462
		f 4 -554 -553 -552 -551
		mu 0 4 308 309 311 313
		f 4 551 -557 -556 -555
		mu 0 4 313 311 567 568
		f 4 560 -560 -559 -558
		mu 0 4 316 337 338 339
		f 4 -565 -564 -563 -562
		mu 0 4 569 570 458 457
		f 4 -569 567 -567 -566
		mu 0 4 340 736 574 343
		f 4 -573 -572 -571 -570
		mu 0 4 571 740 456 455
		f 4 576 -576 -575 -574
		mu 0 4 344 365 739 373
		f 4 566 579 -579 -578
		mu 0 4 343 574 741 576
		f 4 583 582 -582 -581
		mu 0 4 390 385 577 578
		f 4 -587 585 -584 -585
		mu 0 4 382 383 385 390
		f 4 -591 -590 -589 -588
		mu 0 4 579 580 461 459
		f 4 594 -594 -593 -592
		mu 0 4 391 392 394 397
		f 4 -601 -991 993 -599
		mu 0 4 399 402 404 405
		f 4 -604 -603 54 601
		mu 0 4 583 584 180 170
		f 4 606 -606 -605 125
		mu 0 4 191 265 324 192
		f 4 -609 -608 -607 58
		mu 0 4 196 327 265 191
		f 4 611 -611 -610 199
		mu 0 4 72 260 350 73
		f 4 -615 -614 86 612
		mu 0 4 332 328 223 220
		f 4 -617 -616 -613 63
		mu 0 4 232 246 332 220
		f 4 542 -619 -547 -618
		mu 0 4 561 565 306 301
		f 4 620 -595 -620 581
		mu 0 4 577 392 391 578
		f 4 -623 -561 -622 555
		mu 0 4 567 337 316 568
		f 4 624 -577 -624 578
		mu 0 4 741 365 344 576
		f 4 -628 626 -626 523
		mu 0 4 336 351 353 346
		f 4 630 -630 572 -629
		mu 0 4 586 587 740 571
		f 4 633 -633 564 -632
		mu 0 4 588 589 570 569
		f 4 636 -636 590 -635
		mu 0 4 590 591 580 579
		f 4 639 -639 549 637
		mu 0 4 592 593 566 564
		f 4 641 -638 538 640
		mu 0 4 594 592 564 563
		f 4 643 -643 608 84
		mu 0 4 208 347 327 196
		f 4 -645 -612 62 613
		mu 0 4 328 260 72 223
		f 4 617 -535 -646 529
		mu 0 4 561 301 300 562
		f 4 596 -649 -648 -647
		mu 0 4 417 418 419 420
		f 4 -653 -652 -651 649
		mu 0 4 354 355 356 357
		f 4 655 -655 603 653
		mu 0 4 597 598 584 583
		f 4 658 -658 -657 605
		mu 0 4 265 321 322 324
		f 4 -660 -536 -659 607
		mu 0 4 327 345 321 265
		f 4 660 -641 659 642
		mu 0 4 347 348 345 327
		f 4 662 -532 -662 610
		mu 0 4 260 259 352 350
		f 4 645 -663 644 663
		mu 0 4 256 259 260 328
		f 4 528 -664 614 664
		mu 0 4 329 256 328 332
		f 4 -666 -517 -665 615
		mu 0 4 246 249 329 332
		f 4 -670 -669 -668 666
		mu 0 4 358 359 360 361
		f 4 -673 -667 -672 -671
		mu 0 4 362 358 361 363
		f 4 -676 -675 403 -674
		mu 0 4 364 369 177 176
		f 4 -679 -678 675 -677
		mu 0 4 370 375 369 364
		f 4 668 -682 -681 -680
		mu 0 4 360 359 376 733
		f 4 -685 -684 665 682
		mu 0 4 367 368 249 246
		f 4 -687 -683 616 -686
		mu 0 4 724 367 246 232
		f 4 -689 -688 114 604
		mu 0 4 324 372 323 192
		f 4 -691 -690 688 656
		mu 0 4 322 371 372 324
		f 4 683 -693 -692 515
		mu 0 4 249 368 727 288
		f 3 -696 -695 -694
		mu 0 3 378 713 712
		f 4 697 -697 -133 602
		mu 0 4 414 415 198 197
		f 3 -701 -700 -699
		mu 0 3 713 356 416
		f 4 699 651 -703 -702
		mu 0 4 416 356 355 466
		f 3 -705 -698 -704
		mu 0 3 467 415 414
		f 4 143 -708 -707 -706
		mu 0 4 374 384 426 425
		f 4 706 -710 -709 -650
		mu 0 4 425 426 427 428
		f 4 711 -711 -145 696
		mu 0 4 436 435 398 764
		f 4 150 714 -714 -713
		mu 0 4 74 79 386 387
		f 4 713 717 -717 -716
		mu 0 4 387 386 430 756
		f 4 720 -720 -152 718
		mu 0 4 438 437 403 763
		f 4 157 -723 -722 -715
		mu 0 4 79 244 388 386
		f 4 721 -725 -724 -718
		mu 0 4 386 388 432 430
		f 4 726 -726 -159 719
		mu 0 4 437 439 452 403
		f 4 166 729 -729 727
		mu 0 4 453 454 402 433
		f 4 732 -732 -169 730
		mu 0 4 441 440 465 460
		f 4 728 600 -735 733
		mu 0 4 433 402 399 434
		f 4 -730 159 599 990
		mu 0 4 402 454 71 404
		f 4 731 735 992 174
		mu 0 4 465 440 442 485
		f 4 739 -739 -738 -737
		mu 0 4 379 380 407 408
		f 4 -743 -742 -656 740
		mu 0 4 409 410 411 412
		f 4 -746 -745 -744 701
		mu 0 4 413 707 396 395
		f 4 -740 647 -748 -747
		mu 0 4 380 379 389 396
		f 4 741 -750 745 748
		mu 0 4 411 410 707 413
		f 4 751 -751 -749 702
		mu 0 4 355 467 469 466
		f 4 704 -752 652 752
		mu 0 4 415 467 355 354
		f 4 -712 -753 708 -754
		mu 0 4 435 436 428 427
		f 4 755 -721 -755 716
		mu 0 4 430 437 438 756
		f 4 -727 -756 723 -757
		mu 0 4 439 437 430 432
		f 4 758 -733 757 734
		mu 0 4 399 440 441 434
		f 4 -759 598 994 -736
		mu 0 4 440 399 405 442
		f 4 -760 -644 60 609
		mu 0 4 350 347 208 73
		f 4 -761 -661 759 661
		mu 0 4 352 348 347 350
		f 4 -762 -642 760 532
		mu 0 4 302 443 444 303
		f 4 -763 -640 761 544
		mu 0 4 307 445 443 302
		f 4 -765 -637 -764 592
		mu 0 4 394 446 447 397
		f 4 -767 -634 -766 558
		mu 0 4 338 448 449 339
		f 4 -769 -631 -768 574
		mu 0 4 739 737 451 373
		f 4 771 770 627 769
		mu 0 4 475 477 351 336
		f 4 773 -770 524 -773
		mu 0 4 478 475 336 335
		f 4 570 775 568 -775
		mu 0 4 455 456 736 340
		f 4 562 -778 553 -777
		mu 0 4 457 458 309 308
		f 4 588 779 586 -779
		mu 0 4 459 461 383 382
		f 4 547 -782 541 -781
		mu 0 4 462 463 304 296
		f 4 536 780 527 -783
		mu 0 4 464 462 296 721
		f 4 -784 657 782 514
		mu 0 4 288 468 720 289
		f 4 -785 690 783 691
		mu 0 4 727 726 468 288
		f 4 -787 678 -786 680
		mu 0 4 718 375 370 377
		f 4 -789 -741 -788 737
		mu 0 4 407 409 412 408
		f 4 518 791 -791 -790
		mu 0 4 295 294 472 473
		f 4 695 792 650 700
		mu 0 4 713 378 357 356
		f 3 750 703 654
		mu 0 3 469 467 414
		f 4 796 795 -795 -794
		mu 0 4 474 476 479 481
		f 4 800 -800 -799 797
		mu 0 4 482 483 484 486
		f 4 802 798 -802 -797
		mu 0 4 474 486 484 476
		f 4 794 805 -805 -804
		mu 0 4 481 479 487 488
		f 4 808 -808 -807 804
		mu 0 4 487 489 490 488
		f 4 807 -811 -801 809
		mu 0 4 490 489 483 482
		f 4 813 812 -812 -796
		mu 0 4 605 606 607 608
		f 4 816 -816 -815 799
		mu 0 4 609 610 611 612
		f 4 801 814 -818 -814
		mu 0 4 605 612 611 606
		f 4 811 819 -819 -806
		mu 0 4 699 700 613 614
		f 4 821 -821 -809 818
		mu 0 4 613 615 616 614
		f 4 820 -823 -817 810
		mu 0 4 616 615 610 609
		f 4 825 824 -824 -813
		mu 0 4 492 537 548 558
		f 4 828 -828 -827 815
		mu 0 4 560 581 582 595
		f 4 817 826 -830 -826
		mu 0 4 492 595 582 537
		f 4 823 831 -831 -820
		mu 0 4 558 548 596 604
		f 4 833 -833 -822 830
		mu 0 4 596 648 661 604
		f 4 832 -835 -829 822
		mu 0 4 661 648 581 560
		f 4 836 517 -836 -825
		mu 0 4 617 618 698 620
		f 4 838 -520 -838 827
		mu 0 4 621 622 623 624
		f 4 829 837 -521 -837
		mu 0 4 617 624 623 618
		f 4 835 789 -840 -832
		mu 0 4 697 619 625 626
		f 4 790 -841 -834 839
		mu 0 4 625 627 628 626
		f 4 840 -792 -839 834
		mu 0 4 628 627 622 621
		f 4 842 698 -842 648
		mu 0 4 418 381 714 419
		f 4 694 -843 597 -844
		mu 0 4 406 381 418 480
		f 4 -846 -798 -845 744
		mu 0 4 629 630 631 632
		f 4 846 -810 845 749
		mu 0 4 633 634 630 629
		f 4 806 -847 742 847
		mu 0 4 635 634 633 636
		f 4 803 -848 788 848
		mu 0 4 637 635 636 695
		f 4 849 793 -849 738
		mu 0 4 639 640 696 638
		f 4 -803 -850 746 844
		mu 0 4 631 640 639 632
		f 3 747 841 743
		mu 0 3 396 389 395
		f 4 -853 -852 -851 540
		mu 0 4 304 674 641 305
		f 4 850 -855 -854 543
		mu 0 4 305 641 642 565
		f 4 -857 618 853 -856
		mu 0 4 643 306 565 642
		f 4 856 -859 -858 545
		mu 0 4 306 643 675 307
		f 4 -861 762 857 -860
		mu 0 4 676 445 307 675
		f 4 860 -863 861 638
		mu 0 4 593 644 645 566
		f 4 -862 -865 -864 548
		mu 0 4 566 645 646 463
		f 4 863 -866 852 781
		mu 0 4 463 646 674 304
		f 4 -868 550 -867 -586
		mu 0 4 383 308 313 385
		f 4 866 554 -869 -583
		mu 0 4 385 313 568 577
		f 4 -870 -621 868 621
		mu 0 4 316 392 577 568
		f 4 869 557 -871 593
		mu 0 4 392 316 339 394
		f 4 -872 764 870 765
		mu 0 4 449 446 394 339
		f 4 871 631 872 635
		mu 0 4 591 588 569 580
		f 4 -873 561 -874 589
		mu 0 4 580 569 457 461
		f 4 873 776 867 -780
		mu 0 4 461 457 308 383
		f 4 876 -876 -875 -568
		mu 0 4 341 677 678 342
		f 4 880 879 -879 -878
		mu 0 4 647 679 649 650
		f 4 878 883 -883 -882
		mu 0 4 650 649 651 652
		f 4 886 -886 -885 575
		mu 0 4 585 680 681 366
		f 4 884 -889 -888 768
		mu 0 4 366 681 682 450
		f 4 887 -891 -890 629
		mu 0 4 738 653 654 572
		f 4 892 -892 -877 -776
		mu 0 4 573 655 677 341
		f 4 889 -894 -893 571
		mu 0 4 572 654 655 573
		f 4 896 -896 -895 -580
		mu 0 4 342 656 657 575
		f 4 899 -899 -898 522
		mu 0 4 346 495 496 349
		f 4 897 -903 -902 900
		mu 0 4 683 684 656 678
		f 4 894 -905 -904 -625
		mu 0 4 575 657 658 585
		f 3 903 -906 -887
		mu 0 3 585 658 680
		f 4 907 -907 -900 625
		mu 0 4 353 497 495 346
		f 4 909 -881 -909 902
		mu 0 4 684 679 647 656
		f 4 910 -880 -910 898
		mu 0 4 495 498 499 496
		f 4 911 -884 -911 906
		mu 0 4 497 500 498 495
		f 4 913 882 -912 912
		mu 0 4 658 652 651 685
		f 4 914 881 -914 904
		mu 0 4 657 650 652 658
		f 4 908 877 -915 895
		mu 0 4 656 647 650 657
		f 4 916 715 -916 709
		mu 0 4 426 429 431 427
		f 4 384 712 -917 707
		mu 0 4 384 542 429 426
		f 4 917 -719 -387 710
		mu 0 4 435 603 401 398
		f 4 754 -918 753 915
		mu 0 4 431 603 435 427
		f 4 131 -920 693 -919
		mu 0 4 319 325 378 712
		f 4 275 918 843 920
		mu 0 4 326 711 406 480
		f 4 51 -921 595 -922
		mu 0 4 543 326 480 659
		f 4 670 -924 417 -923
		mu 0 4 362 363 333 331
		f 3 -925 685 123
		mu 0 3 725 724 232
		f 4 400 705 -793 919
		mu 0 4 325 334 357 378
		f 4 -926 -602 56 674
		mu 0 4 660 583 170 547
		f 4 -927 -654 925 677
		mu 0 4 471 597 583 660
		f 4 787 926 786 927
		mu 0 4 686 597 471 422
		f 4 928 736 -928 681
		mu 0 4 421 420 686 422
		f 4 646 -929 669 929
		mu 0 4 417 420 421 662
		f 4 921 930 922 402
		mu 0 4 543 659 663 550
		f 4 931 924 112 923
		mu 0 4 363 599 545 333
		f 4 -933 686 -932 671
		mu 0 4 361 600 599 363
		f 4 -934 684 932 667
		mu 0 4 360 423 600 361
		f 4 933 679 -935 692
		mu 0 4 423 360 733 424
		f 4 935 784 934 785
		mu 0 4 370 470 732 377
		f 4 -936 676 936 689
		mu 0 4 470 370 364 601
		f 4 -937 673 430 687
		mu 0 4 601 364 176 728
		f 4 -939 584 -938 851
		mu 0 4 674 382 390 641
		f 4 939 778 938 865
		mu 0 4 646 459 382 674
		f 4 -941 587 -940 864
		mu 0 4 645 579 459 646
		f 4 941 634 940 862
		mu 0 4 644 590 579 645
		f 4 -942 859 942 763
		mu 0 4 447 676 675 397
		f 4 943 591 -943 858
		mu 0 4 643 391 397 675
		f 4 -944 855 944 619
		mu 0 4 391 643 642 578
		f 4 937 580 -945 854
		mu 0 4 641 390 578 642
		f 4 -948 946 -946 552
		mu 0 4 309 687 664 311
		f 4 945 949 -949 556
		mu 0 4 311 664 665 567
		f 4 -952 622 948 950
		mu 0 4 666 337 567 665
		f 4 951 953 -953 559
		mu 0 4 337 666 688 338
		f 4 -956 766 952 954
		mu 0 4 689 448 338 688
		f 4 955 957 956 632
		mu 0 4 589 667 668 570
		f 4 -957 959 -959 563
		mu 0 4 570 668 669 458
		f 4 958 960 947 777
		mu 0 4 458 669 687 309
		f 4 961 521 -901 875
		mu 0 4 677 690 683 678
		f 4 963 -627 -963 885
		mu 0 4 680 691 692 681
		f 4 962 -771 -965 888
		mu 0 4 681 692 693 682
		f 4 964 -772 -966 890
		mu 0 4 653 670 671 654
		f 4 966 772 -962 891
		mu 0 4 655 672 690 677
		f 4 965 -774 -967 893
		mu 0 4 654 671 672 655
		f 3 -897 874 901
		mu 0 3 656 342 678
		f 4 -913 -908 -964 905
		mu 0 4 658 685 691 680
		f 4 968 -731 -481 967
		mu 0 4 673 441 460 557
		f 4 -758 -969 970 969
		mu 0 4 434 441 673 694
		f 4 972 -734 -970 971
		mu 0 4 602 433 434 694
		f 4 479 -728 -973 973
		mu 0 4 559 453 433 602
		f 4 -976 565 -975 -947
		mu 0 4 687 340 343 664
		f 4 974 577 -977 -950
		mu 0 4 664 343 576 665
		f 4 -978 -951 976 623
		mu 0 4 344 666 665 576
		f 4 977 573 -979 -954
		mu 0 4 666 344 373 688
		f 4 -980 -955 978 767
		mu 0 4 451 689 688 373
		f 4 979 628 980 -958
		mu 0 4 667 586 571 668
		f 4 -981 569 -982 -960
		mu 0 4 668 571 455 669
		f 4 981 774 975 -961
		mu 0 4 669 455 340 687
		f 4 983 -972 -983 724
		mu 0 4 388 602 694 432
		f 4 507 -974 -984 722
		mu 0 4 244 559 602 388
		f 4 984 -968 -510 725
		mu 0 4 439 673 557 452
		f 4 -971 -985 756 982
		mu 0 4 694 673 439 432
		f 4 198 -989 985 163
		mu 0 4 132 51 50 133
		f 4 175 -990 -199 195
		mu 0 4 140 206 51 132
		f 4 -994 -600 172 -992
		mu 0 4 405 404 71 70
		f 4 -995 991 197 -993
		mu 0 4 442 405 70 755;
	setAttr ".fc[500:516]"
		f 4 -930 672 -931 995
		mu 0 4 417 662 663 659
		f 4 -996 -596 -598 -597
		mu 0 4 417 659 480 418
		f 4 -999 -1005 -1003 -1001
		mu 0 4 765 766 767 768
		f 3 1000 -997 -1000
		mu 0 3 769 770 771
		f 4 996 1002 -998 -1002
		mu 0 4 772 773 774 775
		f 3 997 1004 -1004
		mu 0 3 776 777 778
		f 4 1003 998 999 1001
		mu 0 4 779 780 781 782
		f 4 -1008 -1014 -1012 -1010
		mu 0 4 783 784 785 786
		f 3 1009 -1006 -1009
		mu 0 3 787 788 789
		f 4 1005 1011 -1007 -1011
		mu 0 4 790 791 792 793
		f 3 1006 1013 -1013
		mu 0 3 794 795 796
		f 4 1012 1007 1008 1010
		mu 0 4 797 798 799 800
		f 4 -1017 -1023 -1021 -1019
		mu 0 4 801 802 803 804
		f 3 1018 -1015 -1018
		mu 0 3 805 806 807
		f 4 1014 1020 -1016 -1020
		mu 0 4 808 809 810 811
		f 3 1015 1022 -1022
		mu 0 3 812 813 814
		f 4 1021 1016 1017 1019
		mu 0 4 815 816 817 818;
	setAttr ".cd" -type "dataPolyComponent" Index_Data Edge 0 ;
	setAttr ".cvd" -type "dataPolyComponent" Index_Data Vertex 0 ;
	setAttr ".pd[0]" -type "dataPolyComponent" Index_Data UV 0 ;
	setAttr ".hfd" -type "dataPolyComponent" Index_Data Face 0 ;
	setAttr ".bw" 3;
createNode groupId -n "groupId19";
	rename -uid "44A6279A-4CEA-DDA3-3B4C-1B865D2A2D56";
	setAttr ".ihi" 0;
createNode shadingEngine -n "lambert2SG";
	rename -uid "88932BD7-4A64-69FD-6755-23A6E14EC9BB";
	setAttr ".ihi" 0;
	setAttr ".ro" yes;
createNode materialInfo -n "materialInfo1";
	rename -uid "858B3400-4CFB-B76A-9671-A29F703FB7D0";
createNode lambert -n "lambert2";
	rename -uid "60936062-46C9-2279-FF08-258DC6FA2000";
createNode file -n "file1";
	rename -uid "22B710AF-4520-81EE-A03C-0EA3B07CB453";
	setAttr ".ftn" -type "string" "//gamesserver2/Games/2015-2017/Sophie/Claudio/Statue_Enemies//sourceimages/SleepingGiant_Male_Texture.psd";
	setAttr ".cs" -type "string" "sRGB";
createNode place2dTexture -n "place2dTexture1";
	rename -uid "EB7D3549-48E6-7A63-1CA7-9A825BF630B5";
createNode lightLinker -s -n "lightLinker1";
	rename -uid "93C8F456-49F4-D1D6-1982-7BA68C718BAE";
	setAttr -s 8 ".lnk";
	setAttr -s 8 ".slnk";
select -ne :time1;
	setAttr ".o" 1;
	setAttr ".unw" 1;
select -ne :hardwareRenderingGlobals;
	setAttr ".otfna" -type "stringArray" 22 "NURBS Curves" "NURBS Surfaces" "Polygons" "Subdiv Surface" "Particles" "Particle Instance" "Fluids" "Strokes" "Image Planes" "UI" "Lights" "Cameras" "Locators" "Joints" "IK Handles" "Deformers" "Motion Trails" "Components" "Hair Systems" "Follicles" "Misc. UI" "Ornaments"  ;
	setAttr ".otfva" -type "Int32Array" 22 0 1 1 1 1 1
		 1 1 1 0 0 0 0 0 0 0 0 0
		 0 0 0 0 ;
	setAttr ".fprt" yes;
select -ne :renderPartition;
	setAttr -s 8 ".st";
select -ne :renderGlobalsList1;
select -ne :defaultShaderList1;
	setAttr -s 10 ".s";
select -ne :postProcessList1;
	setAttr -s 2 ".p";
select -ne :defaultRenderUtilityList1;
	setAttr -s 6 ".u";
select -ne :defaultRenderingList1;
	setAttr -s 2 ".r";
select -ne :defaultTextureList1;
	setAttr -s 3 ".tx";
select -ne :initialShadingGroup;
	setAttr ".ro" yes;
select -ne :initialParticleSE;
	setAttr ".ro" yes;
select -ne :defaultRenderGlobals;
	setAttr ".mcfr" 30;
select -ne :defaultResolution;
	setAttr ".pa" 1;
select -ne :hardwareRenderGlobals;
	setAttr ".ctrs" 256;
	setAttr ".btrs" 512;
	setAttr ".hwfr" 30;
select -ne :ikSystem;
	setAttr -s 4 ".sol";
connectAttr "groupId19.id" "SleepingGiant_MaleShape.iog.og[0].gid";
connectAttr "lambert2SG.mwc" "SleepingGiant_MaleShape.iog.og[0].gco";
connectAttr "lambert2.oc" "lambert2SG.ss";
connectAttr "SleepingGiant_MaleShape.iog.og[0]" "lambert2SG.dsm" -na;
connectAttr "groupId19.msg" "lambert2SG.gn" -na;
connectAttr "lambert2SG.msg" "materialInfo1.sg";
connectAttr "lambert2.msg" "materialInfo1.m";
connectAttr "file1.msg" "materialInfo1.t" -na;
connectAttr "file1.oc" "lambert2.c";
connectAttr ":defaultColorMgtGlobals.cme" "file1.cme";
connectAttr ":defaultColorMgtGlobals.cfe" "file1.cmcf";
connectAttr ":defaultColorMgtGlobals.cfp" "file1.cmcp";
connectAttr ":defaultColorMgtGlobals.wsn" "file1.ws";
connectAttr "place2dTexture1.c" "file1.c";
connectAttr "place2dTexture1.tf" "file1.tf";
connectAttr "place2dTexture1.rf" "file1.rf";
connectAttr "place2dTexture1.mu" "file1.mu";
connectAttr "place2dTexture1.mv" "file1.mv";
connectAttr "place2dTexture1.s" "file1.s";
connectAttr "place2dTexture1.wu" "file1.wu";
connectAttr "place2dTexture1.wv" "file1.wv";
connectAttr "place2dTexture1.re" "file1.re";
connectAttr "place2dTexture1.of" "file1.of";
connectAttr "place2dTexture1.r" "file1.ro";
connectAttr "place2dTexture1.n" "file1.n";
connectAttr "place2dTexture1.vt1" "file1.vt1";
connectAttr "place2dTexture1.vt2" "file1.vt2";
connectAttr "place2dTexture1.vt3" "file1.vt3";
connectAttr "place2dTexture1.vc1" "file1.vc1";
connectAttr "place2dTexture1.o" "file1.uv";
connectAttr "place2dTexture1.ofs" "file1.fs";
relationship "link" ":lightLinker1" ":initialShadingGroup.message" ":defaultLightSet.message";
relationship "link" ":lightLinker1" ":initialParticleSE.message" ":defaultLightSet.message";
relationship "link" ":lightLinker1" "lambert2SG.message" ":defaultLightSet.message";
relationship "shadowLink" ":lightLinker1" ":initialShadingGroup.message" ":defaultLightSet.message";
relationship "shadowLink" ":lightLinker1" ":initialParticleSE.message" ":defaultLightSet.message";
relationship "shadowLink" ":lightLinker1" "lambert2SG.message" ":defaultLightSet.message";
connectAttr "lambert2SG.pa" ":renderPartition.st" -na;
connectAttr "lambert2.msg" ":defaultShaderList1.s" -na;
connectAttr "place2dTexture1.msg" ":defaultRenderUtilityList1.u" -na;
connectAttr "file1.msg" ":defaultTextureList1.tx" -na;
// End of SleepingGiant_Male.ma
